<?xml version="1.0" encoding="UTF-8" standalone="no"?>
<svg
   xmlns:dc="http://purl.org/dc/elements/1.1/"
   xmlns:cc="http://creativecommons.org/ns#"
   xmlns:rdf="http://www.w3.org/1999/02/22-rdf-syntax-ns#"
   xmlns:svg="http://www.w3.org/2000/svg"
   xmlns="http://www.w3.org/2000/svg"
   xmlns:sodipodi="http://sodipodi.sourceforge.net/DTD/sodipodi-0.dtd"
   xmlns:inkscape="http://www.inkscape.org/namespaces/inkscape"
   inkscape:export-ydpi="240.98"
   inkscape:export-xdpi="240.98"
   inkscape:export-filename="B:\Data\ABC\your-risk.com\your-covid-19-risk\design\posters\QR-code--design-4.png"
   id="svg8"
   version="1.1"
   viewBox="0 0 210 297"
   height="297mm"
   width="210mm"
   sodipodi:docname="QR-code--design-4.svg"
   inkscape:version="1.0 (4035a4fb49, 2020-05-01)">
  <sodipodi:namedview
     inkscape:document-rotation="0"
     pagecolor="#ffffff"
     bordercolor="#666666"
     borderopacity="1"
     objecttolerance="10"
     gridtolerance="10"
     guidetolerance="10"
     inkscape:pageopacity="0"
     inkscape:pageshadow="2"
     inkscape:window-width="1920"
     inkscape:window-height="975"
     id="namedview7266"
     showgrid="false"
     inkscape:snap-page="true"
     inkscape:snap-bbox="true"
     inkscape:bbox-nodes="true"
     inkscape:zoom="0.65477694"
     inkscape:cx="396.85039"
     inkscape:cy="561.25984"
     inkscape:window-x="-8"
     inkscape:window-y="-8"
     inkscape:window-maximized="1"
     inkscape:current-layer="svg8" />
  <defs
     id="defs2">
    <clipPath
       clipPathUnits="userSpaceOnUse"
       id="clipPath26">
      <path
         d="M 0,0 H 2483.3333 V 3540.4688 H 0 Z"
         clip-rule="evenodd"
         id="path24" />
    </clipPath>
    <clipPath
       clipPathUnits="userSpaceOnUse"
       id="clipPath38">
      <path
         d="M 0,0 H 2483.3333 V 3512.3203 H 0 Z"
         clip-rule="evenodd"
         id="path36" />
    </clipPath>
    <clipPath
       clipPathUnits="userSpaceOnUse"
       id="clipPath50">
      <path
         d="M 0,0 H 2483.3333 V 3512.3203 H 0 Z"
         clip-rule="evenodd"
         id="path48" />
    </clipPath>
    <clipPath
       clipPathUnits="userSpaceOnUse"
       id="clipPath58">
      <path
         d="M 0,0 H 1353 V 296 H 0 Z"
         id="path56" />
    </clipPath>
    <clipPath
       clipPathUnits="userSpaceOnUse"
       id="clipPath72">
      <path
         d="m 163.55864,298.9375 h 603.63141 v 969.5634 H 163.55864 Z"
         clip-rule="evenodd"
         id="path70" />
    </clipPath>
    <clipPath
       clipPathUnits="userSpaceOnUse"
       id="clipPath84">
      <path
         d="m 163.55864,1268.5009 h 603.63141 v 969.5633 H 163.55864 Z"
         clip-rule="evenodd"
         id="path82" />
    </clipPath>
    <clipPath
       clipPathUnits="userSpaceOnUse"
       id="clipPath96">
      <path
         d="M 163.55864,2238.0642 H 767.19005 V 3204.5 H 163.55864 Z"
         clip-rule="evenodd"
         id="path94" />
    </clipPath>
    <clipPath
       clipPathUnits="userSpaceOnUse"
       id="clipPath108">
      <path
         d="M 882.63019,3054.8066 H 2233.7637 v 31.2761 H 882.63019 Z"
         clip-rule="evenodd"
         id="path106" />
    </clipPath>
    <clipPath
       clipPathUnits="userSpaceOnUse"
       id="clipPath120">
      <path
         d="m 1361.6864,2064.6641 h 872.6071 v 891.3728 h -872.6071 z"
         clip-rule="evenodd"
         id="path118" />
    </clipPath>
    <clipPath
       clipPathUnits="userSpaceOnUse"
       id="clipPath132">
      <path
         d="M 0,0 H 2483.3333 V 3512.3203 H 0 Z"
         clip-rule="evenodd"
         id="path130" />
    </clipPath>
    <clipPath
       clipPathUnits="userSpaceOnUse"
       id="clipPath244">
      <path
         d="M 0,2.4414063e-4 H 2483.3333 V 3540.4704 H 0 Z"
         clip-rule="evenodd"
         id="path242" />
    </clipPath>
    <clipPath
       clipPathUnits="userSpaceOnUse"
       id="clipPath256">
      <path
         d="M 0,2.4414063e-4 H 2483.3333 V 3512.3215 H 0 Z"
         clip-rule="evenodd"
         id="path254" />
    </clipPath>
    <clipPath
       clipPathUnits="userSpaceOnUse"
       id="clipPath268">
      <path
         d="M 1040.4301,1705.7661 3.7567218e-6,1262.0658 0,2.4414063e-4 979.25415,2.4912407e-4 1646.5159,284.55975 Z"
         clip-rule="evenodd"
         id="path266" />
    </clipPath>
    <clipPath
       clipPathUnits="userSpaceOnUse"
       id="clipPath292">
      <path
         d="M 936.98865,2320.0339 2483.3333,1971.2926 V 3512.3215 H 1205.8806 Z"
         clip-rule="evenodd"
         id="path290" />
    </clipPath>
    <clipPath
       clipPathUnits="userSpaceOnUse"
       id="clipPath316">
      <path
         d="M 2483.3333,885.09906 V 26.245432 l -730.0065,149.764788 169.082,824.16558 z"
         clip-rule="evenodd"
         id="path314" />
    </clipPath>
    <clipPath
       clipPathUnits="userSpaceOnUse"
       id="clipPath402">
      <path
         d="M 9.9303761e-6,2885.7346 386.63483,2806.4143 506.06079,3388.5386 0,3492.3596 Z"
         clip-rule="evenodd"
         id="path400" />
    </clipPath>
    <clipPath
       clipPathUnits="userSpaceOnUse"
       id="clipPath480">
      <path
         d="M 83.941238,2393.8196 H 1091.0361 V 3422.8079 H 83.941238 Z"
         clip-rule="evenodd"
         id="path478" />
    </clipPath>
    <clipPath
       clipPathUnits="userSpaceOnUse"
       id="clipPath492">
      <path
         d="M 0,2.4414063e-4 H 2483.3333 V 3512.3215 H 0 Z"
         clip-rule="evenodd"
         id="path490" />
    </clipPath>
    <clipPath
       clipPathUnits="userSpaceOnUse"
       id="clipPath660">
      <path
         d="M 0,0 H 2483.3333 V 3540.4707 H 0 Z"
         clip-rule="evenodd"
         id="path658" />
    </clipPath>
    <clipPath
       clipPathUnits="userSpaceOnUse"
       id="clipPath672">
      <path
         d="M 0,0 H 2483.3333 V 3512.3215 H 0 Z"
         clip-rule="evenodd"
         id="path670" />
    </clipPath>
    <clipPath
       clipPathUnits="userSpaceOnUse"
       id="clipPath684">
      <path
         d="M 0,0 H 2483.3333 V 3512.3223 H 0 Z"
         clip-rule="evenodd"
         id="path682" />
    </clipPath>
    <clipPath
       clipPathUnits="userSpaceOnUse"
       id="clipPath692">
      <path
         d="M 0,0 H 1690 V 1615 H 0 Z"
         id="path690" />
    </clipPath>
    <clipPath
       clipPathUnits="userSpaceOnUse"
       id="clipPath696">
      <path
         d="M 224.52863,0.4609375 H 1350.4732 V 1276.5315 H 224.52863 Z"
         clip-rule="evenodd"
         id="path694" />
    </clipPath>
    <clipPath
       clipPathUnits="userSpaceOnUse"
       id="clipPath728">
      <path
         d="m 1664.1904,2647.9521 h 697.46 v 713.0981 h -697.46 z"
         clip-rule="evenodd"
         id="path726" />
    </clipPath>
    <clipPath
       clipPathUnits="userSpaceOnUse"
       id="clipPath791">
      <path
         d="M 0,9.765625e-4 H 2483.3333 V 3540.4717 H 0 Z"
         clip-rule="evenodd"
         id="path789" />
    </clipPath>
    <clipPath
       clipPathUnits="userSpaceOnUse"
       id="clipPath803">
      <path
         d="M 0,9.765625e-4 H 2483.3333 V 3512.3213 H 0 Z"
         clip-rule="evenodd"
         id="path801" />
    </clipPath>
    <clipPath
       clipPathUnits="userSpaceOnUse"
       id="clipPath815">
      <path
         d="M 0,888.7207 H 1142.3239 V 2346.1934 H 0 Z"
         clip-rule="evenodd"
         id="path813" />
    </clipPath>
    <clipPath
       clipPathUnits="userSpaceOnUse"
       id="clipPath2593">
      <path
         d="M 0,9.765625e-4 H 2483.3333 V 3512.3213 H 0 Z"
         clip-rule="evenodd"
         id="path2591" />
    </clipPath>
    <clipPath
       clipPathUnits="userSpaceOnUse"
       id="clipPath2605">
      <path
         d="M 1216.4744,1103.0215 H 2483.3333 V 2810.7041 H 1216.4744 Z"
         clip-rule="evenodd"
         id="path2603" />
    </clipPath>
    <clipPath
       clipPathUnits="userSpaceOnUse"
       id="clipPath4283">
      <path
         d="M 0,9.765625e-4 H 2483.3333 V 3512.3213 H 0 Z"
         clip-rule="evenodd"
         id="path4281" />
    </clipPath>
    <clipPath
       clipPathUnits="userSpaceOnUse"
       id="clipPath4295">
      <path
         d="M 0,2426.6455 H 1640.9763 V 3512.3213 H 0 Z"
         clip-rule="evenodd"
         id="path4293" />
    </clipPath>
    <clipPath
       clipPathUnits="userSpaceOnUse"
       id="clipPath5579">
      <path
         d="M 0,9.765625e-4 H 2483.3333 V 3512.3213 H 0 Z"
         clip-rule="evenodd"
         id="path5577" />
    </clipPath>
    <clipPath
       clipPathUnits="userSpaceOnUse"
       id="clipPath5591">
      <path
         d="M 1232.8471,1294.4248 H 2386.9402 V 1525.869 H 1232.8471 Z"
         clip-rule="evenodd"
         id="path5589" />
    </clipPath>
    <clipPath
       clipPathUnits="userSpaceOnUse"
       id="clipPath5603">
      <path
         d="M 346.30573,908.67773 H 1500.399 V 1140.1219 H 346.30573 Z"
         clip-rule="evenodd"
         id="path5601" />
    </clipPath>
    <clipPath
       clipPathUnits="userSpaceOnUse"
       id="clipPath5615">
      <path
         d="M 564.85651,2532.5596 H 1718.9498 v 231.4441 H 564.85651 Z"
         clip-rule="evenodd"
         id="path5613" />
    </clipPath>
    <clipPath
       clipPathUnits="userSpaceOnUse"
       id="clipPath5627">
      <path
         d="m 1641.9254,1587.2412 h 688.0773 v 756.885 h -688.0773 z"
         clip-rule="evenodd"
         id="path5625" />
    </clipPath>
    <clipPath
       clipPathUnits="userSpaceOnUse"
       id="clipPath5639">
      <path
         d="M 216.32024,2822.665 H 1032.63 v 609.8867 H 216.32024 Z"
         clip-rule="evenodd"
         id="path5637" />
    </clipPath>
    <clipPath
       clipPathUnits="userSpaceOnUse"
       id="clipPath5651">
      <path
         d="M 78.417343,1211.8682 H 753.98405 v 644.2905 H 78.417343 Z"
         clip-rule="evenodd"
         id="path5649" />
    </clipPath>
    <clipPath
       clipPathUnits="userSpaceOnUse"
       id="clipPath5663">
      <path
         d="M 0,9.765625e-4 H 2483.3333 V 3512.3213 H 0 Z"
         clip-rule="evenodd"
         id="path5661" />
    </clipPath>
    <clipPath
       clipPathUnits="userSpaceOnUse"
       id="clipPath5683">
      <path
         d="m 1869.1389,2903.2549 h 516.0579 v 528.5684 h -516.0579 z"
         clip-rule="evenodd"
         id="path5681" />
    </clipPath>
    <clipPath
       clipPathUnits="userSpaceOnUse"
       id="clipPath5695">
      <path
         d="M 0,9.765625e-4 H 2483.3333 V 3512.3213 H 0 Z"
         clip-rule="evenodd"
         id="path5693" />
    </clipPath>
    <clipPath
       clipPathUnits="userSpaceOnUse"
       id="clipPath8197">
      <path
         d="M 0,0 H 2483.3333 V 3540.4688 H 0 Z"
         clip-rule="evenodd"
         id="path8195" />
    </clipPath>
    <clipPath
       clipPathUnits="userSpaceOnUse"
       id="clipPath8209">
      <path
         d="M 0,0 H 2483.3333 V 3512.3203 H 0 Z"
         clip-rule="evenodd"
         id="path8207" />
    </clipPath>
    <clipPath
       clipPathUnits="userSpaceOnUse"
       id="clipPath8221">
      <path
         d="M 0,0 H 2483.3333 V 3512.3203 H 0 Z"
         clip-rule="evenodd"
         id="path8219" />
    </clipPath>
    <clipPath
       clipPathUnits="userSpaceOnUse"
       id="clipPath8229">
      <path
         d="M 0,0 H 1353 V 296 H 0 Z"
         id="path8227" />
    </clipPath>
    <clipPath
       clipPathUnits="userSpaceOnUse"
       id="clipPath8243">
      <path
         d="m 163.55864,298.9375 h 603.63141 v 969.5634 H 163.55864 Z"
         clip-rule="evenodd"
         id="path8241" />
    </clipPath>
    <clipPath
       clipPathUnits="userSpaceOnUse"
       id="clipPath8255">
      <path
         d="m 163.55864,1268.5009 h 603.63141 v 969.5633 H 163.55864 Z"
         clip-rule="evenodd"
         id="path8253" />
    </clipPath>
    <clipPath
       clipPathUnits="userSpaceOnUse"
       id="clipPath8267">
      <path
         d="M 163.55864,2238.0642 H 767.19005 V 3204.5 H 163.55864 Z"
         clip-rule="evenodd"
         id="path8265" />
    </clipPath>
    <clipPath
       clipPathUnits="userSpaceOnUse"
       id="clipPath8279">
      <path
         d="M 882.63019,3054.8066 H 2233.7637 v 31.2761 H 882.63019 Z"
         clip-rule="evenodd"
         id="path8277" />
    </clipPath>
    <clipPath
       clipPathUnits="userSpaceOnUse"
       id="clipPath8291">
      <path
         d="m 1361.6864,2064.6641 h 872.6071 v 891.3728 h -872.6071 z"
         clip-rule="evenodd"
         id="path8289" />
    </clipPath>
    <clipPath
       clipPathUnits="userSpaceOnUse"
       id="clipPath8303">
      <path
         d="M 0,0 H 2483.3333 V 3512.3203 H 0 Z"
         clip-rule="evenodd"
         id="path8301" />
    </clipPath>
    <clipPath
       id="clipPath32803"
       clipPathUnits="userSpaceOnUse">
      <path
         id="path32801"
         d="M 561.547,352.328 H 708.983 V 248.898 H 561.547 Z" />
    </clipPath>
    <clipPath
       id="clipPath32707"
       clipPathUnits="userSpaceOnUse">
      <path
         id="path32705"
         d="M 346.916,377.527 H 484.421 V 243.274 H 346.916 Z" />
    </clipPath>
    <clipPath
       id="clipPath32739"
       clipPathUnits="userSpaceOnUse">
      <path
         id="path32737"
         d="M 144.043,374.156 H 282.708 V 242.773 H 144.043 Z" />
    </clipPath>
    <linearGradient
       y2="209.8271"
       x2="294.35931"
       y1="6.5303001"
       x1="91.062599"
       gradientUnits="userSpaceOnUse"
       id="SVGID_1_">
      <stop
         id="stop2"
         style="stop-color:#B7212B"
         offset="0" />
      <stop
         id="stop4"
         style="stop-color:#C62D35"
         offset="7.399303e-02" />
      <stop
         id="stop6"
         style="stop-color:#D63941"
         offset="0.1787" />
      <stop
         id="stop8"
         style="stop-color:#E14349"
         offset="0.3091" />
      <stop
         id="stop10"
         style="stop-color:#E8494F"
         offset="0.4921" />
      <stop
         id="stop12"
         style="stop-color:#E94A50"
         offset="1" />
    </linearGradient>
  </defs>
  <metadata
     id="metadata5">
    <rdf:RDF>
      <cc:Work
         rdf:about="">
        <dc:format>image/svg+xml</dc:format>
        <dc:type
           rdf:resource="http://purl.org/dc/dcmitype/StillImage" />
        <dc:title></dc:title>
      </cc:Work>
    </rdf:RDF>
  </metadata>
  <g
     id="g8191"
     transform="matrix(0.08466666,0,0,0.08466666,-0.80633962,-1.2775003)">
    <g
       id="g8193"
       clip-path="url(#clipPath8197)">
      <g
         id="g8199"
         transform="matrix(3.1276238,0,0,3.1276238,0,-17702.352)">
        <path
           d="M 0,5660 H 794 V 6783 H 0 Z"
           style="fill:#ffffff;fill-opacity:1;fill-rule:nonzero;stroke:none"
           id="path8201" />
      </g>
    </g>
  </g>
  <g
     id="g8203"
     transform="matrix(0.08456376,0,0,0.08285231,0,5.9961516)">
    <g
       id="g8205"
       clip-path="url(#clipPath8209)">
      <g
         id="g8211"
         transform="scale(3.1276238)">
        <path
           d="M 0,0 H 794 V 1123 H 0 Z"
           style="fill:#ffffff;fill-opacity:1;fill-rule:nonzero;stroke:none"
           id="path8213" />
      </g>
    </g>
  </g>
  <g
     id="g8215"
     transform="matrix(0.08466666,0,0,0.08466666,-0.80633962,-1.2775003)">
    <g
       id="g8217"
       clip-path="url(#clipPath8221)">
      <g
         id="g8223"
         transform="translate(995,2120)">
        <g
           id="g8225" />
        <g
           id="g8235">
          <g
             clip-path="url(#clipPath8229)"
             opacity="0.8"
             id="g8233">
            <g
               transform="matrix(8.190402,0,0,8.190402,0.76275635,0.76757813)"
               id="g8231" />
          </g>
        </g>
      </g>
    </g>
  </g>
  <g
     id="g8273"
     transform="matrix(0.08466666,0,0,0.08466666,-0.80633962,-1.2775003)">
    <g
       id="g8275"
       clip-path="url(#clipPath8279)">
      <g
         id="g8281"
         transform="matrix(3.1276238,0,0,3.1276238,882.63019,3054.8066)">
        <path
           d="M 0,0 H 432 V 10 H 0 Z"
           style="fill:#e14b51;fill-opacity:1;fill-rule:nonzero;stroke:none"
           id="path8283" />
      </g>
    </g>
  </g>
  <g
     id="g8297"
     transform="matrix(0.08466666,0,0,0.08466666,-0.25553563,0)">
    <g
       id="g8299"
       clip-path="url(#clipPath8303)">
      <g
         id="g8305"
         transform="matrix(3.5143473,0,0,3.5143473,1078.5576,-310.57422)">
        <path
           d="m 250,0 c -4.09145,0 -8.18042,0.10037863 -12.26692,0.3011359 -4.0865,0.20075726 -8.16564,0.50165134 -12.23737,0.9026823 -4.07173,0.4010309 -8.13118,0.9017154 -12.17834,1.5020539 -4.04717,0.6003384 -8.07715,1.2996072 -12.08998,2.0978069 -4.01281,0.7981996 -8.00362,1.6943688 -11.97245,2.6885071 -3.96882,0.9941382 -7.91085,2.0850472 -11.82612,3.2727289 -3.91527,1.187682 -7.79903,2.470704 -11.65131,3.849067 -3.85228,1.378363 -7.66841,2.850406 -11.44839,4.416131 -3.77999,1.565726 -7.51929,3.223244 -11.21791,4.972559 -3.69863,1.749314 -7.35209,3.588316 -10.96041,5.517008 -3.60832,1.92869 -7.16716,3.944744 -10.6765,6.048161 -3.50935,2.103416 -6.96498,4.291664 -10.36689,6.564746 -3.4019,2.273079 -6.74598,4.628254 -10.03225,7.065522 -3.286281,2.437267 -6.510776,4.953689 -9.673488,7.549274 -3.162727,2.595577 -6.259864,5.267185 -9.291412,8.014824 -3.031563,2.747643 -5.993881,5.568001 -8.886963,8.46109 -2.893089,2.893082 -5.713447,5.8554 -8.46109,8.886963 -2.747639,3.031548 -5.419247,6.128685 -8.014824,9.291412 -2.595585,3.162712 -5.112011,6.387207 -7.549278,9.673488 -2.437267,3.28627 -4.792439,6.63035 -7.065518,10.03226 -2.273082,3.40191 -4.46133,6.85753 -6.564746,10.36688 -2.103417,3.50934 -4.119471,7.06818 -6.048161,10.6765 -1.928692,3.60832 -3.767694,7.26178 -5.517008,10.96041 -1.749315,3.69862 -3.406833,7.43792 -4.972559,11.21791 -1.565725,3.77998 -3.037768,7.59611 -4.416131,11.44839 -1.378363,3.85228 -2.661385,7.73606 -3.849067,11.65132 -1.1876817,3.91526 -2.2785916,7.85729 -3.2727294,11.82611 -0.9941382,3.96883 -1.890307,7.95964 -2.6885066,11.97246 -0.7981997,4.01283 -1.4974685,8.04282 -2.0978069,12.08997 -0.6003385,4.04716 -1.101023,8.10661 -1.5020539,12.17834 -0.40103096,4.07173 -0.70192504,8.15087 -0.9026823,12.23737 C 0.10037863,241.81958 0,245.90855 0,250 c 0,4.09143 0.10037863,8.18039 0.3011359,12.26691 0.20075726,4.08651 0.50165134,8.16565 0.9026823,12.23736 0.4010309,4.07175 0.9017154,8.13117 1.5020539,12.17832 0.6003384,4.04715 1.2996072,8.07715 2.0978069,12.08996 0.7981996,4.01282 1.6943688,8.00363 2.6885071,11.97245 0.9941382,3.96884 2.0850472,7.91085 3.2727289,11.82611 1.187682,3.91528 2.470704,7.79904 3.849067,11.6513 1.378363,3.85227 2.850406,7.6684 4.416131,11.4484 1.565726,3.78 3.223244,7.51928 4.972559,11.21789 1.749314,3.69864 3.588316,7.35211 5.517008,10.96048 1.92869,3.60831 3.944744,7.16715 6.048161,10.67645 2.103416,3.50937 4.291664,6.965 6.564746,10.36689 2.273079,3.40191 4.628254,6.746 7.065522,10.03225 2.437267,3.28629 4.953689,6.51081 7.549274,9.67353 2.595577,3.16272 5.267185,6.25985 8.014824,9.29141 2.747643,3.03152 5.568001,5.99383 8.46109,8.88693 2.893082,2.8931 5.8554,5.71344 8.886963,8.46106 3.031548,2.74765 6.128685,5.41925 9.291412,8.01486 3.162712,2.59555 6.387207,5.11197 9.673488,7.54923 3.28627,2.43728 6.63035,4.79245 10.03226,7.06555 3.40191,2.27307 6.85753,4.46133 10.36688,6.56476 3.50934,2.10339 7.06818,4.11944 10.6765,6.04819 3.60832,1.92868 7.26178,3.76767 10.96041,5.51696 3.69862,1.7493 7.43792,3.40683 11.21791,4.97257 3.77998,1.5657 7.59611,3.03775 11.44839,4.41614 3.85228,1.37835 7.73606,2.66137 11.65132,3.84909 3.91526,1.18765 7.85729,2.27856 11.82611,3.2727 3.96883,0.99414 7.95964,1.89032 11.97246,2.68851 4.01283,0.79819 8.04282,1.49747 12.08997,2.09784 4.04716,0.60034 8.10661,1.10104 12.17834,1.50207 4.07173,0.40103 8.15087,0.70191 12.23737,0.90268 4.0865,0.20075 8.17547,0.30112 12.26692,0.30115 4.09143,-3e-5 8.18039,-0.1004 12.26691,-0.30118 4.08651,-0.20074 8.16565,-0.50162 12.23736,-0.90265 4.07175,-0.40103 8.13117,-0.90173 12.17832,-1.5021 4.04715,-0.60034 8.07715,-1.29962 12.08996,-2.09784 4.01282,-0.79819 8.00363,-1.69437 11.97245,-2.68851 3.96884,-0.99411 7.91085,-2.08502 11.82611,-3.27273 3.91528,-1.18766 7.79904,-2.47071 11.6513,-3.8491 3.85227,-1.37835 7.6684,-2.8504 11.4484,-4.4161 3.78,-1.56574 7.51928,-3.22327 11.21789,-4.97257 3.69864,-1.7493 7.35211,-3.58828 10.96048,-5.51696 3.60831,-1.92872 7.16715,-3.9448 10.67645,-6.04822 3.50937,-2.10343 6.965,-4.29166 10.36689,-6.56473 3.40191,-2.2731 6.746,-4.62827 10.03225,-7.06552 3.28629,-2.43726 6.51081,-4.95368 9.67353,-7.54923 3.16272,-2.59561 6.25985,-5.26721 9.29141,-8.01486 3.03152,-2.74762 5.99383,-5.56796 8.88693,-8.46106 2.8931,-2.8931 5.71344,-5.85541 8.46106,-8.88693 2.74765,-3.03156 5.41925,-6.12869 8.01486,-9.29141 2.59555,-3.16272 5.11197,-6.38721 7.54923,-9.6735 2.43728,-3.28628 4.79245,-6.63037 7.06555,-10.03228 2.27307,-3.40189 4.46133,-6.85752 6.56476,-10.36689 2.10339,-3.50933 4.11944,-7.06817 6.04819,-10.67648 1.92868,-3.60834 3.76767,-7.26181 5.51696,-10.96045 1.7493,-3.69861 3.40683,-7.43789 4.97257,-11.21789 1.5657,-3.78 3.03775,-7.5961 4.41614,-11.44837 1.37835,-3.85226 2.66137,-7.73605 3.84909,-11.6513 1.18765,-3.91526 2.27856,-7.8573 3.2727,-11.82614 0.99414,-3.96882 1.89032,-7.95963 2.68851,-11.97245 0.79819,-4.01281 1.49747,-8.04281 2.09784,-12.08996 0.60034,-4.04715 1.10104,-8.10657 1.50207,-12.17832 0.40103,-4.07171 0.70191,-8.15085 0.90268,-12.23736 C 499.8996,258.18039 499.99997,254.09143 500,250 c -3e-5,-4.09145 -0.1004,-8.18042 -0.30118,-12.26692 -0.20074,-4.0865 -0.50162,-8.16564 -0.90265,-12.23737 -0.40103,-4.07173 -0.90173,-8.13118 -1.5021,-12.17834 -0.60034,-4.04717 -1.29962,-8.07715 -2.09784,-12.08998 -0.79819,-4.01281 -1.69437,-8.00362 -2.68851,-11.97245 -0.99411,-3.96882 -2.08502,-7.91085 -3.27273,-11.82612 -1.18766,-3.91527 -2.47071,-7.79903 -3.8491,-11.65131 -1.37835,-3.85228 -2.8504,-7.66841 -4.4161,-11.44839 -1.56574,-3.77999 -3.22327,-7.51929 -4.97257,-11.21791 -1.7493,-3.69863 -3.58828,-7.35209 -5.51696,-10.96041 -1.92872,-3.60832 -3.9448,-7.16716 -6.04822,-10.6765 -2.10343,-3.50935 -4.29166,-6.96498 -6.56473,-10.36689 -2.2731,-3.4019 -4.62827,-6.74598 -7.06552,-10.03225 -2.43726,-3.286281 -4.95368,-6.510776 -7.54923,-9.673488 -2.59561,-3.162727 -5.26721,-6.259864 -8.01486,-9.291412 -2.74762,-3.031563 -5.56796,-5.993881 -8.46106,-8.886963 -2.8931,-2.893089 -5.85541,-5.713447 -8.88693,-8.46109 -3.03156,-2.747639 -6.12869,-5.419247 -9.29141,-8.014824 -3.16272,-2.595585 -6.38721,-5.112011 -9.6735,-7.549278 -3.28628,-2.437267 -6.63037,-4.792439 -10.03228,-7.065518 -3.40189,-2.273082 -6.85752,-4.46133 -10.36689,-6.564746 -3.50933,-2.103417 -7.06817,-4.119471 -10.67648,-6.048161 -3.60834,-1.928692 -7.26181,-3.767694 -10.96045,-5.517008 -3.69861,-1.749315 -7.43789,-3.406833 -11.21789,-4.972559 -3.78,-1.565725 -7.5961,-3.037768 -11.44837,-4.416131 -3.85226,-1.378363 -7.73605,-2.661385 -11.6513,-3.849067 C 318.65588,9.5772333 314.71384,8.4863234 310.745,7.4921856 306.77618,6.4980474 302.78537,5.6018786 298.77255,4.803679 294.75974,4.0054793 290.72974,3.3062105 286.68259,2.7058721 282.63544,2.1055336 278.57602,1.6048491 274.50427,1.2038182 270.43256,0.80278724 266.35342,0.50189316 262.26691,0.3011359 258.18039,0.10037863 254.09143,0 250,0 Z"
           style="fill:#3c4f6e;fill-opacity:1;fill-rule:nonzero;stroke:none"
           id="path8307" />
      </g>
      <g
         id="g8309"
         transform="matrix(3.0269418,0,0,3.0269418,1361.6864,225.63672)">
        <text
           transform="translate(8.3125,81)"
           style="font-variant:normal;font-weight:bold;font-size:74.66px;font-family:OpenSans;-inkscape-font-specification:OpenSans-Bold;writing-mode:lr-tb;fill:#ffffff;fill-opacity:1;fill-rule:nonzero;stroke:none"
           id="text8313"><tspan
             x="0 40.97345 63.756729 112.8228 160.06621 179.45934 225.68205 274.74811"
             y="0"
             id="tspan8311">Find out</tspan></text>
        <text
           transform="translate(76.0625,185)"
           style="font-variant:normal;font-weight:bold;font-size:74.66px;font-family:OpenSans;-inkscape-font-specification:OpenSans-Bold;writing-mode:lr-tb;fill:#ffffff;fill-opacity:1;fill-rule:nonzero;stroke:none"
           id="text8317"><tspan
             x="0 42.468033 88.69075 137.75682"
             y="0"
             id="tspan8315">your</tspan></text>
        <text
           transform="translate(81.171875,289)"
           style="font-variant:normal;font-weight:bold;font-size:74.66px;font-family:OpenSans;-inkscape-font-specification:OpenSans-Bold;writing-mode:lr-tb;fill:#ffffff;fill-opacity:1;fill-rule:nonzero;stroke:none"
           id="text8321"><tspan
             x="0 33.90152 56.684799 93.794205 140.08983"
             y="0"
             id="tspan8319">risk!</tspan></text>
      </g>
      <g
         id="g8323"
         transform="matrix(2.8709869,0,0,2.8709869,825.26813,3196.3867)">
        <text
           transform="translate(24.9375,34)"
           style="font-variant:normal;font-weight:normal;font-size:32px;font-family:OpenSans;-inkscape-font-specification:OpenSans-Regular;writing-mode:lr-tb;fill:#000000;fill-opacity:1;fill-rule:nonzero;stroke:none"
           id="text8327"><tspan
             x="0 19.640625 30.9375 42.234375 61.84375 77.109375 85.625 97.375 109.125 125.25 144.57812 164.21875 177.28125 187.57812 202.8125 222.14062 238.17188 246.26562 265.875 276.17188 294.46875 312.76562 323.0625 336.125 344.21875 359.48438 376.28125 384.79688 400.03125 419.35938 449.125"
             y="0"
             id="tspan8325">https://your-covid-19-risk.com/</tspan></text>
      </g>
    </g>
  </g>
  <g
     id="g7942"
     transform="matrix(1.3277377,0,0,1.3277377,95.207394,31.763287)">
    <g
       transform="matrix(0.35277777,0,0,-0.35277777,-267.81251,133.53719)"
       id="g32797">
      <g
         id="g32799" />
      <g
         id="g32811">
        <g
           clip-path="url(#clipPath32803)"
           opacity="0.100006"
           id="g32809">
          <g
             transform="translate(577.7416,345.5324)"
             id="g32807">
            <path
               d="m 0,0 c 3.81,-1.47 7.992,-4.378 12.74,-3.415 20.072,6.76 40.143,13.519 61.202,8.428 3.821,-0.54 7.568,-1.337 11.194,-2.396 14.504,-4.237 27.068,-12.681 34.686,-25.452 2.286,-2.427 4.396,-4.979 6.298,-7.631 1.903,-2.652 3.6,-5.404 5.063,-8.228 0.21,-4.281 -0.15,-8.036 -0.996,-11.333 -0.846,-3.297 -2.179,-6.135 -3.917,-8.576 -5.18,-7.361 -12.583,-10.743 -20.503,-13.157 -22.163,-5.305 -43.269,-10.127 -64.422,-19.79 -10.06,-5.801 -24.819,-7.724 -35.504,0.088 -1.916,1.455 -3.596,3.179 -5.047,5.1 -2.177,2.881 -3.84,6.201 -5.016,9.714 -1.176,3.513 -1.866,7.218 -2.096,10.865 0.224,21.235 -21.625,47.397 -1.03,64.654 C -4.867,-0.246 -2.39,0.048 0,0"
               style="fill:#394e71;fill-opacity:1;fill-rule:nonzero;stroke:none"
               id="path32805" />
          </g>
        </g>
      </g>
    </g>
    <g
       id="g32813"
       transform="matrix(0.35277777,0,0,-0.35277777,-32.204022,34.81294)">
      <path
         d="m 0,0 h -69.446 c -5.284,0 -9.582,4.299 -9.582,9.582 V 45.99 h 3.003 V 9.582 c 0,-3.628 2.951,-6.579 6.579,-6.579 H -3.003 V 45.558 H 0 Z"
         style="fill:#394e71;fill-opacity:1;fill-rule:nonzero;stroke:none"
         id="path32815" />
    </g>
    <g
       id="g32817"
       transform="matrix(0.35277777,0,0,-0.35277777,-39.289175,37.751614)">
      <path
         d="m 0,0 h -50.724 c -9.253,0 -16.781,7.528 -16.781,16.781 v 42.812 c 0,0.471 0.222,0.916 0.6,1.199 l 46.67,35.115 c 0.525,0.395 1.246,0.403 1.778,0.02 L 28.551,62.146 26.798,59.707 -19.312,92.844 -64.502,58.843 V 16.781 c 0,-7.597 6.181,-13.778 13.778,-13.778 L 0,3.003 Z"
         style="fill:#e94a50;fill-opacity:1;fill-rule:nonzero;stroke:none"
         id="path32819" />
    </g>
    <g
       id="g32821"
       transform="matrix(0.35277777,0,0,-0.35277777,-40.137043,13.651775)">
      <path
         d="M 0,0 -16.93,12.737 -33.858,0 -35.663,2.4 -16.93,16.495 1.805,2.4 Z"
         style="fill:#e94a50;fill-opacity:1;fill-rule:nonzero;stroke:none"
         id="path32823" />
    </g>
    <g
       id="g32825"
       transform="matrix(0.35277777,0,0,-0.35277777,-48.875875,22.559098)">
      <path
         d="m 0,0 c 0,5.378 3.562,9.753 7.938,9.753 4.376,0 7.938,-4.375 7.938,-9.753 0,-5.378 -3.562,-9.753 -7.938,-9.753 C 3.562,-9.753 0,-5.378 0,0 m 21.671,-13.615 -5.75,4.92 c 1.828,2.281 2.958,5.334 2.958,8.695 0,7.033 -4.908,12.756 -10.941,12.756 C 1.905,12.756 -3.003,7.033 -3.003,0 c 0,-3.355 1.126,-6.403 2.949,-8.683 l -5.859,-4.921 c -2.37,-1.991 -3.731,-4.908 -3.731,-8.003 v -3.951 h 3.004 v 3.951 c 0,2.206 0.969,4.285 2.659,5.704 l 6.097,5.121 c 1.689,-1.243 3.682,-1.975 5.822,-1.975 2.136,0 4.125,0.729 5.81,1.968 l 5.97,-5.108 c 1.655,-1.417 2.605,-3.48 2.605,-5.66 v -4.001 h 3.003 v 4.001 c 0,3.059 -1.332,5.953 -3.655,7.942"
         style="fill:#394e71;fill-opacity:1;fill-rule:nonzero;stroke:none"
         id="path32827" />
    </g>
  </g>
  <g
     id="g5353"
     transform="matrix(1.2815515,0,0,1.2815515,131.49535,123.40254)">
    <g
       transform="matrix(0.35277777,0,0,-0.35277777,-220.23447,126.48791)"
       id="g32701">
      <g
         id="g32703" />
      <g
         id="g32715">
        <g
           clip-path="url(#clipPath32707)"
           opacity="0.100006"
           id="g32713">
          <g
             transform="translate(474.6958,297.0197)"
             id="g32711">
            <path
               d="m 0,0 c -6.63,-8.07 -15.196,-13.322 -25.423,-17.976 -10.391,-4.73 -18.392,-11.253 -27.16,-18.378 -16.775,-13.629 -38.338,-24.782 -57,-11.271 -15.554,11.259 -23.916,38.085 -13.732,57.984 3.522,6.882 8.91,11.469 15.042,14.769 4.748,2.557 9.429,3.671 11.786,8.845 4.914,10.784 1.122,24.079 6.018,35.287 4.274,9.783 11.974,13.939 22.541,9.43 14.559,-6.212 23.939,-21.791 38.719,-27.385 C -15.924,46.276 4.982,42.591 9.198,26.36 10.703,20.566 8.774,14.519 6.081,9.294 4.285,5.812 2.255,2.743 0,0"
               style="fill:#394e71;fill-opacity:1;fill-rule:nonzero;stroke:none"
               id="path32709" />
          </g>
        </g>
      </g>
    </g>
    <g
       id="g32717"
       transform="matrix(0.35277777,0,0,-0.35277777,-77.346381,13.795873)">
      <path
         d="m 0,0 c -1.149,-1.658 -2.667,-3.384 -3.815,-5.042 -1.319,-1.902 -2.681,-3.921 -2.876,-6.228 -0.155,-1.841 0.499,-3.736 1.757,-5.089 1.258,-1.353 3.1,-2.144 4.947,-2.123 1.848,-0.018 3.689,0.775 4.945,2.13 1.256,1.355 1.907,3.251 1.749,5.092 C 6.509,-8.955 5.145,-6.937 3.824,-5.037 2.672,-3.38 1.152,-1.657 0,0"
         style="fill:#009fe3;fill-opacity:1;fill-rule:nonzero;stroke:none"
         id="path32719" />
    </g>
    <g
       id="g32721"
       transform="matrix(0.35277777,0,0,-0.35277777,-54.010521,33.683015)">
      <path
         d="m 0,0 c -4.159,1.033 -7.853,1.964 -11.168,2.8 -20.75,5.232 -26.323,6.64 -37.968,5.965 -1.788,-0.104 -3.616,-0.276 -5.385,-0.442 -3.482,-0.327 -7.08,-0.668 -10.688,-0.522 -6.171,0.246 -12.389,2.64 -16.229,6.248 l -15.12,14.361 c -1.627,1.566 -1.676,4.153 -0.117,5.774 1.838,1.91 4.31,2.989 6.96,3.04 2.616,0.035 5.16,-0.934 7.069,-2.773 l 6.754,-6.576 -2.094,-2.151 -6.748,6.57 c -2.742,2.64 -7.131,2.557 -9.777,-0.192 -0.411,-0.427 -0.398,-1.11 0.029,-1.521 l 15.107,-14.35 c 3.329,-3.128 8.806,-5.21 14.285,-5.429 3.397,-0.135 6.902,0.192 10.289,0.511 1.794,0.168 3.651,0.343 5.491,0.45 12.098,0.703 18.308,-0.865 38.876,-6.051 3.313,-0.835 7.003,-1.766 11.158,-2.798 z"
         style="fill:#394e71;fill-opacity:1;fill-rule:nonzero;stroke:none"
         id="path32723" />
    </g>
    <g
       id="g32725"
       transform="matrix(0.35277777,0,0,-0.35277777,-77.833884,26.87377)">
      <path
         d="m 0,0 c -3.479,-0.003 -6.312,2.825 -6.315,6.304 -0.003,3.479 2.826,6.312 6.305,6.315 l 4.562,0.004 c 4.022,0.003 7.936,0.814 11.633,2.409 l 0.668,0.289 c 2.499,1.083 5.084,2.202 7.859,2.898 7.553,1.894 19.312,0.492 27.93,-9.55 L 67.874,8.68 67.875,5.677 51.233,5.664 50.782,6.214 C 43.513,15.063 32.82,17.156 25.444,15.307 22.905,14.67 20.545,13.647 18.047,12.565 l -0.671,-0.29 C 13.301,10.517 8.986,9.623 4.554,9.62 L -0.008,9.616 C -1.831,9.615 -3.314,8.13 -3.313,6.307 -3.31,4.483 -1.825,3.001 -0.002,3.003 l 5.189,0.004 c 2.979,0.003 5.966,0.321 8.879,0.947 l 9.588,2.061 0.632,-2.937 -9.588,-2.06 C 11.578,0.348 8.379,0.007 5.19,0.004 Z"
         style="fill:#394e71;fill-opacity:1;fill-rule:nonzero;stroke:none"
         id="path32727" />
    </g>
    <g
       id="g32729"
       transform="matrix(0.35277777,0,0,-0.35277777,-75.857764,2.7055639)">
      <path
         d="m 0,0 -49.689,-0.035 10e-4,-3.003 49.69,0.035 c 1.078,0.001 1.954,-0.875 1.955,-1.952 l 0.007,-10.315 -6.194,-0.004 0.001,-3.003 6.195,0.004 0.002,-3.15 c 0.001,-0.652 -0.53,-1.183 -1.181,-1.184 l -10.552,-0.008 c -0.652,0 -1.183,0.531 -1.184,1.183 l -0.007,9.696 -3.003,-0.002 0.003,-3.765 -35.957,-5.816 0.479,-2.965 35.48,5.739 0.002,-2.889 c 0.002,-2.309 1.881,-4.185 4.189,-4.184 l 10.552,0.008 c 2.308,0.002 4.184,1.881 4.182,4.189 L 4.96,-4.953 C 4.958,-2.22 2.733,0.002 0,0"
         style="fill:#e94a50;fill-opacity:1;fill-rule:nonzero;stroke:none"
         id="path32731" />
    </g>
  </g>
  <g
     id="g5166"
     transform="matrix(1.3217838,0,0,1.3217838,135.1006,206.50732)">
    <g
       transform="matrix(0.35277777,0,0,-0.35277777,-149.35747,125.45032)"
       id="g32733">
      <g
         id="g32735" />
      <g
         id="g32747">
        <g
           clip-path="url(#clipPath32739)"
           opacity="0.100006"
           id="g32745">
          <g
             transform="translate(225.9921,373.9557)"
             id="g32743">
            <path
               d="m 0,0 c -3.02,0.295 -6.075,0.27 -9.144,-0.117 -20.916,-2.634 -47.681,-11.672 -62.125,-27.596 -4.426,-4.88 -7.581,-10.758 -8.937,-17.223 -3.07,-14.643 -3.264,-28.387 9.347,-38.642 8.17,-6.644 18.163,-7.345 27.038,-12.192 16.837,-9.194 22.164,-32.38 43.163,-35.149 15.398,-2.031 29.815,7.989 39.653,18.943 9.925,11.052 16.499,25.43 17.563,40.306 0.257,3.607 0.203,7.236 -0.182,10.832 C 53.48,-33.833 28.326,-2.773 0,0"
               style="fill:#394e71;fill-opacity:1;fill-rule:nonzero;stroke:none"
               id="path32741" />
          </g>
        </g>
      </g>
    </g>
    <g
       id="g32749"
       transform="matrix(0.35277777,0,0,-0.35277777,-79.853718,12.021019)">
      <path
         d="m 0,0 -6.029,4.946 -1.905,-2.322 6.03,-4.946 c 1.499,-1.231 2.361,-3.05 2.362,-4.99 l 0.009,-12.954 c 0.002,-2.649 -1.831,-4.873 -4.294,-5.482 l -0.012,16.501 -3.003,-0.002 0.033,-46.524 c 0.002,-2.605 -2.116,-4.726 -4.721,-4.728 l -1.956,-0.001 0.002,-3.004 1.956,0.002 c 4.261,0.003 7.725,3.472 7.722,7.733 l -0.019,26.966 c 4.129,0.655 7.298,4.231 7.295,8.541 L 3.461,-7.311 C 3.459,-4.468 2.198,-1.804 0,0"
         style="fill:#394e71;fill-opacity:1;fill-rule:nonzero;stroke:none"
         id="path32751" />
    </g>
    <g
       id="g32753"
       transform="matrix(0.35277777,0,0,-0.35277777,-86.648641,31.69974)">
      <path
         d="m 0,0 c 0.002,-2.605 -2.116,-4.726 -4.721,-4.728 -2.605,-0.001 -4.726,2.117 -4.728,4.721 l -0.03,42.27 0.029,4.244 -3.003,0.02 -0.029,-4.255 0.009,-12.297 c -2.543,0.547 -4.456,2.81 -4.458,5.515 l -0.009,12.953 c -10e-4,1.941 0.858,3.762 2.357,4.995 l 6.021,4.954 -1.907,2.319 -6.022,-4.954 c -2.196,-1.806 -3.454,-4.472 -3.452,-7.316 l 0.009,-12.953 c 0.003,-4.364 3.257,-7.972 7.463,-8.554 l 0.019,-26.943 c 0.003,-4.261 3.472,-7.724 7.733,-7.721 4.261,0.002 7.725,3.471 7.722,7.732 L 2.986,24.667 -0.017,24.665 Z"
         style="fill:#394e71;fill-opacity:1;fill-rule:nonzero;stroke:none"
         id="path32755" />
    </g>
    <g
       id="g32757"
       transform="matrix(0.35277777,0,0,-0.35277777,-86.139477,2.7849097)">
      <path
         d="m 0,0 c 5.186,0.004 9.408,-4.212 9.412,-9.398 0.004,-5.185 -4.213,-9.407 -9.398,-9.411 -5.186,-0.003 -9.409,4.212 -9.412,9.398 C -9.402,-4.225 -5.186,-0.003 0,0 m 0.016,-21.812 c 6.841,0.005 12.404,5.575 12.399,12.416 C 12.41,-2.554 6.84,3.008 -0.002,3.003 -6.844,2.998 -12.406,-2.572 -12.401,-9.413 c 0.005,-6.841 5.575,-12.404 12.417,-12.399"
         style="fill:#394e71;fill-opacity:1;fill-rule:nonzero;stroke:none"
         id="path32759" />
    </g>
    <g
       id="g32761"
       transform="matrix(0.35277777,0,0,-0.35277777,-52.964222,12.001898)">
      <path
         d="m 0,0 -6.029,4.946 -1.905,-2.322 6.029,-4.946 c 1.501,-1.231 2.363,-3.051 2.363,-4.991 l 0.01,-12.953 c 0.002,-2.65 -1.832,-4.873 -4.296,-5.483 l -0.011,16.502 -3.003,-0.002 0.033,-46.525 c 0.001,-2.604 -2.116,-4.726 -4.721,-4.727 l -1.956,-0.001 0.002,-3.003 1.956,0.001 c 4.261,0.003 7.725,3.471 7.722,7.732 l -0.019,26.967 c 4.129,0.655 7.299,4.231 7.296,8.541 L 3.462,-7.311 C 3.459,-4.469 2.198,-1.804 0,0"
         style="fill:#e94a50;fill-opacity:1;fill-rule:nonzero;stroke:none"
         id="path32763" />
    </g>
    <g
       id="g32765"
       transform="matrix(0.35277777,0,0,-0.35277777,-59.758828,31.680796)">
      <path
         d="m 0,0 c 0.002,-2.604 -2.117,-4.726 -4.722,-4.728 -2.604,-0.001 -4.725,2.117 -4.727,4.721 l -0.03,42.27 0.028,4.244 -3.003,0.021 -0.028,-4.256 0.009,-12.297 c -2.544,0.547 -4.457,2.811 -4.459,5.515 l -0.009,12.954 c -0.001,1.94 0.858,3.761 2.357,4.994 l 6.021,4.955 -1.908,2.319 -6.022,-4.955 c -2.195,-1.807 -3.453,-4.473 -3.451,-7.315 l 0.009,-12.954 c 0.003,-4.364 3.258,-7.971 7.464,-8.553 l 0.019,-26.944 c 0.003,-4.261 3.472,-7.724 7.732,-7.721 4.261,0.002 7.726,3.471 7.723,7.732 L 2.985,24.668 -0.018,24.665 Z"
         style="fill:#e94a50;fill-opacity:1;fill-rule:nonzero;stroke:none"
         id="path32767" />
    </g>
    <g
       id="g32769"
       transform="matrix(0.35277777,0,0,-0.35277777,-59.249627,2.7657883)">
      <path
         d="m 0,0 c 5.185,0.003 9.407,-4.212 9.411,-9.398 0.004,-5.186 -4.213,-9.408 -9.398,-9.411 -5.185,-0.004 -9.408,4.212 -9.411,9.398 C -9.402,-4.226 -5.186,-0.004 0,0 m 0.016,-21.812 c 6.84,0.005 12.402,5.575 12.398,12.416 C 12.409,-2.555 6.839,3.008 -0.002,3.003 -6.844,2.998 -12.406,-2.572 -12.401,-9.414 c 0.005,-6.841 5.575,-12.403 12.417,-12.398"
         style="fill:#e94a50;fill-opacity:1;fill-rule:nonzero;stroke:none"
         id="path32771" />
    </g>
    <g
       id="g32773"
       transform="matrix(0.35277777,0,0,-0.35277777,-71.018928,31.42863)">
      <path
         d="m 0,0 -0.005,7.321 -11.48,-0.008 -0.002,3.003 14.483,0.01 0.003,-3.845 6.952,5.898 -6.961,5.89 0.003,-3.844 -22.599,-0.017 -0.002,3.003 19.596,0.014 -0.006,7.323 14.614,-12.367 z"
         style="fill:#394e71;fill-opacity:1;fill-rule:nonzero;stroke:none"
         id="path32775" />
    </g>
    <g
       id="g32777"
       transform="matrix(0.35277777,0,0,-0.35277777,-75.858615,28.875472)">
      <path
         d="m 0,0 -3.309,-0.002 -0.003,3.003 3.31,0.002 z"
         style="fill:#394e71;fill-opacity:1;fill-rule:nonzero;stroke:none"
         id="path32779" />
    </g>
    <g
       id="g32781"
       transform="matrix(0.35277777,0,0,-0.35277777,-77.883278,28.876848)">
      <path
         d="m 0,0 -3.309,-0.002 -0.002,3.003 3.309,0.002 z"
         style="fill:#394e71;fill-opacity:1;fill-rule:nonzero;stroke:none"
         id="path32783" />
    </g>
    <g
       id="g32785"
       transform="matrix(0.35277777,0,0,-0.35277777,-74.728281,14.307197)">
      <path
         d="m 0,0 -14.613,12.365 14.595,12.383 0.006,-7.322 11.48,0.008 0.002,-3.003 -14.483,-0.011 -0.003,3.846 -6.952,-5.897 6.961,-5.89 -0.003,3.844 22.599,0.015 0.002,-3.003 -19.596,-0.013 z"
         style="fill:#e94a50;fill-opacity:1;fill-rule:nonzero;stroke:none"
         id="path32787" />
    </g>
    <g
       id="g32789"
       transform="matrix(0.35277777,0,0,-0.35277777,-68.726227,9.1888128)">
      <path
         d="m 0,0 -3.309,-0.002 -0.002,3.003 3.309,0.002 z"
         style="fill:#e94a50;fill-opacity:1;fill-rule:nonzero;stroke:none"
         id="path32791" />
    </g>
    <g
       id="g32793"
       transform="matrix(0.35277777,0,0,-0.35277777,-66.701881,9.1872598)">
      <path
         d="M 0,0 -3.309,-0.002 -3.311,3 -0.002,3.003 Z"
         style="fill:#e94a50;fill-opacity:1;fill-rule:nonzero;stroke:none"
         id="path32795" />
    </g>
  </g>
  <g
     id="g20564"
     style="display:inline"
     transform="matrix(0.81971451,0,0,0.81971451,30.764767,122.2369)">
    <g
       transform="matrix(0.264583,0,0,0.264583,94.26049,50.760484)"
       id="g12194"
       style="display:inline;fill:#384e71;fill-opacity:1;stroke:none">
      <path
         style="fill:#384e71;fill-opacity:1"
         id="path12192"
         d="M 40,40 H 50 V 50 H 40 Z m 10,0 H 60 V 50 H 50 Z m 10,0 H 70 V 50 H 60 Z m 10,0 H 80 V 50 H 70 Z m 10,0 H 90 V 50 H 80 Z m 10,0 h 10 V 50 H 90 Z m 10,0 h 10 v 10 h -10 z m 20,0 h 10 v 10 h -10 z m 20,0 h 10 v 10 h -10 z m 20,0 h 10 v 10 h -10 z m 20,0 h 10 v 10 h -10 z m 10,0 h 10 v 10 h -10 z m 10,0 h 10 v 10 h -10 z m 10,0 h 10 v 10 h -10 z m 10,0 h 10 v 10 h -10 z m 50,0 h 10 v 10 h -10 z m 10,0 h 10 v 10 h -10 z m 20,0 h 10 v 10 h -10 z m 10,0 h 10 v 10 h -10 z m 10,0 h 10 v 10 h -10 z m 10,0 h 10 v 10 h -10 z m 10,0 h 10 v 10 h -10 z m 10,0 h 10 v 10 h -10 z m 10,0 h 10 V 50 H 360 Z M 40,50 H 50 V 60 H 40 Z m 60,0 h 10 v 10 h -10 z m 20,0 h 10 v 10 h -10 z m 70,0 h 10 v 10 h -10 z m 70,0 h 10 v 10 h -10 z m 20,0 h 10 v 10 h -10 z m 20,0 h 10 v 10 h -10 z m 60,0 h 10 V 60 H 360 Z M 40,60 H 50 V 70 H 40 Z m 20,0 H 70 V 70 H 60 Z m 10,0 H 80 V 70 H 70 Z m 10,0 H 90 V 70 H 80 Z m 20,0 h 10 v 10 h -10 z m 20,0 h 10 v 10 h -10 z m 20,0 h 10 v 10 h -10 z m 40,0 h 10 v 10 h -10 z m 10,0 h 10 v 10 h -10 z m 20,0 h 10 v 10 h -10 z m 30,0 h 10 v 10 h -10 z m 10,0 h 10 v 10 h -10 z m 10,0 h 10 v 10 h -10 z m 10,0 h 10 v 10 h -10 z m 10,0 h 10 v 10 h -10 z m 20,0 h 10 v 10 h -10 z m 20,0 h 10 v 10 h -10 z m 10,0 h 10 v 10 h -10 z m 10,0 h 10 v 10 h -10 z m 20,0 h 10 V 70 H 360 Z M 40,70 H 50 V 80 H 40 Z m 20,0 H 70 V 80 H 60 Z m 10,0 H 80 V 80 H 70 Z m 10,0 H 90 V 80 H 80 Z m 20,0 h 10 v 10 h -10 z m 30,0 h 10 v 10 h -10 z m 10,0 h 10 v 10 h -10 z m 30,0 h 10 v 10 h -10 z m 10,0 h 10 v 10 h -10 z m 10,0 h 10 v 10 h -10 z m 10,0 h 10 v 10 h -10 z m 20,0 h 10 v 10 h -10 z m 40,0 h 10 v 10 h -10 z m 10,0 h 10 v 10 h -10 z m 30,0 h 10 v 10 h -10 z m 20,0 h 10 v 10 h -10 z m 10,0 h 10 v 10 h -10 z m 10,0 h 10 v 10 h -10 z m 20,0 h 10 V 80 H 360 Z M 40,80 H 50 V 90 H 40 Z m 20,0 H 70 V 90 H 60 Z m 10,0 H 80 V 90 H 70 Z m 10,0 H 90 V 90 H 80 Z m 20,0 h 10 v 10 h -10 z m 50,0 h 10 v 10 h -10 z m 10,0 h 10 v 10 h -10 z m 20,0 h 10 v 10 h -10 z m 10,0 h 10 v 10 h -10 z m 10,0 h 10 v 10 h -10 z m 20,0 h 10 v 10 h -10 z m 20,0 h 10 v 10 h -10 z m 20,0 h 10 v 10 h -10 z m 20,0 h 10 v 10 h -10 z m 20,0 h 10 v 10 h -10 z m 20,0 h 10 v 10 h -10 z m 10,0 h 10 v 10 h -10 z m 10,0 h 10 v 10 h -10 z m 20,0 h 10 V 90 H 360 Z M 40,90 h 10 v 10 H 40 Z m 60,0 h 10 v 10 h -10 z m 20,0 h 10 v 10 h -10 z m 10,0 h 10 v 10 h -10 z m 10,0 h 10 v 10 h -10 z m 10,0 h 10 v 10 h -10 z m 10,0 h 10 v 10 h -10 z m 20,0 h 10 v 10 h -10 z m 10,0 h 10 v 10 h -10 z m 10,0 h 10 v 10 h -10 z m 10,0 h 10 v 10 h -10 z m 40,0 h 10 v 10 h -10 z m 50,0 h 10 v 10 h -10 z m 60,0 h 10 v 10 H 360 Z M 40,100 h 10 v 10 H 40 Z m 10,0 h 10 v 10 H 50 Z m 10,0 h 10 v 10 H 60 Z m 10,0 h 10 v 10 H 70 Z m 10,0 h 10 v 10 H 80 Z m 10,0 h 10 v 10 H 90 Z m 10,0 h 10 v 10 h -10 z m 20,0 h 10 v 10 h -10 z m 20,0 h 10 v 10 h -10 z m 20,0 h 10 v 10 h -10 z m 20,0 h 10 v 10 h -10 z m 20,0 h 10 v 10 h -10 z m 20,0 h 10 v 10 h -10 z m 20,0 h 10 v 10 h -10 z m 20,0 h 10 v 10 h -10 z m 20,0 h 10 v 10 h -10 z m 20,0 h 10 v 10 h -10 z m 10,0 h 10 v 10 h -10 z m 10,0 h 10 v 10 h -10 z m 10,0 h 10 v 10 h -10 z m 10,0 h 10 v 10 h -10 z m 10,0 h 10 v 10 h -10 z m 10,0 h 10 v 10 h -10 z m -240,10 h 10 v 10 h -10 z m 10,0 h 10 v 10 h -10 z m 10,0 h 10 v 10 h -10 z m 10,0 h 10 v 10 h -10 z m 50,0 h 10 v 10 h -10 z m 50,0 h 10 v 10 h -10 z m 10,0 h 10 v 10 h -10 z m 20,0 h 10 v 10 H 280 Z M 60,120 h 10 v 10 H 60 Z m 10,0 h 10 v 10 H 70 Z m 10,0 h 10 v 10 H 80 Z m 20,0 h 10 v 10 h -10 z m 20,0 h 10 v 10 h -10 z m 20,0 h 10 v 10 h -10 z m 10,0 h 10 v 10 h -10 z m 20,0 h 10 v 10 h -10 z m 20,0 h 10 v 10 h -10 z m 10,0 h 10 v 10 h -10 z m 10,0 h 10 v 10 h -10 z m 10,0 h 10 v 10 h -10 z m 20,0 h 10 v 10 h -10 z m 20,0 h 10 v 10 h -10 z m 20,0 h 10 v 10 h -10 z m 10,0 h 10 v 10 h -10 z m 10,0 h 10 v 10 h -10 z m 10,0 h 10 v 10 h -10 z m 30,0 h 10 v 10 h -10 z m 10,0 h 10 v 10 h -10 z m 10,0 h 10 v 10 H 360 Z M 40,130 h 10 v 10 H 40 Z m 10,0 h 10 v 10 H 50 Z m 20,0 h 10 v 10 H 70 Z m 10,0 h 10 v 10 H 80 Z m 10,0 h 10 v 10 H 90 Z m 50,0 h 10 v 10 h -10 z m 40,0 h 10 v 10 h -10 z m 10,0 h 10 v 10 h -10 z m 30,0 h 10 v 10 h -10 z m 20,0 h 10 v 10 h -10 z m 20,0 h 10 v 10 h -10 z m 10,0 h 10 v 10 h -10 z m 20,0 h 10 v 10 h -10 z m 10,0 h 10 v 10 h -10 z m 30,0 h 10 v 10 h -10 z m 10,0 h 10 v 10 h -10 z m 20,0 h 10 v 10 H 360 Z M 40,140 h 10 v 10 H 40 Z m 10,0 h 10 v 10 H 50 Z m 30,0 h 10 v 10 H 80 Z m 10,0 h 10 v 10 H 90 Z m 10,0 h 10 v 10 h -10 z m 10,0 h 10 v 10 h -10 z m 10,0 h 10 v 10 h -10 z m 10,0 h 10 v 10 h -10 z m 30,0 h 10 v 10 h -10 z m 10,0 h 10 v 10 h -10 z m 20,0 h 10 v 10 h -10 z m 10,0 h 10 v 10 h -10 z m 10,0 h 10 v 10 h -10 z m 30,0 h 10 v 10 h -10 z m 20,0 h 10 v 10 h -10 z m 20,0 h 10 v 10 h -10 z m 30,0 h 10 v 10 h -10 z m 30,0 h 10 v 10 h -10 z m 10,0 h 10 v 10 H 350 Z M 70,150 h 10 v 10 H 70 Z m 10,0 h 10 v 10 H 80 Z m 10,0 h 10 v 10 H 90 Z m 30,0 h 10 v 10 h -10 z m 10,0 h 10 v 10 h -10 z m 10,0 h 10 v 10 h -10 z m 20,0 h 10 v 10 h -10 z m 10,0 h 10 v 10 h -10 z m 10,0 h 10 v 10 h -10 z m 20,0 h 10 v 10 h -10 z m 40,0 h 10 v 10 h -10 z m 30,0 h 10 v 10 h -10 z m 10,0 h 10 v 10 h -10 z m 20,0 h 10 v 10 h -10 z m 40,0 h 10 v 10 h -10 z m 10,0 h 10 v 10 H 350 Z M 40,160 h 10 v 10 H 40 Z m 20,0 h 10 v 10 H 60 Z m 10,0 h 10 v 10 H 70 Z m 30,0 h 10 v 10 h -10 z m 50,0 h 10 v 10 h -10 z m 10,0 h 10 v 10 h -10 z m 10,0 h 10 v 10 h -10 z m 20,0 h 10 v 10 h -10 z m 10,0 h 10 v 10 h -10 z m 10,0 h 10 v 10 h -10 z m 10,0 h 10 v 10 h -10 z m 10,0 h 10 v 10 h -10 z m 10,0 h 10 v 10 h -10 z m 10,0 h 10 v 10 h -10 z m 10,0 h 10 v 10 h -10 z m 20,0 h 10 v 10 h -10 z m 30,0 h 10 v 10 h -10 z m 10,0 h 10 v 10 h -10 z m 40,0 h 10 v 10 H 360 Z M 40,170 h 10 v 10 H 40 Z m 10,0 h 10 v 10 H 50 Z m 30,0 h 10 v 10 H 80 Z m 10,0 h 10 v 10 H 90 Z m 20,0 h 10 v 10 h -10 z m 10,0 h 10 v 10 h -10 z m 50,0 h 10 v 10 h -10 z m 20,0 h 10 v 10 h -10 z m 10,0 h 10 v 10 h -10 z m 10,0 h 10 v 10 h -10 z m 10,0 h 10 v 10 h -10 z m 10,0 h 10 v 10 h -10 z m 40,0 h 10 v 10 h -10 z m 30,0 h 10 v 10 h -10 z m 30,0 h 10 v 10 h -10 z m 30,0 h 10 v 10 H 360 Z M 60,180 h 10 v 10 H 60 Z m 40,0 h 10 v 10 h -10 z m 30,0 h 10 v 10 h -10 z m 30,0 h 10 v 10 h -10 z m 20,0 h 10 v 10 h -10 z m 10,0 h 10 v 10 h -10 z m 40,0 h 10 v 10 h -10 z m 10,0 h 10 v 10 h -10 z m 20,0 h 10 v 10 h -10 z m 40,0 h 10 v 10 h -10 z m 20,0 h 10 v 10 h -10 z m 30,0 h 10 v 10 H 350 Z M 40,190 h 10 v 10 H 40 Z m 30,0 h 10 v 10 H 70 Z m 20,0 h 10 v 10 H 90 Z m 30,0 h 10 v 10 h -10 z m 20,0 h 10 v 10 h -10 z m 10,0 h 10 v 10 h -10 z m 30,0 h 10 v 10 h -10 z m 10,0 h 10 v 10 h -10 z m 40,0 h 10 v 10 h -10 z m 10,0 h 10 v 10 h -10 z m 10,0 h 10 v 10 h -10 z m 10,0 h 10 v 10 h -10 z m 10,0 h 10 v 10 h -10 z m 10,0 h 10 v 10 h -10 z m 10,0 h 10 v 10 h -10 z m 30,0 h 10 v 10 h -10 z m 10,0 h 10 v 10 h -10 z m 10,0 h 10 v 10 h -10 z m 20,0 h 10 v 10 H 360 Z M 40,200 h 10 v 10 H 40 Z m 30,0 h 10 v 10 H 70 Z m 10,0 h 10 v 10 H 80 Z m 10,0 h 10 v 10 H 90 Z m 10,0 h 10 v 10 h -10 z m 10,0 h 10 v 10 h -10 z m 10,0 h 10 v 10 h -10 z m 20,0 h 10 v 10 h -10 z m 20,0 h 10 v 10 h -10 z m 10,0 h 10 v 10 h -10 z m 20,0 h 10 v 10 h -10 z m 10,0 h 10 v 10 h -10 z m 20,0 h 10 v 10 h -10 z m 20,0 h 10 v 10 h -10 z m 80,0 h 10 v 10 h -10 z m 30,0 h 10 v 10 h -10 z m 10,0 h 10 v 10 H 360 Z M 40,210 h 10 v 10 H 40 Z m 20,0 h 10 v 10 H 60 Z m 20,0 h 10 v 10 H 80 Z m 10,0 h 10 v 10 H 90 Z m 20,0 h 10 v 10 h -10 z m 10,0 h 10 v 10 h -10 z m 20,0 h 10 v 10 h -10 z m 10,0 h 10 v 10 h -10 z m 10,0 h 10 v 10 h -10 z m 10,0 h 10 v 10 h -10 z m 20,0 h 10 v 10 h -10 z m 20,0 h 10 v 10 h -10 z m 10,0 h 10 v 10 h -10 z m 20,0 h 10 v 10 h -10 z m 10,0 h 10 v 10 h -10 z m 20,0 h 10 v 10 h -10 z m 10,0 h 10 v 10 h -10 z m 20,0 h 10 v 10 h -10 z m 10,0 h 10 v 10 h -10 z m 50,0 h 10 v 10 H 360 Z M 60,220 h 10 v 10 H 60 Z m 20,0 h 10 v 10 H 80 Z m 10,0 h 10 v 10 H 90 Z m 10,0 h 10 v 10 h -10 z m 10,0 h 10 v 10 h -10 z m 10,0 h 10 v 10 h -10 z m 30,0 h 10 v 10 h -10 z m 10,0 h 10 v 10 h -10 z m 100,0 h 10 v 10 h -10 z m 30,0 h 10 v 10 h -10 z m 10,0 h 10 v 10 h -10 z m 40,0 h 10 v 10 H 340 Z M 50,230 h 10 v 10 H 50 Z m 40,0 h 10 v 10 H 90 Z m 20,0 h 10 v 10 h -10 z m 20,0 h 10 v 10 h -10 z m 10,0 h 10 v 10 h -10 z m 10,0 h 10 v 10 h -10 z m 10,0 h 10 v 10 h -10 z m 20,0 h 10 v 10 h -10 z m 10,0 h 10 v 10 h -10 z m 20,0 h 10 v 10 h -10 z m 20,0 h 10 v 10 h -10 z m 20,0 h 10 v 10 h -10 z m 20,0 h 10 v 10 h -10 z m 10,0 h 10 v 10 h -10 z m 10,0 h 10 v 10 h -10 z m 20,0 h 10 v 10 h -10 z m 20,0 h 10 v 10 h -10 z m 10,0 h 10 v 10 h -10 z m 10,0 h 10 v 10 h -10 z m 10,0 h 10 v 10 H 360 Z M 40,240 h 10 v 10 H 40 Z m 30,0 h 10 v 10 H 70 Z m 30,0 h 10 v 10 h -10 z m 10,0 h 10 v 10 h -10 z m 10,0 h 10 v 10 h -10 z m 30,0 h 10 v 10 h -10 z m 50,0 h 10 v 10 h -10 z m 20,0 h 10 v 10 h -10 z m 40,0 h 10 v 10 h -10 z m 20,0 h 10 v 10 h -10 z m 40,0 h 10 v 10 h -10 z m 10,0 h 10 v 10 h -10 z m 30,0 h 10 v 10 H 360 Z M 40,250 h 10 v 10 H 40 Z m 10,0 h 10 v 10 H 50 Z m 10,0 h 10 v 10 H 60 Z m 10,0 h 10 v 10 H 70 Z m 10,0 h 10 v 10 H 80 Z m 30,0 h 10 v 10 h -10 z m 10,0 h 10 v 10 h -10 z m 10,0 h 10 v 10 h -10 z m 10,0 h 10 v 10 h -10 z m 20,0 h 10 v 10 h -10 z m 40,0 h 10 v 10 h -10 z m 10,0 h 10 v 10 h -10 z m 20,0 h 10 v 10 h -10 z m 10,0 h 10 v 10 h -10 z m 10,0 h 10 v 10 h -10 z m 80,0 h 10 v 10 h -10 z m 30,0 h 10 v 10 H 360 Z M 40,260 h 10 v 10 H 40 Z m 20,0 h 10 v 10 H 60 Z m 20,0 h 10 v 10 H 80 Z m 10,0 h 10 v 10 H 90 Z m 10,0 h 10 v 10 h -10 z m 40,0 h 10 v 10 h -10 z m 20,0 h 10 v 10 h -10 z m 10,0 h 10 v 10 h -10 z m 10,0 h 10 v 10 h -10 z m 10,0 h 10 v 10 h -10 z m 10,0 h 10 v 10 h -10 z m 20,0 h 10 v 10 h -10 z m 10,0 h 10 v 10 h -10 z m 10,0 h 10 v 10 h -10 z m 30,0 h 10 v 10 h -10 z m 10,0 h 10 v 10 h -10 z m 50,0 h 10 v 10 h -10 z m 20,0 h 10 v 10 H 350 Z M 40,270 h 10 v 10 H 40 Z m 20,0 h 10 v 10 H 60 Z m 10,0 h 10 v 10 H 70 Z m 40,0 h 10 v 10 h -10 z m 20,0 h 10 v 10 h -10 z m 10,0 h 10 v 10 h -10 z m 10,0 h 10 v 10 h -10 z m 10,0 h 10 v 10 h -10 z m 10,0 h 10 v 10 h -10 z m 10,0 h 10 v 10 h -10 z m 30,0 h 10 v 10 h -10 z m 20,0 h 10 v 10 h -10 z m 10,0 h 10 v 10 h -10 z m 10,0 h 10 v 10 h -10 z m 10,0 h 10 v 10 h -10 z m 10,0 h 10 v 10 h -10 z m 60,0 h 10 v 10 h -10 z m 10,0 h 10 v 10 h -10 z m 10,0 h 10 v 10 H 350 Z M 40,280 h 10 v 10 H 40 Z m 20,0 h 10 v 10 H 60 Z m 30,0 h 10 v 10 H 90 Z m 10,0 h 10 v 10 h -10 z m 10,0 h 10 v 10 h -10 z m 10,0 h 10 v 10 h -10 z m 30,0 h 10 v 10 h -10 z m 40,0 h 10 v 10 h -10 z m 20,0 h 10 v 10 h -10 z m 10,0 h 10 v 10 h -10 z m 40,0 h 10 v 10 h -10 z m 10,0 h 10 v 10 h -10 z m 10,0 h 10 v 10 h -10 z m 10,0 h 10 v 10 h -10 z m 10,0 h 10 v 10 h -10 z m 10,0 h 10 v 10 h -10 z m 10,0 h 10 v 10 h -10 z m 10,0 h 10 v 10 h -10 z m 30,0 h 10 v 10 h -10 z m -240,10 h 10 v 10 h -10 z m 20,0 h 10 v 10 h -10 z m 10,0 h 10 v 10 h -10 z m 40,0 h 10 v 10 h -10 z m 10,0 h 10 v 10 h -10 z m 40,0 h 10 v 10 h -10 z m 10,0 h 10 v 10 h -10 z m 20,0 h 10 v 10 h -10 z m 10,0 h 10 v 10 h -10 z m 40,0 h 10 v 10 h -10 z m 10,0 h 10 v 10 h -10 z m 20,0 h 10 v 10 h -10 z m 10,0 h 10 v 10 H 360 Z M 40,300 h 10 v 10 H 40 Z m 10,0 h 10 v 10 H 50 Z m 10,0 h 10 v 10 H 60 Z m 10,0 h 10 v 10 H 70 Z m 10,0 h 10 v 10 H 80 Z m 10,0 h 10 v 10 H 90 Z m 10,0 h 10 v 10 h -10 z m 30,0 h 10 v 10 h -10 z m 30,0 h 10 v 10 h -10 z m 20,0 h 10 v 10 h -10 z m 10,0 h 10 v 10 h -10 z m 10,0 h 10 v 10 h -10 z m 10,0 h 10 v 10 h -10 z m 10,0 h 10 v 10 h -10 z m 30,0 h 10 v 10 h -10 z m 20,0 h 10 v 10 h -10 z m 10,0 h 10 v 10 h -10 z m 20,0 h 10 v 10 h -10 z m 20,0 h 10 v 10 h -10 z m 10,0 h 10 v 10 h -10 z m 10,0 h 10 v 10 h -10 z m 10,0 h 10 v 10 H 350 Z M 40,310 h 10 v 10 H 40 Z m 60,0 h 10 v 10 h -10 z m 100,0 h 10 v 10 h -10 z m 30,0 h 10 v 10 h -10 z m 10,0 h 10 v 10 h -10 z m 10,0 h 10 v 10 h -10 z m 10,0 h 10 v 10 h -10 z m 10,0 h 10 v 10 h -10 z m 10,0 h 10 v 10 h -10 z m 40,0 h 10 v 10 h -10 z m 20,0 h 10 v 10 h -10 z m 10,0 h 10 v 10 h -10 z m 10,0 h 10 v 10 H 360 Z M 40,320 h 10 v 10 H 40 Z m 20,0 h 10 v 10 H 60 Z m 10,0 h 10 v 10 H 70 Z m 10,0 h 10 v 10 H 80 Z m 20,0 h 10 v 10 h -10 z m 20,0 h 10 v 10 h -10 z m 20,0 h 10 v 10 h -10 z m 10,0 h 10 v 10 h -10 z m 20,0 h 10 v 10 h -10 z m 40,0 h 10 v 10 h -10 z m 10,0 h 10 v 10 h -10 z m 10,0 h 10 v 10 h -10 z m 10,0 h 10 v 10 h -10 z m 10,0 h 10 v 10 h -10 z m 30,0 h 10 v 10 h -10 z m 10,0 h 10 v 10 h -10 z m 10,0 h 10 v 10 h -10 z m 10,0 h 10 v 10 h -10 z m 10,0 h 10 v 10 h -10 z m 10,0 h 10 v 10 h -10 z m 20,0 h 10 v 10 h -10 z m 10,0 h 10 v 10 H 360 Z M 40,330 h 10 v 10 H 40 Z m 20,0 h 10 v 10 H 60 Z m 10,0 h 10 v 10 H 70 Z m 10,0 h 10 v 10 H 80 Z m 20,0 h 10 v 10 h -10 z m 20,0 h 10 v 10 h -10 z m 10,0 h 10 v 10 h -10 z m 10,0 h 10 v 10 h -10 z m 10,0 h 10 v 10 h -10 z m 10,0 h 10 v 10 h -10 z m 10,0 h 10 v 10 h -10 z m 20,0 h 10 v 10 h -10 z m 10,0 h 10 v 10 h -10 z m 10,0 h 10 v 10 h -10 z m 10,0 h 10 v 10 h -10 z m 10,0 h 10 v 10 h -10 z m 30,0 h 10 v 10 h -10 z m 10,0 h 10 v 10 h -10 z m 10,0 h 10 v 10 h -10 z m 10,0 h 10 v 10 h -10 z m 30,0 h 10 v 10 h -10 z m 20,0 h 10 v 10 h -10 z m 10,0 h 10 v 10 H 350 Z M 40,340 h 10 v 10 H 40 Z m 20,0 h 10 v 10 H 60 Z m 10,0 h 10 v 10 H 70 Z m 10,0 h 10 v 10 H 80 Z m 20,0 h 10 v 10 h -10 z m 20,0 h 10 v 10 h -10 z m 20,0 h 10 v 10 h -10 z m 20,0 h 10 v 10 h -10 z m 10,0 h 10 v 10 h -10 z m 10,0 h 10 v 10 h -10 z m 10,0 h 10 v 10 h -10 z m 20,0 h 10 v 10 h -10 z m 20,0 h 10 v 10 h -10 z m 20,0 h 10 v 10 h -10 z m 20,0 h 10 v 10 h -10 z m 20,0 h 10 v 10 h -10 z m 10,0 h 10 v 10 h -10 z m 30,0 h 10 v 10 H 330 Z M 40,350 h 10 v 10 H 40 Z m 60,0 h 10 v 10 h -10 z m 40,0 h 10 v 10 h -10 z m 20,0 h 10 v 10 h -10 z m 30,0 h 10 v 10 h -10 z m 20,0 h 10 v 10 h -10 z m 20,0 h 10 v 10 h -10 z m 20,0 h 10 v 10 h -10 z m 40,0 h 10 v 10 h -10 z m 10,0 h 10 v 10 h -10 z m 10,0 h 10 v 10 h -10 z m 20,0 h 10 v 10 h -10 z m 10,0 h 10 v 10 H 340 Z M 40,360 h 10 v 10 H 40 Z m 10,0 h 10 v 10 H 50 Z m 10,0 h 10 v 10 H 60 Z m 10,0 h 10 v 10 H 70 Z m 10,0 h 10 v 10 H 80 Z m 10,0 h 10 v 10 H 90 Z m 10,0 h 10 v 10 h -10 z m 60,0 h 10 v 10 h -10 z m 10,0 h 10 v 10 h -10 z m 20,0 h 10 v 10 h -10 z m 10,0 h 10 v 10 h -10 z m 10,0 h 10 v 10 h -10 z m 20,0 h 10 v 10 h -10 z m 20,0 h 10 v 10 h -10 z m 20,0 h 10 v 10 h -10 z m 10,0 h 10 v 10 h -10 z m 10,0 h 10 v 10 h -10 z m 60,0 h 10 v 10 h -10 z" />
    </g>
    <path
       id="path2219"
       d="m 120.71878,146.01037 h 2.64584 v 2.64582 h -2.64584 z"
       style="display:inline;fill:#b71f2b;fill-opacity:1;stroke:#b71f2b;stroke-width:0.1;stroke-miterlimit:4;stroke-dasharray:none;stroke-opacity:1" />
    <path
       id="path2217"
       d="m 118.07296,146.01037 h 2.64582 v 2.64582 h -2.64582 z"
       style="display:inline;fill:#b71f2b;fill-opacity:1;stroke:#b71f2b;stroke-width:0.1;stroke-miterlimit:4;stroke-dasharray:none;stroke-opacity:1" />
    <path
       id="path2215"
       d="m 115.42713,146.01037 h 2.64583 v 2.64582 h -2.64583 z"
       style="display:inline;fill:#b71f2b;fill-opacity:1;stroke:#b71f2b;stroke-width:0.1;stroke-miterlimit:4;stroke-dasharray:none;stroke-opacity:1" />
    <path
       id="path2213"
       d="m 112.7813,146.01037 h 2.64583 v 2.64582 h -2.64583 z"
       style="display:inline;fill:#b71f2b;fill-opacity:1;stroke:#b71f2b;stroke-width:0.1;stroke-miterlimit:4;stroke-dasharray:none;stroke-opacity:1" />
    <path
       id="path2211"
       d="m 110.13547,146.01037 h 2.64583 v 2.64582 h -2.64583 z"
       style="display:inline;fill:#b71f2b;fill-opacity:1;stroke:#b71f2b;stroke-width:0.1;stroke-miterlimit:4;stroke-dasharray:none;stroke-opacity:1" />
    <path
       id="path2209"
       d="m 107.48964,146.01037 h 2.64583 v 2.64582 h -2.64583 z"
       style="display:inline;fill:#b71f2b;fill-opacity:1;stroke:#b71f2b;stroke-width:0.1;stroke-miterlimit:4;stroke-dasharray:none;stroke-opacity:1" />
    <path
       id="path2207"
       d="m 104.84381,146.01037 h 2.64583 v 2.64582 h -2.64583 z"
       style="display:inline;fill:#b71f2b;fill-opacity:1;stroke:#b71f2b;stroke-width:0.1;stroke-miterlimit:4;stroke-dasharray:none;stroke-opacity:1" />
    <path
       id="path2185"
       d="m 120.71878,143.36454 h 2.64584 v 2.64583 h -2.64584 z"
       style="display:inline;fill:#b71f2b;fill-opacity:1;stroke:#b71f2b;stroke-width:0.1;stroke-miterlimit:4;stroke-dasharray:none;stroke-opacity:1" />
    <path
       id="path2183"
       d="m 104.84381,143.36454 h 2.64583 v 2.64583 h -2.64583 z"
       style="display:inline;fill:#b71f2b;fill-opacity:1;stroke:#b71f2b;stroke-width:0.1;stroke-miterlimit:4;stroke-dasharray:none;stroke-opacity:1" />
    <path
       id="path2153"
       d="m 120.71878,140.7187 h 2.64584 v 2.64584 h -2.64584 z"
       style="display:inline;fill:#b71f2b;fill-opacity:1;stroke:#b71f2b;stroke-width:0.1;stroke-miterlimit:4;stroke-dasharray:none;stroke-opacity:1" />
    <path
       id="path2151"
       d="m 115.42713,140.7187 h 2.64583 v 2.64584 h -2.64583 z"
       style="display:inline;fill:#b71f2b;fill-opacity:1;stroke:#b71f2b;stroke-width:0.1;stroke-miterlimit:4;stroke-dasharray:none;stroke-opacity:1" />
    <path
       id="path2149"
       d="m 112.7813,140.7187 h 2.64583 v 2.64584 h -2.64583 z"
       style="display:inline;fill:#b71f2b;fill-opacity:1;stroke:#b71f2b;stroke-width:0.1;stroke-miterlimit:4;stroke-dasharray:none;stroke-opacity:1" />
    <path
       id="path2147"
       d="m 110.13547,140.7187 h 2.64583 v 2.64584 h -2.64583 z"
       style="display:inline;fill:#b71f2b;fill-opacity:1;stroke:#b71f2b;stroke-width:0.1;stroke-miterlimit:4;stroke-dasharray:none;stroke-opacity:1" />
    <path
       id="path2145"
       d="m 104.84381,140.7187 h 2.64583 v 2.64584 h -2.64583 z"
       style="display:inline;fill:#b71f2b;fill-opacity:1;stroke:#b71f2b;stroke-width:0.1;stroke-miterlimit:4;stroke-dasharray:none;stroke-opacity:1" />
    <path
       id="path2119"
       d="m 120.71878,138.07288 h 2.64584 v 2.64582 h -2.64584 z"
       style="display:inline;fill:#b71f2b;fill-opacity:1;stroke:#b71f2b;stroke-width:0.1;stroke-miterlimit:4;stroke-dasharray:none;stroke-opacity:1" />
    <path
       id="path2117"
       d="m 115.42713,138.07288 h 2.64583 v 2.64582 h -2.64583 z"
       style="display:inline;fill:#b71f2b;fill-opacity:1;stroke:#b71f2b;stroke-width:0.1;stroke-miterlimit:4;stroke-dasharray:none;stroke-opacity:1" />
    <path
       id="path2115"
       d="m 112.7813,138.07288 h 2.64583 v 2.64582 h -2.64583 z"
       style="display:inline;fill:#b71f2b;fill-opacity:1;stroke:#b71f2b;stroke-width:0.1;stroke-miterlimit:4;stroke-dasharray:none;stroke-opacity:1" />
    <path
       id="path2113"
       d="m 110.13547,138.07288 h 2.64583 v 2.64582 h -2.64583 z"
       style="display:inline;fill:#b71f2b;fill-opacity:1;stroke:#b71f2b;stroke-width:0.1;stroke-miterlimit:4;stroke-dasharray:none;stroke-opacity:1" />
    <path
       id="path2111"
       d="m 104.84381,138.07288 h 2.64583 v 2.64582 h -2.64583 z"
       style="display:inline;fill:#b71f2b;fill-opacity:1;stroke:#b71f2b;stroke-width:0.1;stroke-miterlimit:4;stroke-dasharray:none;stroke-opacity:1" />
    <path
       id="path2077"
       d="m 120.71878,135.42705 h 2.64584 v 2.64583 h -2.64584 z"
       style="display:inline;fill:#b71f2b;fill-opacity:1;stroke:#b71f2b;stroke-width:0.1;stroke-miterlimit:4;stroke-dasharray:none;stroke-opacity:1" />
    <path
       id="path2075"
       d="m 115.42713,135.42705 h 2.64583 v 2.64583 h -2.64583 z"
       style="display:inline;fill:#b71f2b;fill-opacity:1;stroke:#b71f2b;stroke-width:0.1;stroke-miterlimit:4;stroke-dasharray:none;stroke-opacity:1" />
    <path
       id="path2073"
       d="m 112.7813,135.42705 h 2.64583 v 2.64583 h -2.64583 z"
       style="display:inline;fill:#b71f2b;fill-opacity:1;stroke:#b71f2b;stroke-width:0.1;stroke-miterlimit:4;stroke-dasharray:none;stroke-opacity:1" />
    <path
       id="path2071"
       d="m 110.13547,135.42705 h 2.64583 v 2.64583 h -2.64583 z"
       style="display:inline;fill:#b71f2b;fill-opacity:1;stroke:#b71f2b;stroke-width:0.1;stroke-miterlimit:4;stroke-dasharray:none;stroke-opacity:1" />
    <path
       id="path2069"
       d="m 104.84381,135.42705 h 2.64583 v 2.64583 h -2.64583 z"
       style="display:inline;fill:#b71f2b;fill-opacity:1;stroke:#b71f2b;stroke-width:0.1;stroke-miterlimit:4;stroke-dasharray:none;stroke-opacity:1" />
    <path
       id="path2049"
       d="m 120.71878,132.78122 h 2.64584 v 2.64583 h -2.64584 z"
       style="display:inline;fill:#b71f2b;fill-opacity:1;stroke:#b71f2b;stroke-width:0.1;stroke-miterlimit:4;stroke-dasharray:none;stroke-opacity:1" />
    <path
       id="path2047"
       d="m 104.84381,132.78122 h 2.64583 v 2.64583 h -2.64583 z"
       style="display:inline;fill:#b71f2b;fill-opacity:1;stroke:#b71f2b;stroke-width:0.1;stroke-miterlimit:4;stroke-dasharray:none;stroke-opacity:1" />
    <path
       id="path2021"
       d="m 120.71878,130.13539 h 2.64584 v 2.64583 h -2.64584 z"
       style="display:inline;fill:#b71f2b;fill-opacity:1;stroke:#b71f2b;stroke-width:0.1;stroke-miterlimit:4;stroke-dasharray:none;stroke-opacity:1" />
    <path
       id="path2019"
       d="m 118.07296,130.13539 h 2.64582 v 2.64583 h -2.64582 z"
       style="display:inline;fill:#b71f2b;fill-opacity:1;stroke:#b71f2b;stroke-width:0.1;stroke-miterlimit:4;stroke-dasharray:none;stroke-opacity:1" />
    <path
       id="path2017"
       d="m 115.42713,130.13539 h 2.64583 v 2.64583 h -2.64583 z"
       style="display:inline;fill:#b71f2b;fill-opacity:1;stroke:#b71f2b;stroke-width:0.1;stroke-miterlimit:4;stroke-dasharray:none;stroke-opacity:1" />
    <path
       id="path2015"
       d="m 112.7813,130.13539 h 2.64583 v 2.64583 h -2.64583 z"
       style="display:inline;fill:#b71f2b;fill-opacity:1;stroke:#b71f2b;stroke-width:0.1;stroke-miterlimit:4;stroke-dasharray:none;stroke-opacity:1" />
    <path
       id="path2013"
       d="m 110.13547,130.13539 h 2.64583 v 2.64583 h -2.64583 z"
       style="display:inline;fill:#b71f2b;fill-opacity:1;stroke:#b71f2b;stroke-width:0.1;stroke-miterlimit:4;stroke-dasharray:none;stroke-opacity:1" />
    <path
       id="path2011"
       d="m 107.48964,130.13539 h 2.64583 v 2.64583 h -2.64583 z"
       style="display:inline;fill:#b71f2b;fill-opacity:1;stroke:#b71f2b;stroke-width:0.1;stroke-miterlimit:4;stroke-dasharray:none;stroke-opacity:1" />
    <path
       id="path2009"
       d="m 104.84381,130.13539 h 2.64583 v 2.64583 h -2.64583 z"
       style="display:inline;fill:#b71f2b;fill-opacity:1;stroke:#b71f2b;stroke-width:0.1;stroke-miterlimit:4;stroke-dasharray:none;stroke-opacity:1" />
    <path
       id="path1401"
       d="m 189.51037,77.218785 h 2.64582 v 2.64583 h -2.64582 z"
       style="display:inline;fill:#b71f2b;fill-opacity:1;stroke:#b71f2b;stroke-width:0.1;stroke-miterlimit:4;stroke-dasharray:none;stroke-opacity:1" />
    <path
       id="path1399"
       d="m 186.86454,77.218785 h 2.64583 v 2.64583 h -2.64583 z"
       style="display:inline;fill:#b71f2b;fill-opacity:1;stroke:#b71f2b;stroke-width:0.1;stroke-miterlimit:4;stroke-dasharray:none;stroke-opacity:1" />
    <path
       id="path1397"
       d="m 184.2187,77.218785 h 2.64584 v 2.64583 h -2.64584 z"
       style="display:inline;fill:#b71f2b;fill-opacity:1;stroke:#b71f2b;stroke-width:0.1;stroke-miterlimit:4;stroke-dasharray:none;stroke-opacity:1" />
    <path
       id="path1395"
       d="m 181.57288,77.218785 h 2.64582 v 2.64583 h -2.64582 z"
       style="display:inline;fill:#b71f2b;fill-opacity:1;stroke:#b71f2b;stroke-width:0.1;stroke-miterlimit:4;stroke-dasharray:none;stroke-opacity:1" />
    <path
       id="path1393"
       d="m 178.92705,77.218785 h 2.64583 v 2.64583 h -2.64583 z"
       style="display:inline;fill:#b71f2b;fill-opacity:1;stroke:#b71f2b;stroke-width:0.1;stroke-miterlimit:4;stroke-dasharray:none;stroke-opacity:1" />
    <path
       id="path1391"
       d="m 176.28122,77.218785 h 2.64583 v 2.64583 h -2.64583 z"
       style="display:inline;fill:#b71f2b;fill-opacity:1;stroke:#b71f2b;stroke-width:0.1;stroke-miterlimit:4;stroke-dasharray:none;stroke-opacity:1" />
    <path
       id="path1389"
       d="m 173.63539,77.218785 h 2.64583 v 2.64583 h -2.64583 z"
       style="display:inline;fill:#b71f2b;fill-opacity:1;stroke:#b71f2b;stroke-width:0.1;stroke-miterlimit:4;stroke-dasharray:none;stroke-opacity:1" />
    <path
       id="path1369"
       d="m 120.71878,77.218785 h 2.64584 v 2.64583 h -2.64584 z"
       style="display:inline;fill:#b71f2b;fill-opacity:1;stroke:#b71f2b;stroke-width:0.1;stroke-miterlimit:4;stroke-dasharray:none;stroke-opacity:1" />
    <path
       id="path1367"
       d="m 118.07296,77.218785 h 2.64582 v 2.64583 h -2.64582 z"
       style="display:inline;fill:#b71f2b;fill-opacity:1;stroke:#b71f2b;stroke-width:0.1;stroke-miterlimit:4;stroke-dasharray:none;stroke-opacity:1" />
    <path
       id="path1365"
       d="m 115.42713,77.218785 h 2.64583 v 2.64583 h -2.64583 z"
       style="display:inline;fill:#b71f2b;fill-opacity:1;stroke:#b71f2b;stroke-width:0.1;stroke-miterlimit:4;stroke-dasharray:none;stroke-opacity:1" />
    <path
       id="path1363"
       d="m 112.7813,77.218785 h 2.64583 v 2.64583 h -2.64583 z"
       style="display:inline;fill:#b71f2b;fill-opacity:1;stroke:#b71f2b;stroke-width:0.1;stroke-miterlimit:4;stroke-dasharray:none;stroke-opacity:1" />
    <path
       id="path1361"
       d="m 110.13547,77.218785 h 2.64583 v 2.64583 h -2.64583 z"
       style="display:inline;fill:#b71f2b;fill-opacity:1;stroke:#b71f2b;stroke-width:0.1;stroke-miterlimit:4;stroke-dasharray:none;stroke-opacity:1" />
    <path
       id="path1359"
       d="m 107.48964,77.218785 h 2.64583 v 2.64583 h -2.64583 z"
       style="display:inline;fill:#b71f2b;fill-opacity:1;stroke:#b71f2b;stroke-width:0.1;stroke-miterlimit:4;stroke-dasharray:none;stroke-opacity:1" />
    <path
       id="path1357"
       d="m 104.84381,77.218785 h 2.64583 v 2.64583 h -2.64583 z"
       style="display:inline;fill:#b71f2b;fill-opacity:1;stroke:#b71f2b;stroke-width:0.1;stroke-miterlimit:4;stroke-dasharray:none;stroke-opacity:1" />
    <path
       id="path1355"
       d="m 189.51037,74.572955 h 2.64582 v 2.64583 h -2.64582 z"
       style="display:inline;fill:#b71f2b;fill-opacity:1;stroke:#b71f2b;stroke-width:0.1;stroke-miterlimit:4;stroke-dasharray:none;stroke-opacity:1" />
    <path
       id="path1353"
       d="m 173.63539,74.572955 h 2.64583 v 2.64583 h -2.64583 z"
       style="display:inline;fill:#b71f2b;fill-opacity:1;stroke:#b71f2b;stroke-width:0.1;stroke-miterlimit:4;stroke-dasharray:none;stroke-opacity:1" />
    <path
       id="path1335"
       d="m 120.71878,74.572955 h 2.64584 v 2.64583 h -2.64584 z"
       style="display:inline;fill:#b71f2b;fill-opacity:1;stroke:#b71f2b;stroke-width:0.1;stroke-miterlimit:4;stroke-dasharray:none;stroke-opacity:1" />
    <path
       id="path1333"
       d="m 104.84381,74.572955 h 2.64583 v 2.64583 h -2.64583 z"
       style="display:inline;fill:#b71f2b;fill-opacity:1;stroke:#b71f2b;stroke-width:0.1;stroke-miterlimit:4;stroke-dasharray:none;stroke-opacity:1" />
    <path
       id="path1331"
       d="m 189.51037,71.927125 h 2.64582 v 2.64583 h -2.64582 z"
       style="display:inline;fill:#b71f2b;fill-opacity:1;stroke:#b71f2b;stroke-width:0.1;stroke-miterlimit:4;stroke-dasharray:none;stroke-opacity:1" />
    <path
       id="path1329"
       d="m 184.2187,71.927125 h 2.64584 v 2.64583 h -2.64584 z"
       style="display:inline;fill:#b71f2b;fill-opacity:1;stroke:#b71f2b;stroke-width:0.1;stroke-miterlimit:4;stroke-dasharray:none;stroke-opacity:1" />
    <path
       id="path1327"
       d="m 181.57288,71.927125 h 2.64582 v 2.64583 h -2.64582 z"
       style="display:inline;fill:#b71f2b;fill-opacity:1;stroke:#b71f2b;stroke-width:0.1;stroke-miterlimit:4;stroke-dasharray:none;stroke-opacity:1" />
    <path
       id="path1325"
       d="m 178.92705,71.927125 h 2.64583 v 2.64583 h -2.64583 z"
       style="display:inline;fill:#b71f2b;fill-opacity:1;stroke:#b71f2b;stroke-width:0.1;stroke-miterlimit:4;stroke-dasharray:none;stroke-opacity:1" />
    <path
       id="path1323"
       d="m 173.63539,71.927125 h 2.64583 v 2.64583 h -2.64583 z"
       style="display:inline;fill:#b71f2b;fill-opacity:1;stroke:#b71f2b;stroke-width:0.1;stroke-miterlimit:4;stroke-dasharray:none;stroke-opacity:1" />
    <path
       id="path1297"
       d="m 120.71878,71.927125 h 2.64584 v 2.64583 h -2.64584 z"
       style="display:inline;fill:#b71f2b;fill-opacity:1;stroke:#b71f2b;stroke-width:0.1;stroke-miterlimit:4;stroke-dasharray:none;stroke-opacity:1" />
    <path
       id="path1295"
       d="m 115.42713,71.927125 h 2.64583 v 2.64583 h -2.64583 z"
       style="display:inline;fill:#b71f2b;fill-opacity:1;stroke:#b71f2b;stroke-width:0.1;stroke-miterlimit:4;stroke-dasharray:none;stroke-opacity:1" />
    <path
       id="path1293"
       d="m 112.7813,71.927125 h 2.64583 v 2.64583 h -2.64583 z"
       style="display:inline;fill:#b71f2b;fill-opacity:1;stroke:#b71f2b;stroke-width:0.1;stroke-miterlimit:4;stroke-dasharray:none;stroke-opacity:1" />
    <path
       id="path1291"
       d="m 110.13547,71.927125 h 2.64583 v 2.64583 h -2.64583 z"
       style="display:inline;fill:#b71f2b;fill-opacity:1;stroke:#b71f2b;stroke-width:0.1;stroke-miterlimit:4;stroke-dasharray:none;stroke-opacity:1" />
    <path
       id="path1289"
       d="m 104.84381,71.927125 h 2.64583 v 2.64583 h -2.64583 z"
       style="display:inline;fill:#b71f2b;fill-opacity:1;stroke:#b71f2b;stroke-width:0.1;stroke-miterlimit:4;stroke-dasharray:none;stroke-opacity:1" />
    <path
       id="path1287"
       d="m 189.51037,69.281295 h 2.64582 v 2.64583 h -2.64582 z"
       style="display:inline;fill:#b71f2b;fill-opacity:1;stroke:#b71f2b;stroke-width:0.1;stroke-miterlimit:4;stroke-dasharray:none;stroke-opacity:1" />
    <path
       id="path1285"
       d="m 184.2187,69.281295 h 2.64584 v 2.64583 h -2.64584 z"
       style="display:inline;fill:#b71f2b;fill-opacity:1;stroke:#b71f2b;stroke-width:0.1;stroke-miterlimit:4;stroke-dasharray:none;stroke-opacity:1" />
    <path
       id="path1283"
       d="m 181.57288,69.281295 h 2.64582 v 2.64583 h -2.64582 z"
       style="display:inline;fill:#b71f2b;fill-opacity:1;stroke:#b71f2b;stroke-width:0.1;stroke-miterlimit:4;stroke-dasharray:none;stroke-opacity:1" />
    <path
       id="path1281"
       d="m 178.92705,69.281295 h 2.64583 v 2.64583 h -2.64583 z"
       style="display:inline;fill:#b71f2b;fill-opacity:1;stroke:#b71f2b;stroke-width:0.1;stroke-miterlimit:4;stroke-dasharray:none;stroke-opacity:1" />
    <path
       id="path1279"
       d="m 173.63539,69.281295 h 2.64583 v 2.64583 h -2.64583 z"
       style="display:inline;fill:#b71f2b;fill-opacity:1;stroke:#b71f2b;stroke-width:0.1;stroke-miterlimit:4;stroke-dasharray:none;stroke-opacity:1" />
    <path
       id="path1267"
       d="m 120.71878,69.281295 h 2.64584 v 2.64583 h -2.64584 z"
       style="display:inline;fill:#b71f2b;fill-opacity:1;stroke:#b71f2b;stroke-width:0.1;stroke-miterlimit:4;stroke-dasharray:none;stroke-opacity:1" />
    <path
       id="path1265"
       d="m 115.42713,69.281295 h 2.64583 v 2.64583 h -2.64583 z"
       style="display:inline;fill:#b71f2b;fill-opacity:1;stroke:#b71f2b;stroke-width:0.1;stroke-miterlimit:4;stroke-dasharray:none;stroke-opacity:1" />
    <path
       id="path1263"
       d="m 112.7813,69.281295 h 2.64583 v 2.64583 h -2.64583 z"
       style="display:inline;fill:#b71f2b;fill-opacity:1;stroke:#b71f2b;stroke-width:0.1;stroke-miterlimit:4;stroke-dasharray:none;stroke-opacity:1" />
    <path
       id="path1261"
       d="m 110.13547,69.281295 h 2.64583 v 2.64583 h -2.64583 z"
       style="display:inline;fill:#b71f2b;fill-opacity:1;stroke:#b71f2b;stroke-width:0.1;stroke-miterlimit:4;stroke-dasharray:none;stroke-opacity:1" />
    <path
       id="path1259"
       d="m 104.84381,69.281295 h 2.64583 v 2.64583 h -2.64583 z"
       style="display:inline;fill:#b71f2b;fill-opacity:1;stroke:#b71f2b;stroke-width:0.1;stroke-miterlimit:4;stroke-dasharray:none;stroke-opacity:1" />
    <path
       id="path1257"
       d="m 189.51037,66.635465 h 2.64582 v 2.64583 h -2.64582 z"
       style="display:inline;fill:#b71f2b;fill-opacity:1;stroke:#b71f2b;stroke-width:0.1;stroke-miterlimit:4;stroke-dasharray:none;stroke-opacity:1" />
    <path
       id="path1255"
       d="m 184.2187,66.635465 h 2.64584 v 2.64583 h -2.64584 z"
       style="display:inline;fill:#b71f2b;fill-opacity:1;stroke:#b71f2b;stroke-width:0.1;stroke-miterlimit:4;stroke-dasharray:none;stroke-opacity:1" />
    <path
       id="path1253"
       d="m 181.57288,66.635465 h 2.64582 v 2.64583 h -2.64582 z"
       style="display:inline;fill:#b71f2b;fill-opacity:1;stroke:#b71f2b;stroke-width:0.1;stroke-miterlimit:4;stroke-dasharray:none;stroke-opacity:1" />
    <path
       id="path1251"
       d="m 178.92705,66.635465 h 2.64583 v 2.64583 h -2.64583 z"
       style="display:inline;fill:#b71f2b;fill-opacity:1;stroke:#b71f2b;stroke-width:0.1;stroke-miterlimit:4;stroke-dasharray:none;stroke-opacity:1" />
    <path
       id="path1249"
       d="m 173.63539,66.635465 h 2.64583 v 2.64583 h -2.64583 z"
       style="display:inline;fill:#b71f2b;fill-opacity:1;stroke:#b71f2b;stroke-width:0.1;stroke-miterlimit:4;stroke-dasharray:none;stroke-opacity:1" />
    <path
       id="path1227"
       d="m 120.71878,66.635465 h 2.64584 v 2.64583 h -2.64584 z"
       style="display:inline;fill:#b71f2b;fill-opacity:1;stroke:#b71f2b;stroke-width:0.1;stroke-miterlimit:4;stroke-dasharray:none;stroke-opacity:1" />
    <path
       id="path1225"
       d="m 115.42713,66.635465 h 2.64583 v 2.64583 h -2.64583 z"
       style="display:inline;fill:#b71f2b;fill-opacity:1;stroke:#b71f2b;stroke-width:0.1;stroke-miterlimit:4;stroke-dasharray:none;stroke-opacity:1" />
    <path
       id="path1223"
       d="m 112.7813,66.635465 h 2.64583 v 2.64583 h -2.64583 z"
       style="display:inline;fill:#b71f2b;fill-opacity:1;stroke:#b71f2b;stroke-width:0.1;stroke-miterlimit:4;stroke-dasharray:none;stroke-opacity:1" />
    <path
       id="path1221"
       d="m 110.13547,66.635465 h 2.64583 v 2.64583 h -2.64583 z"
       style="display:inline;fill:#b71f2b;fill-opacity:1;stroke:#b71f2b;stroke-width:0.1;stroke-miterlimit:4;stroke-dasharray:none;stroke-opacity:1" />
    <path
       id="path1219"
       d="m 104.84381,66.635465 h 2.64583 v 2.64583 h -2.64583 z"
       style="display:inline;fill:#b71f2b;fill-opacity:1;stroke:#b71f2b;stroke-width:0.1;stroke-miterlimit:4;stroke-dasharray:none;stroke-opacity:1" />
    <path
       id="path1217"
       d="m 189.51037,63.989635 h 2.64582 v 2.64583 h -2.64582 z"
       style="display:inline;fill:#b71f2b;fill-opacity:1;stroke:#b71f2b;stroke-width:0.1;stroke-miterlimit:4;stroke-dasharray:none;stroke-opacity:1" />
    <path
       id="path1215"
       d="m 173.63539,63.989635 h 2.64583 v 2.64583 h -2.64583 z"
       style="display:inline;fill:#b71f2b;fill-opacity:1;stroke:#b71f2b;stroke-width:0.1;stroke-miterlimit:4;stroke-dasharray:none;stroke-opacity:1" />
    <path
       id="path1197"
       d="m 120.71878,63.989635 h 2.64584 v 2.64583 h -2.64584 z"
       style="display:inline;fill:#b71f2b;fill-opacity:1;stroke:#b71f2b;stroke-width:0.1;stroke-miterlimit:4;stroke-dasharray:none;stroke-opacity:1" />
    <path
       id="path1195"
       d="m 104.84381,63.989635 h 2.64583 v 2.64583 h -2.64583 z"
       style="display:inline;fill:#b71f2b;fill-opacity:1;stroke:#b71f2b;stroke-width:0.1;stroke-miterlimit:4;stroke-dasharray:none;stroke-opacity:1" />
    <path
       id="path1193"
       d="m 189.51037,61.343805 h 2.64582 v 2.64583 h -2.64582 z"
       style="display:inline;fill:#b71f2b;fill-opacity:1;stroke:#b71f2b;stroke-width:0.1;stroke-miterlimit:4;stroke-dasharray:none;stroke-opacity:1" />
    <path
       id="path1191"
       d="m 186.86454,61.343805 h 2.64583 v 2.64583 h -2.64583 z"
       style="display:inline;fill:#b71f2b;fill-opacity:1;stroke:#b71f2b;stroke-width:0.1;stroke-miterlimit:4;stroke-dasharray:none;stroke-opacity:1" />
    <path
       id="path1189"
       d="m 184.2187,61.343805 h 2.64584 v 2.64583 h -2.64584 z"
       style="display:inline;fill:#b71f2b;fill-opacity:1;stroke:#b71f2b;stroke-width:0.1;stroke-miterlimit:4;stroke-dasharray:none;stroke-opacity:1" />
    <path
       id="path1187"
       d="m 181.57288,61.343805 h 2.64582 v 2.64583 h -2.64582 z"
       style="display:inline;fill:#b71f2b;fill-opacity:1;stroke:#b71f2b;stroke-width:0.1;stroke-miterlimit:4;stroke-dasharray:none;stroke-opacity:1" />
    <path
       id="path1185"
       d="m 178.92705,61.343805 h 2.64583 v 2.64583 h -2.64583 z"
       style="display:inline;fill:#b71f2b;fill-opacity:1;stroke:#b71f2b;stroke-width:0.1;stroke-miterlimit:4;stroke-dasharray:none;stroke-opacity:1" />
    <path
       id="path1183"
       d="m 176.28122,61.343805 h 2.64583 v 2.64583 h -2.64583 z"
       style="display:inline;fill:#b71f2b;fill-opacity:1;stroke:#b71f2b;stroke-width:0.1;stroke-miterlimit:4;stroke-dasharray:none;stroke-opacity:1" />
    <path
       id="path1181"
       d="m 173.63539,61.343805 h 2.64583 v 2.64583 h -2.64583 z"
       style="display:inline;fill:#b71f2b;fill-opacity:1;stroke:#b71f2b;stroke-width:0.1;stroke-miterlimit:4;stroke-dasharray:none;stroke-opacity:1" />
    <path
       id="path1159"
       d="m 120.71878,61.343805 h 2.64584 v 2.64583 h -2.64584 z"
       style="display:inline;fill:#b71f2b;fill-opacity:1;stroke:#b71f2b;stroke-width:0.1;stroke-miterlimit:4;stroke-dasharray:none;stroke-opacity:1" />
    <path
       id="path1157"
       d="m 118.07296,61.343805 h 2.64582 v 2.64583 h -2.64582 z"
       style="display:inline;fill:#b71f2b;fill-opacity:1;stroke:#b71f2b;stroke-width:0.1;stroke-miterlimit:4;stroke-dasharray:none;stroke-opacity:1" />
    <path
       id="path1155"
       d="m 115.42713,61.343805 h 2.64583 v 2.64583 h -2.64583 z"
       style="display:inline;fill:#b71f2b;fill-opacity:1;stroke:#b71f2b;stroke-width:0.1;stroke-miterlimit:4;stroke-dasharray:none;stroke-opacity:1" />
    <path
       id="path1153"
       d="m 112.7813,61.343805 h 2.64583 v 2.64583 h -2.64583 z"
       style="display:inline;fill:#b71f2b;fill-opacity:1;stroke:#b71f2b;stroke-width:0.1;stroke-miterlimit:4;stroke-dasharray:none;stroke-opacity:1" />
    <path
       id="path1151"
       d="m 110.13547,61.343805 h 2.64583 v 2.64583 h -2.64583 z"
       style="display:inline;fill:#b71f2b;fill-opacity:1;stroke:#b71f2b;stroke-width:0.1;stroke-miterlimit:4;stroke-dasharray:none;stroke-opacity:1" />
    <path
       id="path1149"
       d="m 107.48964,61.343805 h 2.64583 v 2.64583 h -2.64583 z"
       style="display:inline;fill:#b71f2b;fill-opacity:1;stroke:#b71f2b;stroke-width:0.1;stroke-miterlimit:4;stroke-dasharray:none;stroke-opacity:1" />
    <path
       id="path1110"
       d="m 104.84381,61.343805 h 2.64583 v 2.64583 h -2.64583 z"
       style="display:inline;fill:#b71f2b;fill-opacity:1;stroke:#b71f2b;stroke-width:0.1;stroke-miterlimit:4;stroke-dasharray:none;stroke-opacity:1" />
    <rect
       y="93.093765"
       x="131.30211"
       height="23.812469"
       width="34.39579"
       id="rect8882"
       style="color:#000000;display:inline;overflow:visible;fill:#ffffff;stroke:#ffffff;stroke-width:0.05;stroke-linecap:square;stroke-miterlimit:4;stroke-dasharray:none" />
    <g
       transform="matrix(0.07861652,0,0,0.07861652,133.30834,96.295388)"
       id="g49">
      <linearGradient
         id="linearGradient908"
         gradientUnits="userSpaceOnUse"
         x1="91.062599"
         y1="6.5303001"
         x2="294.35931"
         y2="209.8271">
        <stop
           offset="0"
           style="stop-color:#B7212B"
           id="stop896" />
        <stop
           offset="7.399303e-02"
           style="stop-color:#C62D35"
           id="stop898" />
        <stop
           offset="0.1787"
           style="stop-color:#D63941"
           id="stop900" />
        <stop
           offset="0.3091"
           style="stop-color:#E14349"
           id="stop902" />
        <stop
           offset="0.4921"
           style="stop-color:#E8494F"
           id="stop904" />
        <stop
           offset="1"
           style="stop-color:#E94A50"
           id="stop906" />
      </linearGradient>
      <path
         style="fill:url(#SVGID_1_)"
         fill="url(#SVGID_1_)"
         d="m 29.5,127.7 c 3.8,0 6.8,-0.9 9,-2.7 2.2,-1.8 3.6,-3.9 4.3,-6.3 l 14.3,1 c -0.7,2.9 -1.8,5.6 -3.4,8.2 -1.6,2.6 -3.6,4.9 -5.9,6.8 -2.3,1.9 -5.1,3.5 -8.1,4.7 -3.1,1.2 -6.5,1.8 -10.1,1.8 -4.1,0 -7.9,-0.8 -11.5,-2.3 -3.6,-1.6 -6.7,-3.7 -9.4,-6.5 -2.7,-2.8 -4.8,-6 -6.3,-9.7 -1.6,-3.7 -2.3,-7.7 -2.3,-12 0,-4.3 0.8,-8.2 2.3,-12 1.6,-3.7 3.7,-7 6.3,-9.7 2.7,-2.8 5.8,-4.9 9.4,-6.5 3.6,-1.6 7.4,-2.3 11.5,-2.3 3.6,0 6.8,0.6 9.9,1.8 3,1.2 5.7,2.7 8,4.7 2.3,1.9 4.3,4.2 5.9,6.8 1.6,2.6 2.7,5.3 3.4,8.2 l -14.3,1 c -0.4,-1.2 -0.9,-2.3 -1.6,-3.4 -0.7,-1.1 -1.6,-2 -2.7,-2.9 -1.1,-0.8 -2.3,-1.5 -3.8,-2 -1.4,-0.5 -3,-0.8 -4.8,-0.8 -2.2,0 -4.2,0.4 -6.1,1.3 -1.9,0.9 -3.6,2 -5,3.6 -1.4,1.5 -2.6,3.3 -3.4,5.4 -0.8,2.1 -1.2,4.4 -1.2,6.9 0,2.5 0.4,4.8 1.2,6.9 0.8,2.1 2,3.9 3.4,5.4 1.4,1.5 3.1,2.7 5,3.6 1.8,0.6 3.9,1 6,1 z m 93.4,-29.1 c -1.6,-3.7 -3.7,-7 -6.3,-9.7 -2.7,-2.8 -5.8,-4.9 -9.4,-6.5 -3.6,-1.6 -7.4,-2.3 -11.5,-2.3 -4.1,0 -7.9,0.8 -11.5,2.3 -3.6,1.6 -6.7,3.7 -9.4,6.5 -2.7,2.8 -4.8,6 -6.3,9.7 -1.6,3.7 -2.3,7.7 -2.3,12 0,4.3 0.8,8.3 2.3,12 1.6,3.7 3.7,6.9 6.3,9.7 2.7,2.8 5.8,4.9 9.4,6.5 3.6,1.6 7.4,2.3 11.5,2.3 4.1,0 7.9,-0.8 11.5,-2.3 3.6,-1.6 6.7,-3.7 9.4,-6.5 2.7,-2.8 4.8,-6 6.3,-9.7 1.6,-3.7 2.3,-7.7 2.3,-12 0,-4.3 -0.8,-8.2 -2.3,-12 z m -12.7,18.9 c -0.8,2.1 -2,3.9 -3.4,5.4 -1.4,1.5 -3.1,2.7 -5,3.6 -1.9,0.9 -3.9,1.3 -6.1,1.3 -2.2,0 -4.2,-0.4 -6.1,-1.3 -1.9,-0.9 -3.6,-2 -5,-3.6 -1.4,-1.5 -2.6,-3.3 -3.4,-5.4 -0.8,-2.1 -1.2,-4.4 -1.2,-6.9 0,-2.5 0.4,-4.8 1.2,-6.9 0.8,-2.1 2,-3.9 3.4,-5.4 1.4,-1.5 3.1,-2.7 5,-3.6 1.9,-0.9 3.9,-1.3 6.1,-1.3 2.2,0 4.2,0.4 6.1,1.3 1.9,0.9 3.6,2 5,3.6 1.4,1.5 2.6,3.3 3.4,5.4 0.8,2.1 1.2,4.4 1.2,6.9 0,2.5 -0.4,4.8 -1.2,6.9 z m 70.4,-36.9 -20.5,60 h -14.3 l -20.5,-60 h 14.3 L 153,122 166.3,80.6 Z m 22.2,60 H 189 v -60 h 13.8 z m 56.5,-41.7 c -1.6,-3.6 -3.7,-6.8 -6.4,-9.5 -2.7,-2.7 -5.9,-4.9 -9.5,-6.4 -3.6,-1.6 -7.5,-2.3 -11.7,-2.3 h -20.5 v 60 h 20.5 c 4.2,0 8.1,-0.8 11.7,-2.3 3.6,-1.6 6.8,-3.7 9.5,-6.4 2.7,-2.7 4.9,-5.9 6.4,-9.5 1.6,-3.6 2.3,-7.5 2.3,-11.7 0,-4.4 -0.8,-8.3 -2.3,-11.9 z m -12.7,18.4 c -0.8,2 -2,3.8 -3.4,5.2 -1.5,1.5 -3.2,2.6 -5.1,3.5 -2,0.9 -4.1,1.3 -6.4,1.3 H 225 V 93.9 h 6.7 c 2.3,0 4.4,0.4 6.4,1.3 2,0.9 3.7,2 5.1,3.5 1.5,1.5 2.6,3.2 3.4,5.3 0.8,2.1 1.2,4.3 1.2,6.6 0,2.4 -0.4,4.6 -1.2,6.7 z m 22.7,-13.8 h 29 v 11.4 h -29 z m 63.3,-22.9 v 60 H 318.8 V 97.7 l -6.2,4.3 -6.6,-10.4 15.7,-11 z m 50.8,12.2 c -1.1,-2.5 -2.6,-4.7 -4.6,-6.6 -2,-1.9 -4.3,-3.3 -7.1,-4.4 -2.8,-1.1 -5.8,-1.6 -9.1,-1.6 -3.4,0 -6.4,0.5 -9.1,1.6 -2.7,1.1 -5.1,2.6 -7,4.4 -2,1.9 -3.5,4.1 -4.6,6.6 -1.1,2.5 -1.6,5.3 -1.6,8.3 0,3.1 0.6,6 1.8,8.6 1.2,2.6 2.8,4.8 4.9,6.7 2,1.8 4.4,3.2 7,4.2 2.6,1 5.4,1.3 8.2,1 l -12.9,19 h 14.3 l 15.7,-23.3 c 1.1,-1.5 2,-3.1 2.9,-4.9 0.7,-1.5 1.3,-3.2 2,-5.1 0.6,-2 0.9,-4 0.9,-6.2 -0.1,-3 -0.6,-5.8 -1.7,-8.3 z m -14.7,14.8 c -1.7,1.7 -3.7,2.5 -6.1,2.5 -2.4,0 -4.4,-0.8 -6.1,-2.5 -1.7,-1.7 -2.5,-3.9 -2.5,-6.5 0,-2.7 0.8,-4.8 2.5,-6.5 1.6,-1.7 3.7,-2.5 6.1,-2.5 2.4,0 4.4,0.8 6.1,2.5 1.7,1.7 2.5,3.9 2.5,6.5 0,2.6 -0.8,4.8 -2.5,6.5 z"
         id="path15" />
      <g
         id="g25">
        <path
           fill="#384e71"
           d="m 215.8,154.7 c 3.4,0 6.6,0.6 9.4,1.7 2.8,1.1 5.3,2.6 7.3,4.5 2,1.9 3.6,4.1 4.7,6.7 1.1,2.6 1.7,5.3 1.7,8.2 0,3.7 -0.6,6.8 -1.9,9.4 -1.3,2.5 -2.7,4.6 -4.3,6.2 -1.6,1.6 -3.7,3.1 -6.4,4.5 L 241,221.1 H 224.2 L 212.1,199 h -7.9 v 22.1 H 189 v -66.3 h 26.8 z m 0,29.4 c 2.7,0 4.7,-0.7 6.2,-2.1 1.5,-1.4 2.2,-3.2 2.2,-5.3 0,-2.1 -0.7,-3.9 -2.2,-5.3 -1.5,-1.4 -3.5,-2.1 -6.2,-2.1 H 204.2 V 184 h 11.6 z"
           id="path17" />
        <path
           fill="#384e71"
           d="m 264.7,220.9 h -15.3 v -66.3 h 15.3 z"
           id="path19" />
        <path
           fill="#384e71"
           d="m 273.6,173.1 c 0,-2.5 0.5,-4.9 1.6,-7.2 1.1,-2.3 2.6,-4.3 4.7,-6 2,-1.7 4.5,-3.1 7.4,-4.2 2.9,-1.1 6.2,-1.6 9.9,-1.6 3.6,0 6.8,0.5 9.6,1.6 2.8,1.1 5.3,2.5 7.3,4.4 2,1.9 3.5,4.1 4.6,6.7 1.1,2.6 1.6,5.3 1.6,8.4 l -14.7,1.1 c 0,-2.7 -0.7,-4.7 -2.2,-6.2 -1.5,-1.5 -3.5,-2.2 -6.2,-2.2 -2.4,0 -4.3,0.6 -5.7,1.9 -1.4,1.3 -2.2,2.8 -2.2,4.4 0,1.6 0.8,2.8 2.4,3.7 1.6,0.8 3.6,1.6 6,2.4 2.4,0.7 5,1.5 7.8,2.4 2.8,0.8 5.4,2 7.8,3.6 2.4,1.5 4.4,3.6 6,6.1 1.6,2.5 2.4,5.8 2.4,9.8 0,2.7 -0.5,5.2 -1.6,7.5 -1.1,2.3 -2.7,4.4 -4.8,6.2 -2.1,1.8 -4.7,3.2 -7.8,4.2 -3.1,1.1 -6.6,1.6 -10.5,1.6 -3.8,0 -7.2,-0.5 -10.2,-1.6 -3,-1.1 -5.6,-2.5 -7.6,-4.5 -2.1,-1.9 -3.6,-4.2 -4.7,-6.8 -1.1,-2.6 -1.6,-5.5 -1.6,-8.7 l 14.7,-1.1 c 0,6 3.2,8.9 9.5,8.9 2.9,0 5.2,-0.7 6.7,-2.1 1.5,-1.4 2.3,-3 2.3,-4.8 0,-1.7 -0.8,-3 -2.4,-3.9 -1.6,-0.9 -3.6,-1.8 -6,-2.5 -2.4,-0.8 -5,-1.6 -7.8,-2.4 -2.8,-0.8 -5.4,-2 -7.8,-3.5 -2.4,-1.5 -4.4,-3.5 -6,-5.9 -1.7,-2.6 -2.5,-5.8 -2.5,-9.7 z"
           id="path21" />
        <path
           fill="#384e71"
           d="m 367.2,220.9 -21.6,-29.5 v 29.5 h -15.3 v -66.3 h 15.3 V 183 l 20,-28.4 H 383 l -23.4,32.6 24.9,33.7 z"
           id="path23" />
      </g>
      <path
         fill="#384e71"
         d="M 24.2,41.9 2.2,0.5 H 18.4 L 31.8,26.7 45.2,0.5 h 16.2 l -22,41.4 V 66.5 H 24.2 Z"
         id="path27" />
      <path
         fill="#384e71"
         d="m 121.6,33.5 c 0,4.8 -0.9,9.2 -2.6,13.2 -1.7,4.1 -4,7.6 -7,10.6 -2.9,3 -6.4,5.4 -10.3,7.1 -3.9,1.7 -8.2,2.6 -12.6,2.6 -4.5,0 -8.7,-0.9 -12.6,-2.6 -3.9,-1.7 -7.4,-4.1 -10.3,-7.1 -2.9,-3 -5.3,-6.6 -7,-10.6 -1.7,-4.1 -2.6,-8.5 -2.6,-13.2 0,-4.7 0.9,-9.1 2.6,-13.2 1.7,-4.1 4,-7.7 7,-10.7 2.9,-3 6.4,-5.4 10.3,-7.1 C 80.4,0.9 84.6,0 89.1,0 c 4.5,0 8.7,0.9 12.6,2.6 3.9,1.7 7.4,4.1 10.3,7.1 2.9,3 5.3,6.6 7,10.7 1.7,4.1 2.6,8.5 2.6,13.1 z m -15.2,0 c 0,-2.7 -0.5,-5.2 -1.4,-7.5 -0.9,-2.3 -2.1,-4.3 -3.7,-6 -1.6,-1.7 -3.4,-3 -5.5,-3.9 -2.1,-0.9 -4.3,-1.4 -6.7,-1.4 -2.4,0 -4.6,0.5 -6.7,1.4 -2.1,0.9 -3.9,2.3 -5.5,3.9 -1.6,1.7 -2.8,3.7 -3.7,6 -0.9,2.3 -1.4,4.8 -1.4,7.5 0,2.7 0.5,5.2 1.4,7.5 0.9,2.3 2.1,4.3 3.7,6 1.6,1.7 3.4,3 5.5,3.9 2.1,0.9 4.3,1.4 6.7,1.4 2.4,0 4.6,-0.5 6.7,-1.4 2.1,-0.9 3.9,-2.3 5.5,-3.9 1.6,-1.6 2.8,-3.7 3.7,-6 0.9,-2.2 1.4,-4.7 1.4,-7.5 z"
         id="path29" />
      <path
         fill="#384e71"
         d="m 142.6,0.5 v 39.3 c 0,4 1.1,7.1 3.2,9.3 2.2,2.2 5.1,3.3 8.8,3.3 3.7,0 6.6,-1.1 8.8,-3.3 2.2,-2.2 3.2,-5.3 3.2,-9.3 V 0.5 h 15.2 v 39.3 c 0,4.1 -0.7,7.8 -2,11.1 -1.3,3.4 -3.2,6.2 -5.6,8.6 -2.4,2.4 -5.2,4.2 -8.6,5.6 -3.4,1.3 -7.1,2 -11.1,2 -4.1,0 -7.8,-0.7 -11.1,-2 -3.4,-1.3 -6.2,-3.2 -8.6,-5.6 -2.4,-2.4 -4.2,-5.2 -5.6,-8.6 -1.3,-3.4 -2,-7.1 -2,-11.1 V 0.5 Z"
         id="path31" />
      <path
         fill="#384e71"
         d="m 215.7,0.4 c 3.4,0 6.5,0.6 9.4,1.7 2.8,1.1 5.3,2.6 7.3,4.5 2,1.9 3.6,4.1 4.7,6.7 1.1,2.6 1.7,5.3 1.7,8.1 0,3.7 -0.6,6.8 -1.9,9.3 -1.3,2.5 -2.7,4.6 -4.3,6.1 -1.6,1.6 -3.7,3.1 -6.3,4.5 L 241,66.5 h -16.8 l -12.1,-22 h -7.9 v 22 H 189 v -66 h 26.7 z m 0,29.3 c 2.7,0 4.7,-0.7 6.2,-2.1 1.5,-1.4 2.2,-3.1 2.2,-5.2 0,-2.1 -0.7,-3.8 -2.2,-5.2 -1.5,-1.4 -3.5,-2.1 -6.2,-2.1 h -11.5 v 14.7 h 11.5 z"
         id="path33" />
      <path
         fill="#384e71"
         d="M 256.7,39.5 V 25.7 h 126.2 v 13.8 z"
         id="path35" />
      <g
         id="g47">
        <path
           fill="#384e71"
           d="m 158.4,194.7 h 14.7 V 180.9 H 139 c 6.9,3.9 13.4,8.5 19.4,13.8 z"
           id="path37" />
        <path
           fill="#384e71"
           d="M 43.8,191.5 C 30.6,190 16.4,191.1 2.2,194.6 v 0.1 h 57.3 c -1.9,-0.6 -3.8,-1.1 -5.6,-1.5 -3.2,-0.8 -6.7,-1.3 -10.1,-1.7 z"
           id="path39" />
        <path
           fill="#384e71"
           d="m 71.7,185.6 c -5,-2 -10.2,-3.5 -15.5,-4.7 H 12.3 c -3.4,0.7 -6.7,1.4 -10.1,2.4 v 4.4 c 14.4,-3.4 28.6,-4.3 42.3,-2.8 3.7,0.4 7.3,1 10.9,1.8 3.9,1 7.8,2.1 11.6,3.4 l 0.2,0.1 c 3.6,1.5 6.8,2.9 9.8,4.2 0.2,0.1 0.4,0.2 0.7,0.3 h 14.6 c -3.9,-1.6 -7.7,-3.2 -11.4,-4.9 -3.5,-1.5 -6.5,-2.9 -9.2,-4.2 z"
           id="path41" />
        <path
           fill="#384e71"
           d="m 68.6,180.9 c 1.5,0.5 3,1 4.4,1.6 l 0.1,0.1 c 2.7,1.3 5.6,2.7 9,4.2 4.6,2 9.3,4 14.3,6.1 1.4,0.6 2.9,1.2 4.3,1.8 h 29 C 120,189 109.3,184.3 97.8,180.9 Z"
           id="path43" />
        <path
           fill="#384e71"
           d="m 108.3,180.9 c 10,3.7 19.3,8.3 27.8,13.8 h 15.5 c -6.4,-5.1 -13.7,-9.7 -22,-13.8 z"
           id="path45" />
      </g>
    </g>
  </g>
</svg>
