"variable","subQuestion","answerOption","estimate"
"country",NA,"1",0.01
"age",NA,"1",0.1
"age",NA,"2",0.2
"age",NA,"3",0.4
"age",NA,"4",0.7
"age",NA,"5",1.3
"age",NA,"6",2.2
"age",NA,"7",3.4
"age",NA,"8",3.8
"age",NA,"9",1.5125
"gender",NA,"fem",0.1
"gender",NA,"male",0.7
"gender",NA,"enby",0.1
"gender",NA,"unknw",0.3
"gender",NA,"spec",0.3
"work","ptnts","Y",3
"work","ptnts","N",0.01
"work","chldr","Y",1.6
"work","chldr","N",0.01
"work","publc","Y",1.9
"work","publc","N",0.01
"work","home","Y",0.2
"work","home","N",0.01
"siCurrent","food","Y",1.3
"siCurrent","food","N",0.01
"siCurrent","shops","Y",1.8
"siCurrent","shops","N",0.01
"siCurrent","famly","Y",1.9
"siCurrent","famly","N",0.01
"siCurrent","frnds","Y",2.3
"siCurrent","frnds","N",0.01
"siCurrent","sport","Y",0.7
"siCurrent","sport","N",0.01
"siCurrent","home","Y",0.01
"siCurrent","home","N",0.01
"siTrigger","symSe","N",3.2
"siTrigger","symSe","Y",0.01
"siTrigger","symOt","N",3.3
"siTrigger","symOt","Y",0.01
"siTrigger","govmt","N",2.3
"siTrigger","govmt","Y",0.01
"siTrigger","other","N",0.01
"siTrigger","other","Y",0.01
"siTrigger","none","N",0.01
"siTrigger","none","Y",0.01
"siIntention","food","N",1.8
"siIntention","food","Y",0.01
"siIntention","shops","N",2.3
"siIntention","shops","Y",0.01
"siIntention","famly","N",2.4
"siIntention","famly","Y",0.01
"siIntention","frnds","N",2.7
"siIntention","frnds","Y",0.01
"siIntention","sport","N",1.3
"siIntention","sport","Y",0.01
"siIntention","other","N",0.01
"siIntention","other","Y",0.01
"proximity",NA,"1",3.1
"proximity",NA,"2",2.5
"proximity",NA,"3",1.9
"proximity",NA,"4",1
"proximity",NA,"5",0.2
"proximity",NA,"6",0.01
"hwFrequency","cntct","N",2.7
"hwFrequency","cntct","Y",0.01
"hwFrequency","surfc","N",2.7
"hwFrequency","surfc","Y",0.01
"hwFrequency","face","N",2.4
"hwFrequency","face","Y",0.01
"hwFrequency","snzCf","N",2.5
"hwFrequency","snzCf","Y",0.01
"hwFrequency","bldng","N",2.3
"hwFrequency","bldng","Y",0.01
"hwFrequency","food","N",2.2
"hwFrequency","food","Y",0.01
"hwFrequency","never","N",0.01
"hwFrequency","never","Y",3.7
"hwIntensity","time","N",1.8
"hwIntensity","time","Y",0.01
"hwIntensity","soap","N",2.6
"hwIntensity","soap","Y",0.01
"hwIntensity","thrgh","N",1.9
"hwIntensity","thrgh","Y",0.01
"hwIntensity","none","N",0.01
"hwIntensity","none","Y",0.01
