[{"name":"Dr. Silvia C.M. Tomaino","country":"it","picture":"00368.jpg","expertise":"Dr. in Neuroscience and Neuropsicological Rehabilitation, Trainee at the Department of General Psychology, University of Padua (Italy)","contribution":"Coordination of or work on (social) media strategy, and Dissemination of findings to government and health agencies (or preparing to)"},
{"name":"Prof. Sabrina Cipolletta","country":"it","picture":"00367.jpg","url":"https://en.didattica.unipd.it/off/docente/A57C79F17D44FE7D347C418874498A82","expertise":"Professor of Social Psychology","contribution":"Participation in our pilots/tests or otherwise provided feedback on our texts, Coordination of or work on (social) media strategy, and Dissemination of findings to government and health agencies (or preparing to)"},
{"name":"Elena Parozzi","country":"it","picture":"00365.png","expertise":"Volunteer","contribution":"Translation of texts and/or questions, Parsing of activities and updating some or all volunteers, and General coordination, management & communication"},
{"name":"Albert W Ta","country":"us","picture":"00361.jpg","expertise":"Virology","contribution":"Participation in the expert consultation to develop the risk model"},
{"name":"Nouf Almeshal","country":"sa","picture":"00358.png","linkedin":"nouf-almeshal-b6a918154","expertise":"PhD. Candidate in Behavioural Medicine, Pharmacist","contribution":"Participation in the expert consultation to develop the risk model, Participation in our pilots/tests or otherwise provided feedback on our texts, and Translation of texts and/or questions"},
{"name":"Dr. Szilvia Adam","country":"hu","picture":"00356.jpg","expertise":"PhD. Candidate Clinical Medicine","contribution":"Participation in our pilots/tests or otherwise provided feedback on our texts, Translation of texts and/or questions, Coordination of or work on our intervention (recommendations / safety estimate), Coordination of or work on (social) media strategy, and General coordination, management & communication"},
{"name":"Annemieke van Ruiten","country":"it","picture":"00355.jpg","expertise":"Cognitive Psychology, User Experience","contribution":"Participation in our pilots/tests or otherwise provided feedback on our texts, and Translation of texts and/or questions"},
{"name":"Prof. Dr. Zuhal Baltas","country":"tr","picture":"00351.jpg","twitter":"ZuhalBaltas","facebook":"zuhal.baltas","url":"https://www.instagram.com/nudgenetwork/","expertise":"Behavior Change and Health Psychology","contribution":"Translation of texts and/or questions, Coordination of or work on (social) media strategy, and Dissemination of findings to government and health agencies (or preparing to)"},
{"name":"Szilvia Zörgo","country":"hu","picture":"00334.png","expertise":"medical anthropology","contribution":"Translation of texts and/or questions"},
{"name":"Tünde ZAKOR ","country":"hu","picture":"00329.png","facebook":"tunde.zakor","url":"https://lifecontrol.hu/","expertise":"Communication & Stress Risk Management","contribution":"Participation in our pilots/tests or otherwise provided feedback on our texts, Coordination of or work on (social) media strategy, Dissemination of findings to government and health agencies (or preparing to), and General coordination, management & communication"},
{"name":"Yongchan Lie, MPH","country":"cn","picture":"00327.png","linkedin":"Yongchan Lie","facebook":"Yongchan Lie","expertise":"Global Health","contribution":"Translation of texts and/or questions, and Coordination of or work on (social) media strategy"},
{"name":"Dr. Eman Derbi","country":"ly","picture":"00312.jpg","linkedin":"Eman Derbi","twitter":"EmanDerbi","facebook":"Eman Derbi","expertise":"PhD. Public Health","contribution":"Translation of texts and/or questions, and Dissemination of findings to government and health agencies (or preparing to)"},
{"name":"Dr. Lea-Ann Kirkham","country":"au","picture":"00308.jpg","twitter":"DrKirkham","url":"https://www.telethonkids.org.au/contact-us/our-people/k/lea-ann-kirkham/","expertise":"Infectious disease microbiology","contribution":"Participation in the expert consultation to develop the risk model, and Participation in our pilots/tests or otherwise provided feedback on our texts"},
{"name":"Dr Hannah Moore","country":"au","picture":"00305.jpg","twitter":"HannahMooreWA","expertise":"Infectious disease epidemiology","contribution":"Participation in the expert consultation to develop the risk model, and Participation in our pilots/tests or otherwise provided feedback on our texts"},
{"name":"Gustavo D. Fracaroli, MD","country":"br","picture":"00296.jpg","linkedin":"gustavo-dal-cin-fracaroli-8a118867","facebook":"gustavodfracaroli","expertise":"MD; Specialist in Occupational Medicine; Specialist in Traffic Medicine","contribution":"Participation in the expert consultation to develop the risk model, and Coordination of our pilots/tests or otherwise secured external feedback"},
{"name":"Dr. Dolma Farias","country":"br","picture":"00292.png","expertise":"Occupational Medicine","contribution":"Participation in the expert consultation to develop the risk model"},
{"name":"Bruno Carneiro, PhD","country":"br","picture":"00284.jpg","url":"www.ufr.edu.br","expertise":"Virology","contribution":"Participation in the expert consultation to develop the risk model"},
{"name":"Dr. Diana Taut","country":"ro","picture":"00277.png","expertise":"Health Psychology, Health Promotion, Clinical Psychology","contribution":"Participation in our pilots/tests or otherwise provided feedback on our texts, Translation of texts and/or questions, Coordination of or work on the vignette study to verify the risk model, DCT development/amendments, construct content elicitation, DMQ formulation, and Coordination of or work on (social) media strategy"},
{"name":"Mahdi Algargoosh","country":"sa","picture":"00276.jpg","linkedin":"mahdi-algargoosh-13106b1a8","expertise":"Clinical Pharmacy, Education and Training","contribution":"Translation of texts and/or questions, and General coordination, management & communication"},
{"name":"Alaa Alanazi","country":"sa","picture":"00272.png","twitter":"Alaa1alanazi","expertise":"Behaviour change and self-management interventions and evaluations; PhD Candidate in Nursing","contribution":"Participation in the expert consultation to develop the risk model, Coordination of our pilots/tests or otherwise secured external feedback, Translation of texts and/or questions, Coordination of or work on (social) media strategy, Dissemination of findings to government and health agencies (or preparing to), Coordination of authoritative country lists (including distance guidelines & populations), Coordination of external resource compilation, Parsing of activities and updating some or all volunteers, and General coordination, management & communication"},
{"name":"Danae Zweet, MSc","country":"nl","picture":"00264.jpg","expertise":"Behavior Change and Health Psychology","contribution":"Participation in our pilots/tests or otherwise provided feedback on our texts, Translation of texts and/or questions, Coordination of or work on our intervention (recommendations / safety estimate), DCT development/amendments, construct content elicitation, DMQ formulation, Parsing of activities and updating some or all volunteers, and General coordination, management & communication"},
{"name":"Dr. Eskinder Eshetu Ali","country":"et","picture":"00265.jpg","twitter":"AEskinder","facebook":"eskindereshetu","expertise":"Assistant Professor of Social and Administrative Pharmacy","contribution":"Translation of texts and/or questions"},
{"name":"Medhashree","country":"in","picture":"00250.jpg","linkedin":"medhashree-psychologist","expertise":"Health Psychologist","contribution":"Participation in the expert consultation to develop the risk model, Coordination of or work on the analyses and development of our risk model and REQs, Participation in our pilots/tests or otherwise provided feedback on our texts, Translation of texts and/or questions, DCT development/amendments, construct content elicitation, DMQ formulation, Coordination of or work on (social) media strategy, and Dissemination of findings to government and health agencies (or preparing to)"},
{"name":"Amanda Bernardes","country":"br","picture":"00248.jpg","facebook":"?ref=bookmarks","url":"amandabernardes.com.br","expertise":"Lawyer specialized in medical defense","contribution":"Disclaimer, code of conduct, licensing and other legal matters"},
{"name":"Stefan Verweij","country":"nl","picture":"00245.jpg","twitter":"stefanverwey","facebook":"stefanverweij","url":"https://www.evently.nl/","expertise":"Limesurvey development and automation","contribution":"LimeSurvey development & hosting"},
{"name":"Mariliis Tael-Öeren","country":"ee","picture":"00235.jpg","expertise":"Behavioural research and public health","contribution":"Translation of texts and/or questions, File management, infrastructure development & maintenance, and Parsing of activities and updating some or all volunteers"},
{"name":"Dr Lucius Shum ","country":"nz","picture":"00229.jpg","expertise":"Family Medicine","contribution":"Participation in the expert consultation to develop the risk model"},
{"name":"LimeSurvey GmbH","country":"de","picture":"00220.png","linkedin":"limesurvey","twitter":"LimeSurvey","url":"https://www.limesurvey.org","expertise":"LimeSurvey Professional Survey Hosting","contribution":"LimeSurvey development & hosting"},
{"name":"Carsten Schmitz","country":"de","picture":"00219.jpg","expertise":"LimeSurvey Founder","contribution":"LimeSurvey development & hosting"},
{"name":"Dr Lisa Graham-Wisener","country":"uk","picture":"00218.jpg","twitter":"lgrahamwisener","expertise":"Lecturer in Health Psychology","contribution":"Coordination of our pilots/tests or otherwise secured external feedback, Coordination of or work on the vignette study to verify the risk model, DCT development/amendments, construct content elicitation, DMQ formulation, Coordination of external resource compilation, and Parsing of activities and updating some or all volunteers"},
{"name":"Dr Katarzyna Campbell","country":"pl","picture":"00215.jpg","expertise":"Behaviour change and health psychology ","contribution":"Translation of texts and/or questions"},
{"name":"Dr. Laura M. König","country":"de","picture":"00214.png","twitter":"lauramkoenig","url":"https://scholar.google.de/citations?user=43bxy9YAAAAJ&hl=de","expertise":"Research Fellow, Behavioural Science and Health Psychology","contribution":"Participation in the expert consultation to develop the risk model, Participation in our pilots/tests or otherwise provided feedback on our texts, Translation of texts and/or questions, DCT development/amendments, construct content elicitation, DMQ formulation, and Coordination of or work on (social) media strategy"},
{"name":"Iga Palacz","country":"pl","picture":"00212.jpg","expertise":"Health Psychology","contribution":"Translation of texts and/or questions"},
{"name":"Dr Kebede Beyene","country":"et","picture":"00211.jpg","twitter":"kabera2010","facebook":"kabera2010","url":"https://unidirectory.auckland.ac.nz/people/profile/k-beyene","expertise":"Pharmacoepidemiology, Health Outcomes, and Behaviour Change","contribution":"Translation of texts and/or questions, Dissemination of findings to government and health agencies (or preparing to), Coordination of external resource compilation, and Parsing of activities and updating some or all volunteers"},
{"name":"Emelien LAUWERIER, PhD","country":"be","picture":"00209.jpg","expertise":"Behavior Change and Health Psychology","contribution":"Participation in our pilots/tests or otherwise provided feedback on our texts, Translation of texts and/or questions, DCT development/amendments, construct content elicitation, DMQ formulation, and Dissemination of findings to government and health agencies (or preparing to)"},
{"name":"Louise Poppe, PhD","country":"be","picture":"00208.png","twitter":"louise_poppe","expertise":"Behavior Change and Health Psychology","contribution":"Participation in the expert consultation to develop the risk model, Participation in our pilots/tests or otherwise provided feedback on our texts, Translation of texts and/or questions, and Coordination of or work on our intervention (recommendations / safety estimate)"},
{"name":"Tammo ter Hark","country":"nl","picture":"00206.jpg","expertise":"LimeSurvey Design & development","contribution":"LimeSurvey development & hosting"},
{"name":"Dan Powell","country":"gb","picture":"00204.png","expertise":"Health Psychology","contribution":"Coordination of or work on the analyses and development of our risk model and REQs, Coordination of or work on the vignette study to verify the risk model, and Coordination of or work on our intervention (recommendations / safety estimate)"},
{"name":"Dr. Stan Vluggen","country":"nl","picture":"00203.png","expertise":"PhD in Health Psychology and eHealth","contribution":"Participation in our pilots/tests or otherwise provided feedback on our texts, Coordination of our pilots/tests or otherwise secured external feedback, Translation of texts and/or questions, DCT development/amendments, construct content elicitation, DMQ formulation, and Coordination of or work on (social) media strategy"},
{"name":"Bruna Rinaldi, MD, MSc ","country":"br","picture":"00198.jpg","linkedin":"brunasalatinanirinaldimd","expertise":"Occupational and Environmental Medicine ","contribution":"Participation in the expert consultation to develop the risk model, Coordination of or work on the analyses and development of our risk model and REQs, Coordination of our pilots/tests or otherwise secured external feedback, Translation of texts and/or questions, Coordination of or work on our intervention (recommendations / safety estimate), Coordination of or work on (social) media strategy, Dissemination of findings to government and health agencies (or preparing to), Coordination of authoritative country lists (including distance guidelines & populations), and Coordination of external resource compilation"},
{"name":"Dr. Golnoush Madani","country":"ir","picture":"00196.jpg","expertise":"Molecular microbiology","contribution":"Participation in our pilots/tests or otherwise provided feedback on our texts, and Translation of texts and/or questions"},
{"name":"Parham Hosseini","country":"ir","picture":"00197.jpg","expertise":"PhD. Candidate in Cell biology & Microbiology","contribution":"Translation of texts and/or questions"},
{"name":"Dr. Ksenia Eritsyan","country":"ru","picture":"00193.jpg","twitter":"Ksenia_Eritsyan","url":"https://scholar.google.com/citations?user=s26rE2cAAAAJ&hl=en","expertise":"Health psychology","contribution":"Participation in the expert consultation to develop the risk model, Participation in our pilots/tests or otherwise provided feedback on our texts, Coordination of our pilots/tests or otherwise secured external feedback, and Translation of texts and/or questions"},
{"name":"Dr Rochelle Watkins","country":"au","picture":"00191.jpg","expertise":"Behavioural and Infectious Disease Epidemiology","contribution":"Participation in the expert consultation to develop the risk model, Participation in our pilots/tests or otherwise provided feedback on our texts, Coordination of or work on the vignette study to verify the risk model, and DCT development/amendments, construct content elicitation, DMQ formulation"},
{"name":"João Figueiredo","country":"pt","picture":"00188.jpg","linkedin":"joaormf","twitter":"joaormf","expertise":"Software Engineer","contribution":"Website development"},
{"name":"Gjalt-Jorn Peters","country":"nl","picture":"00186.jpg","linkedin":"gjaltjorn","twitter":"matherion","url":"https://behaviorchange.eu","expertise":"Behavior change theory, methodology, and operations","contribution":"Coordination of or work on the analyses and development of our risk model and REQs, Coordination of or work on our intervention (recommendations / safety estimate), DCT development/amendments, construct content elicitation, DMQ formulation, File management, infrastructure development & maintenance, Coordination of external resource compilation, Coding in R, LimeSurvey development & hosting, Parsing of activities and updating some or all volunteers, and General coordination, management & communication"},
{"name":"Samantha van Beurden","country":"gb","picture":"00185.png","twitter":"sbvanbeurden","expertise":"Behaviour Change and Health Psychology with an interest in User Experience Design","contribution":"Participation in the expert consultation to develop the risk model, Coordination of or work on the analyses and development of our risk model and REQs, Participation in our pilots/tests or otherwise provided feedback on our texts, Coordination of our pilots/tests or otherwise secured external feedback, Translation of texts and/or questions, Coordination of or work on our intervention (recommendations / safety estimate), and Design (home page, logo, images, videos)"},
{"name":"Hyojin Eom","country":"ko","picture":"00184.jpg","expertise":"Psychology","contribution":"Translation of texts and/or questions"},
{"name":"Tatiana Kazantseva, PhD.","country":"ru","picture":"00178.jpg","facebook":"tatyana.saushkina.7","expertise":"Interpersonal Relationships, Moral Psychology","contribution":"Translation of texts and/or questions"},
{"name":"Pierre Gérain, PhD","country":"be","picture":"00173.jpg","expertise":"Health Psychology","contribution":"Participation in the expert consultation to develop the risk model, Coordination of or work on the analyses and development of our risk model and REQs, Participation in our pilots/tests or otherwise provided feedback on our texts, Translation of texts and/or questions, DCT development/amendments, construct content elicitation, DMQ formulation, Dissemination of findings to government and health agencies (or preparing to), and Coordination of external resource compilation"},
{"name":"Riina Raudne","country":"ee","picture":"00172.png","expertise":"Behavior Change Communications and Public Health","contribution":"Participation in our pilots/tests or otherwise provided feedback on our texts, and Translation of texts and/or questions"},
{"name":"Jorge Encantado","country":"pt","picture":"00169.jpg","twitter":"jorgeencantado","expertise":"PhD Candidate Health Psychology","contribution":"Translation of texts and/or questions"},
{"name":"Dr. Cristina Godinho","country":"pt","picture":"00168.jpg","expertise":"Behavior Change and Health Psychology","contribution":"Translation of texts and/or questions, and Dissemination of findings to government and health agencies (or preparing to)"},
{"name":"Dr Dominika Kwasnicka","country":"pl","picture":"00163.jpg","linkedin":"dr-dominika-kwasnicka-2452577","twitter":"dkwasnicka","url":"https://www.researchgate.net/profile/Dominika_Kwasnicka","expertise":"Behaviour Change and Health Psychology, Digital Health, Within-Person Methods","contribution":"Participation in our pilots/tests or otherwise provided feedback on our texts, Coordination of our pilots/tests or otherwise secured external feedback, Translation of texts and/or questions, and Dissemination of findings to government and health agencies (or preparing to)"},
{"name":"Dr Samuel SH Chan","country":"nz","picture":"00152.jpg","expertise":"Consultant Pathologist in Clinical Microbiology and Infections","contribution":"Participation in the expert consultation to develop the risk model, Participation in our pilots/tests or otherwise provided feedback on our texts, and Translation of texts and/or questions"},
{"name":"Dr Rebecca Pedruzzi ","country":"au","picture":"00150.jpg","twitter":"RebeccaPedruzzi ","expertise":"Behaviour, Prevention and Communication ","contribution":"Participation in our pilots/tests or otherwise provided feedback on our texts, Coordination of our pilots/tests or otherwise secured external feedback, Coordination of or work on our intervention (recommendations / safety estimate), DCT development/amendments, construct content elicitation, DMQ formulation, Coordination of or work on (social) media strategy, Dissemination of findings to government and health agencies (or preparing to), Coordination of external resource compilation, Parsing of activities and updating some or all volunteers, and General coordination, management & communication"},
{"name":"Els Keyaerts PhD","country":"be","picture":"00147.jpg","expertise":"Virology","contribution":"Participation in the expert consultation to develop the risk model"},
{"name":"Elif Basak Guven","country":"tr","picture":"00140.png","linkedin":"elif-guven1","url":"https://www.researchgate.net/profile/Elif_Gueven2?ev=hdr_xprf&_sg=vEstggNSfwPMCX10HwTxnts6a8iBii_ik_EM-s4TxC8KFyyt16IdJECWp4lfY0iBqMIpOINQFlmeBG_4e5szVCAT","expertise":"Psychology","contribution":"Translation of texts and/or questions, Disclaimer, code of conduct, licensing and other legal matters, DCT development/amendments, construct content elicitation, DMQ formulation, Coordination of or work on (social) media strategy, and Dissemination of findings to government and health agencies (or preparing to)"},
{"name":"Yasemin Selekoglu Ok PhD (c)","country":"tr","picture":"00144.png","linkedin":"yasemin-seleko%C4%9Flu-ok-87377b14b?lipi=urn%3Ali%3Apage%3Ad_flagship3_profile_view_base_contact_details%3B4wz%2FWX4URZmF%2BpDYU52iqw%3D%3D","expertise":"Health Promotion/ PhD.Candidate in Child Health Nursing","contribution":"Participation in our pilots/tests or otherwise provided feedback on our texts, Translation of texts and/or questions, Coordination of or work on our intervention (recommendations / safety estimate), Disclaimer, code of conduct, licensing and other legal matters, DCT development/amendments, construct content elicitation, DMQ formulation, Coordination of or work on (social) media strategy, and Dissemination of findings to government and health agencies (or preparing to)"},
{"name":"Tauqeer Mustafa","country":"pk","picture":"00143.jpg","expertise":"Health promotion and Pharmacy","contribution":"Participation in our pilots/tests or otherwise provided feedback on our texts, Translation of texts and/or questions, and DCT development/amendments, construct content elicitation, DMQ formulation"},
{"name":"Elif Suna Özbay, MSc","country":"tr","picture":"00142.png","expertise":"Clinical and Health Psychology","contribution":"Translation of texts and/or questions, Coordination of or work on our intervention (recommendations / safety estimate), Disclaimer, code of conduct, licensing and other legal matters, DCT development/amendments, construct content elicitation, DMQ formulation, Coordination of or work on (social) media strategy, and Dissemination of findings to government and health agencies (or preparing to)"},
{"name":"Adriana Solovei","country":"ro","picture":"00128.jpg","expertise":"PhD candidate, Maastricht University  ","contribution":"Translation of texts and/or questions, and Coordination of or work on our intervention (recommendations / safety estimate)"},
{"name":"Prof. Lisa Marie Warner","country":"de","picture":"00123.jpg","expertise":"Applied Social and Health Psychology","contribution":"Participation in the expert consultation to develop the risk model, Participation in our pilots/tests or otherwise provided feedback on our texts, Translation of texts and/or questions, DCT development/amendments, construct content elicitation, DMQ formulation, Coordination of or work on (social) media strategy, and Dissemination of findings to government and health agencies (or preparing to)"},
{"name":"Tugçe Varol","country":"tr","picture":"00115.jpg","linkedin":"tu%C4%9F%C3%A7e-varol-6a5899177?lipi=urn%3Ali%3Apage%3Ad_flagship3_profile_view_base_contact_details%3BDoB4tTlmQUOrcbGvY9Eq%2BQ%3D%3D","expertise":"Health and Social Psychology","contribution":"Translation of texts and/or questions, DCT development/amendments, construct content elicitation, DMQ formulation, Coordination of or work on (social) media strategy, Dissemination of findings to government and health agencies (or preparing to), Coordination of external resource compilation, and Parsing of activities and updating some or all volunteers"},
{"name":"Gebremedhin B. Gebretekle","country":"et","picture":"00116.jpg","twitter":"Gebremedhinb","facebook":"gebremedhinb","url":"https://theta.utoronto.ca/gebremedhin-b-gebretekle-phd-msc-bpharm","expertise":"Health Economics and Outcome Research","contribution":"Translation of texts and/or questions"},
{"name":"Laura Castillo-Eito","country":"es","picture":"00114.jpg","twitter":"laucaseit","url":"https://www.researchgate.net/profile/Laura_Castillo_Eito","expertise":"Behavior Change and Applied Psychology","contribution":"Participation in our pilots/tests or otherwise provided feedback on our texts, Translation of texts and/or questions, Dissemination of findings to government and health agencies (or preparing to), Coordination of external resource compilation, and Parsing of activities and updating some or all volunteers"},
{"name":"Ann DeSmet, PhD","country":"be","picture":"00110.png","twitter":"ann_desmet","url":"https://scholar.google.be/citations?user=eaQhRhUAAAAJ&hl=nl&oi=ao","expertise":"Behavior Change and Health Psychology","contribution":"Participation in the expert consultation to develop the risk model, Coordination of or work on the analyses and development of our risk model and REQs, Translation of texts and/or questions, Coordination of or work on our intervention (recommendations / safety estimate), Coordination of or work on (social) media strategy, Dissemination of findings to government and health agencies (or preparing to), Coordination of authoritative country lists (including distance guidelines & populations), Coordination of external resource compilation, and General coordination, management & communication"},
{"name":"Sander Hermsen, PhD","country":"nl","picture":"00108.png","twitter":"sanderhermsen","url":"https://www.sander-hermsen.nl/","expertise":"Behaviour Change & Design","contribution":"Coordination of or work on the analyses and development of our risk model and REQs, Coordination of our pilots/tests or otherwise secured external feedback, Translation of texts and/or questions, Coordination of or work on the vignette study to verify the risk model, and Disclaimer, code of conduct, licensing and other legal matters"},
{"name":"Tracy Epton","country":"gb","picture":"00106.jpg","twitter":"tracyepton","url":"https://www.research.manchester.ac.uk/portal/tracy.epton.html","expertise":"Behaviour Change & Health Psychology","contribution":"Coordination of or work on the analyses and development of our risk model and REQs, Coordination of or work on the vignette study to verify the risk model, and Coordination of authoritative country lists (including distance guidelines & populations)"},
{"name":"Lucy Porter","country":"gb","picture":"00104.jpg","twitter":"LucyMPorter","expertise":"PhD candidate in Psychology","contribution":"Coordination of or work on the analyses and development of our risk model and REQs, Translation of texts and/or questions, Coordination of or work on the vignette study to verify the risk model, and Dissemination of findings to government and health agencies (or preparing to)"},
{"name":"Dr. Mudassir Anwar","country":"pk","picture":"00100.jpg","url":"https://scholar.google.com/citations?user=fU4jWZcAAAAJ&hl=en&oi=ao","expertise":"Social Pharmacy","contribution":"Participation in our pilots/tests or otherwise provided feedback on our texts, Translation of texts and/or questions, Coordination of or work on (social) media strategy, and Dissemination of findings to government and health agencies (or preparing to)"},
{"name":"Dr. Amy Chan","country":"nz","picture":"00096.jpg","linkedin":"amy-hai-yan-chan","twitter":"amyhychan","expertise":"Behaviour Change, Risk Communication and Health Interventions","contribution":"Participation in the expert consultation to develop the risk model, Coordination of or work on the analyses and development of our risk model and REQs, Participation in our pilots/tests or otherwise provided feedback on our texts, Coordination of our pilots/tests or otherwise secured external feedback, Translation of texts and/or questions, Coordination of or work on the vignette study to verify the risk model, Coordination of or work on our intervention (recommendations / safety estimate), Coordination of or work on (social) media strategy, Dissemination of findings to government and health agencies (or preparing to), Coordination of external resource compilation, Design (home page, logo, images, videos), Parsing of activities and updating some or all volunteers, and General coordination, management & communication"},
{"name":"Triana Kesuma Dewi","country":"id","picture":"00095.png","url":"https://scholar.google.co.id/citations?user=CqmewPUAAAAJ&hl=en","expertise":"PhD Candidate in Applied Psychology","contribution":"Participation in our pilots/tests or otherwise provided feedback on our texts, Translation of texts and/or questions, Coordination of or work on (social) media strategy, Dissemination of findings to government and health agencies (or preparing to), and Coordination of external resource compilation"},
{"name":"Dr. Marta Marques","country":"pt","picture":"00092.jpg","twitter":"marta_m_marques","url":"https://www.researchgate.net/profile/Marta_Marques2","expertise":"Marie Curie Fellow, Behaviour Change and Health Psychology","contribution":"Participation in our pilots/tests or otherwise provided feedback on our texts, Translation of texts and/or questions, Dissemination of findings to government and health agencies (or preparing to), and Coordination of external resource compilation"},
{"name":"Carolina Silva","country":"pt","picture":"00090.jpg","twitter":"ccntsilva","expertise":"PhD Candidate, Health Psychology ","contribution":"Translation of texts and/or questions, and Coordination of external resource compilation"},
{"name":"Dr. Sylvia Roozen","country":"nl","picture":"00089.jpg","expertise":"Preventive Healthcare ","contribution":"Participation in the expert consultation to develop the risk model, Coordination of or work on the analyses and development of our risk model and REQs, Participation in our pilots/tests or otherwise provided feedback on our texts, Coordination of our pilots/tests or otherwise secured external feedback, Coordination of or work on the vignette study to verify the risk model, Coordination of or work on our intervention (recommendations / safety estimate), Disclaimer, code of conduct, licensing and other legal matters, Coordination of or work on (social) media strategy, Dissemination of findings to government and health agencies (or preparing to), File management, infrastructure development & maintenance, Coordination of authoritative country lists (including distance guidelines & populations), Coordination of external resource compilation, Design (home page, logo, images, videos), Parsing of activities and updating some or all volunteers, and General coordination, management & communication"},
{"name":"Alexandra L. Dima, PhD","country":"ro","picture":"00084.png","expertise":"Health Psychology","contribution":"Coordination of or work on the analyses and development of our risk model and REQs, Coordination of our pilots/tests or otherwise secured external feedback, Translation of texts and/or questions, Coordination of or work on our intervention (recommendations / safety estimate), and DCT development/amendments, construct content elicitation, DMQ formulation"},
{"name":"Thomas Gültzow","country":"de","picture":"00080.jpg","twitter":"ThomasGultzow","expertise":"PhD Student at Maastricht University","contribution":"Participation in the expert consultation to develop the risk model, Translation of texts and/or questions, Coordination of or work on our intervention (recommendations / safety estimate), and Coordination of or work on (social) media strategy"},
{"name":"Sali Rahadi Asih, PhD","country":"id","picture":"00079.jpg","expertise":"Behavior Change and Health Psychology","contribution":"Participation in our pilots/tests or otherwise provided feedback on our texts, Coordination of our pilots/tests or otherwise secured external feedback, Translation of texts and/or questions, and Dissemination of findings to government and health agencies (or preparing to)"},
{"name":"Ratri Nurwanti","country":"id","picture":"00076.png","expertise":"Clinical Psychologist","contribution":"Translation of texts and/or questions, Coordination of or work on (social) media strategy, Dissemination of findings to government and health agencies (or preparing to), and Coordination of external resource compilation"},
{"name":"Y. Astin Sokang","country":"id","picture":"00075.jpg","url":"https://www.maastrichtuniversity.nl/astin.sokang","expertise":"Health Psychology; Health Promotion; Community-based Intervention","contribution":"Participation in the expert consultation to develop the risk model, Coordination of or work on the analyses and development of our risk model and REQs, Participation in our pilots/tests or otherwise provided feedback on our texts, Translation of texts and/or questions, Coordination of or work on (social) media strategy, Dissemination of findings to government and health agencies (or preparing to), Coordination of external resource compilation, and Parsing of activities and updating some or all volunteers"},
{"name":"Roel Hermans, PhD.","country":"nl","picture":"00074.jpg","twitter":"RoelCJHermans","url":"https://scholar.google.nl/citations?user=jeGPHB4AAAAJ&hl=nl&oi=ao","expertise":"Behavior Change and Health Psychology","contribution":"Participation in our pilots/tests or otherwise provided feedback on our texts, Translation of texts and/or questions, Coordination of or work on the vignette study to verify the risk model, DCT development/amendments, construct content elicitation, DMQ formulation, Coordination of or work on (social) media strategy, and Design (home page, logo, images, videos)"},
{"name":"Aya Sato","country":"jp","picture":"00070.png","expertise":"Translator","contribution":"Translation of texts and/or questions"},
{"name":"Andrian Liem","country":"id","picture":"00069.jpg","twitter":"liemandrian","url":"https://umac.academia.edu/AndrianLiem","expertise":"Clinical and health psychology; global mental health; integrative medicine","contribution":"Participation in the expert consultation to develop the risk model, Participation in our pilots/tests or otherwise provided feedback on our texts, and Translation of texts and/or questions"},
{"name":"Dr Mei Yee Tang","country":"gb","picture":"00065.jpg","expertise":"Behaviour Change and Health Psychology","contribution":"Translation of texts and/or questions"},
{"name":"Ana-Maria SCHWEITZER","country":"ro","picture":"00055.jpg","linkedin":"ana-maria-schweitzer-romania","expertise":"Behavior Change and Health Psychology, Philanthropy ","contribution":"Participation in our pilots/tests or otherwise provided feedback on our texts, Translation of texts and/or questions, Coordination of or work on our intervention (recommendations / safety estimate), DCT development/amendments, construct content elicitation, DMQ formulation, Coordination of or work on (social) media strategy, Dissemination of findings to government and health agencies (or preparing to), and Coordination of external resource compilation"},
{"name":"Dr. Chris Noone","country":"ie","picture":"00050.jpg","twitter":"Chris_Noone_","expertise":"Health Psychology ","contribution":"Participation in the expert consultation to develop the risk model, Participation in our pilots/tests or otherwise provided feedback on our texts, Disclaimer, code of conduct, licensing and other legal matters, and DCT development/amendments, construct content elicitation, DMQ formulation"},
{"name":"James Green","country":"ie","picture":"00048.jpg","twitter":"ajamesgreen","url":"https://www.ul.ie/schoolalliedhealth/content/dr-james-green","expertise":"Health Psychology","contribution":"Participation in the expert consultation to develop the risk model, Coordination of or work on the analyses and development of our risk model and REQs, Coordination of or work on (social) media strategy, File management, infrastructure development & maintenance, Coordination of authoritative country lists (including distance guidelines & populations), and Coding in R"},
{"name":"Johanna Nurmi","country":"fi","picture":"00047.jpg","twitter":"JohannaNurmi1","expertise":"Social and health psychology, digital behaviour change interventions","contribution":"Participation in the expert consultation to develop the risk model, Participation in our pilots/tests or otherwise provided feedback on our texts, Translation of texts and/or questions, Coordination of external resource compilation, and Parsing of activities and updating some or all volunteers"},
{"name":"Dr. Gill ten Hoor","country":"nl","picture":"00046.jpg","url":"https://scholar.google.nl/citations?user=u6cO68EAAAAJ&hl=nl&inst=13291755310766122872&oi=ao","expertise":"Behavior Change; Planning interventions; Physical Activity; Obesity; Body Composition; Health & Social Psychology","contribution":"General coordination, management & communication"},
{"name":"Dr Angelos Kassianos","country":"cy","picture":"00041.jpg","twitter":"angkassianos","facebook":"angelos.kassianos","url":"https://www.researchgate.net/profile/Angelos_Kassianos","expertise":"Behavior Change and Health Psychology","contribution":"Translation of texts and/or questions, DCT development/amendments, construct content elicitation, DMQ formulation, and Dissemination of findings to government and health agencies (or preparing to)"},
{"name":"Rik Crutzen","country":"nl","picture":"00035.jpg","url":"http://www.crutzen.net","expertise":"Professor of Behaviour Change & Technology","contribution":"DCT development/amendments, construct content elicitation, DMQ formulation"},
{"name":"Prof. Dr. Jennifer Inauen","country":"ch","picture":"00024.jpg","linkedin":"jennifer-inauen-ch","twitter":"JenniferInauen","url":"https://www.gpv.psy.unibe.ch/about_us/personen/jinauen","expertise":"Health Psychology, Behavior Change","contribution":"Translation of texts and/or questions, Coordination of or work on our intervention (recommendations / safety estimate), DCT development/amendments, construct content elicitation, DMQ formulation, Coordination of or work on (social) media strategy, Dissemination of findings to government and health agencies (or preparing to), and General coordination, management & communication"},
{"name":"Dr. Jenny Groarke","country":"gb","picture":"00027.jpg","twitter":"JennyMGroarke","url":"https://pure.qub.ac.uk/en/persons/jenny-groarke","expertise":"Lecturer in Health Psychology","contribution":"Participation in the expert consultation to develop the risk model, Coordination of or work on the analyses and development of our risk model and REQs, Coordination of our pilots/tests or otherwise secured external feedback, Coordination of or work on our intervention (recommendations / safety estimate), Coordination of or work on (social) media strategy, and Dissemination of findings to government and health agencies (or preparing to)"},
{"name":"Alexis Ruffault, PhD.","country":"fr","picture":"00013.png","linkedin":"alexisruffault","twitter":"alruff9","url":"https://alexisruffault.org/","expertise":"Behavior Change and Health Psychology","contribution":"Translation of texts and/or questions"}]
