<?xml version="1.0" encoding="UTF-8" standalone="no"?>
<svg
   xmlns:dc="http://purl.org/dc/elements/1.1/"
   xmlns:cc="http://creativecommons.org/ns#"
   xmlns:rdf="http://www.w3.org/1999/02/22-rdf-syntax-ns#"
   xmlns:svg="http://www.w3.org/2000/svg"
   xmlns="http://www.w3.org/2000/svg"
   xmlns:sodipodi="http://sodipodi.sourceforge.net/DTD/sodipodi-0.dtd"
   xmlns:inkscape="http://www.inkscape.org/namespaces/inkscape"
   id="Layer_1"
   data-name="Layer 1"
   viewBox="0 0 685.47998 397.11993"
   version="1.1"
   sodipodi:docname="yourrisk_logo_pos_header.svg"
   width="685.47998"
   height="397.11993"
   inkscape:version="0.92.4 (5da689c313, 2019-01-14)">
  <metadata
     id="metadata64">
    <rdf:RDF>
      <cc:Work
         rdf:about="">
        <dc:format>image/svg+xml</dc:format>
        <dc:type
           rdf:resource="http://purl.org/dc/dcmitype/StillImage" />
      </cc:Work>
    </rdf:RDF>
  </metadata>
  <sodipodi:namedview
     pagecolor="#ffffff"
     bordercolor="#666666"
     borderopacity="1"
     objecttolerance="10"
     gridtolerance="10"
     guidetolerance="10"
     inkscape:pageopacity="0"
     inkscape:pageshadow="2"
     inkscape:window-width="952"
     inkscape:window-height="480"
     id="namedview62"
     showgrid="false"
     inkscape:zoom="0.30729167"
     inkscape:cx="371.20748"
     inkscape:cy="205.51661"
     inkscape:window-x="0"
     inkscape:window-y="0"
     inkscape:window-maximized="0"
     inkscape:current-layer="Layer_1" />
  <defs
     id="defs23">
    <style
       id="style2">.cls-1{fill:none;}.cls-2{clip-path:url(#clip-path);}.cls-3{fill:url(#linear-gradient);}.cls-4{clip-path:url(#clip-path-2);}.cls-5{fill:#384e71;}</style>
    <clipPath
       id="clip-path">
      <path
         class="cls-1"
         d="m 537.44,398.43 h 52.08 V 377.94 H 537.44 Z M 352.86,337 329,411.23 305.05,337 h -25.61 l 36.71,107.57 h 25.6 L 378.46,337 Z m 40.59,107.57 H 418.2 V 337 H 393.45 Z M 458,360.87 h 11.95 a 28.28,28.28 0 0 1 11.44,2.3 29.64,29.64 0 0 1 9.23,6.23 28,28 0 0 1 6.14,9.47 31.71,31.71 0 0 1 2.24,11.87 31.39,31.39 0 0 1 -2.22,11.95 28.12,28.12 0 0 1 -6.14,9.4 29.81,29.81 0 0 1 -9.23,6.23 28.28,28.28 0 0 1 -11.44,2.3 H 458 Z M 433.24,337 v 107.53 h 36.7 a 52.79,52.79 0 0 0 21,-4.18 54.1,54.1 0 0 0 28.59,-28.6 54.84,54.84 0 0 0 0,-42 54,54 0 0 0 -28.53,-28.6 52.62,52.62 0 0 0 -21,-4.19 z m 198.16,0 -28.17,19.6 11.95,18.78 11.1,-7.68 v 76.83 H 651 V 337 Z M 87,340.29 a 51.75,51.75 0 0 0 -16.83,11.61 55.79,55.79 0 0 0 -11.36,17.42 57.23,57.23 0 0 0 0,42.94 56,56 0 0 0 11.36,17.32 51.58,51.58 0 0 0 37.39,15.8 50.52,50.52 0 0 0 18.18,-3.16 51.61,51.61 0 0 0 14.6,-8.36 48.35,48.35 0 0 0 10.59,-12.21 51.69,51.69 0 0 0 6.14,-14.65 l -25.61,-1.7 a 22.86,22.86 0 0 1 -7.77,11.35 q -5.88,4.88 -16.13,4.87 a 26.3,26.3 0 0 1 -10.93,-2.31 27.76,27.76 0 0 1 -9,-6.4 30.06,30.06 0 0 1 -6.02,-9.81 35.16,35.16 0 0 1 0,-24.59 30.17,30.17 0 0 1 6.06,-9.73 27.76,27.76 0 0 1 9,-6.4 26.3,26.3 0 0 1 10.89,-2.28 25.35,25.35 0 0 1 8.62,1.37 24.91,24.91 0 0 1 6.75,3.58 20.54,20.54 0 0 1 4.78,5.13 25.16,25.16 0 0 1 2.9,6.14 l 25.61,-1.71 a 51.49,51.49 0 0 0 -6.15,-14.68 48.81,48.81 0 0 0 -10.5,-12.21 51.12,51.12 0 0 0 -14.34,-8.36 48.21,48.21 0 0 0 -17.67,-3.16 51.14,51.14 0 0 0 -20.56,4.19 m 128.3,78.88 a 27.65,27.65 0 0 1 -9,-6.4 30.09,30.09 0 0 1 -6.07,-9.73 35.16,35.16 0 0 1 0,-24.59 30.2,30.2 0 0 1 6.07,-9.73 27.65,27.65 0 0 1 9,-6.4 27,27 0 0 1 21.85,0 27.69,27.69 0 0 1 9,6.4 30.34,30.34 0 0 1 6.06,9.73 35.16,35.16 0 0 1 0,24.59 30.24,30.24 0 0 1 -6.06,9.73 27.69,27.69 0 0 1 -9,6.4 27,27 0 0 1 -21.85,0 m -9.65,-78.88 a 51.79,51.79 0 0 0 -16.82,11.61 55.77,55.77 0 0 0 -11.35,17.42 57.23,57.23 0 0 0 0,42.94 56,56 0 0 0 11.35,17.32 51.67,51.67 0 0 0 16.82,11.62 52.73,52.73 0 0 0 41.15,0 51.67,51.67 0 0 0 16.82,-11.62 56,56 0 0 0 11.38,-17.32 57.1,57.1 0 0 0 0,-42.94 55.77,55.77 0 0 0 -11.35,-17.42 51.79,51.79 0 0 0 -16.82,-11.61 52.73,52.73 0 0 0 -41.15,0 M 694,385.36 a 17.62,17.62 0 0 1 0,-23.36 15.46,15.46 0 0 1 21.85,0 17.62,17.62 0 0 1 0,23.39 15.44,15.44 0 0 1 -21.85,0 M 688.48,339 a 38.76,38.76 0 0 0 -12.63,8 35.33,35.33 0 0 0 -8.2,11.87 37.64,37.64 0 0 0 -2.9,14.85 36.15,36.15 0 0 0 3.25,15.28 36.87,36.87 0 0 0 8.7,12 37.35,37.35 0 0 0 12.55,7.51 34,34 0 0 0 14.75,1.87 l -23,34.15 h 25.61 l 28.17,-41.84 a 59.34,59.34 0 0 0 5.13,-8.7 68.45,68.45 0 0 0 3.5,-9.22 39.2,39.2 0 0 0 -1.28,-25.95 35.33,35.33 0 0 0 -8.23,-11.82 38.65,38.65 0 0 0 -12.72,-8 47.54,47.54 0 0 0 -32.7,0"
         id="path4"
         inkscape:connector-curvature="0"
         style="fill:none" />
    </clipPath>
    <linearGradient
       id="linear-gradient"
       y1="768"
       x2="1"
       y2="768"
       gradientTransform="matrix(-1.8508905e-6,512.38275,-512.38275,1.8508905e-6,393508.4,303.45998)"
       gradientUnits="userSpaceOnUse">
      <stop
         offset="0"
         stop-color="#b6202b"
         id="stop7" />
      <stop
         offset="0.06"
         stop-color="#c32b34"
         id="stop9" />
      <stop
         offset="0.16"
         stop-color="#d43941"
         id="stop11" />
      <stop
         offset="0.3"
         stop-color="#df434a"
         id="stop13" />
      <stop
         offset="0.48"
         stop-color="#e6484f"
         id="stop15" />
      <stop
         offset="1"
         stop-color="#e84a50"
         id="stop17" />
    </linearGradient>
    <clipPath
       id="clip-path-2">
      <rect
         class="cls-1"
         width="800"
         height="768"
         id="rect20"
         x="0"
         y="0"
         style="fill:none" />
    </clipPath>
  </defs>
  <title
     id="title25">pos_Artboard 1</title>
  <g
     class="cls-2"
     clip-path="url(#clip-path)"
     id="g29"
     transform="translate(-58.6,-192.39667)">
    <rect
       class="cls-3"
       x="-281.48462"
       y="281.48596"
       width="561.99896"
       height="561.99896"
       transform="matrix(0.7114363,-0.70275059,0.7114363,0.70275059,0,0)"
       id="rect27"
       style="fill:url(#linear-gradient);stroke-width:0.99391443" />
  </g>
  <g
     class="cls-4"
     clip-path="url(#clip-path-2)"
     id="g59"
     transform="translate(-58.6,-192.39667)">
    <path
       class="cls-5"
       d="m 441.54,469.75 a 45.6,45.6 0 0 1 16.88,3 41.54,41.54 0 0 1 13.11,8.11 36.06,36.06 0 0 1 11.47,26.61 q 0,10 -3.49,16.79 a 43.5,43.5 0 0 1 -7.73,11 47.14,47.14 0 0 1 -11.41,8 l 26.41,45.26 H 456.63 L 434.94,549 H 420.8 v 39.61 H 393.45 V 469.75 Z m 0,52.82 q 7.17,0 11.13,-3.78 a 13.21,13.21 0 0 0 0,-18.86 q -4,-3.78 -11.13,-3.77 H 420.8 v 26.41 z"
       id="path31"
       inkscape:connector-curvature="0"
       style="fill:#384e71" />
    <rect
       class="cls-5"
       x="501.82999"
       y="469.75"
       width="27.35"
       height="118.82"
       id="rect33"
       style="fill:#384e71" />
    <path
       class="cls-5"
       d="m 545.17,502.76 a 29.63,29.63 0 0 1 2.92,-12.92 32.09,32.09 0 0 1 8.4,-10.75 43,43 0 0 1 13.29,-7.45 52.14,52.14 0 0 1 17.82,-2.83 49.32,49.32 0 0 1 17.26,2.83 37.92,37.92 0 0 1 13,7.92 35.35,35.35 0 0 1 8.29,12 38,38 0 0 1 2.93,15 l -26.41,1.89 q 0,-7.17 -4,-11.13 -4,-3.96 -11.13,-4 -6.4,0 -10.27,3.49 a 10.38,10.38 0 0 0 -3.87,7.83 c 0,2.89 1.44,5.09 4.34,6.6 a 64.08,64.08 0 0 0 10.84,4.24 q 6.51,2 14.05,4.24 a 55.62,55.62 0 0 1 14,6.42 35.37,35.37 0 0 1 10.85,10.93 q 4.33,6.79 4.34,17.54 a 31.32,31.32 0 0 1 -11.51,24.52 43.33,43.33 0 0 1 -14,7.55 58.41,58.41 0 0 1 -18.86,2.83 55.47,55.47 0 0 1 -18.29,-2.83 38.19,38.19 0 0 1 -13.67,-8 34.57,34.57 0 0 1 -8.49,-12.26 40.3,40.3 0 0 1 -2.92,-15.56 l 26.4,-1.88 q 0,16 17,16 7.92,0 12,-3.68 a 11.26,11.26 0 0 0 4,-8.58 7.66,7.66 0 0 0 -4.33,-7 59.14,59.14 0 0 0 -10.85,-4.53 q -6.51,-2.07 -14.05,-4.33 a 58.46,58.46 0 0 1 -14,-6.32 35.06,35.06 0 0 1 -10.84,-10.65 q -4.35,-6.61 -4.34,-17.17"
       id="path35"
       inkscape:connector-curvature="0"
       style="fill:#384e71" />
    <polygon
       class="cls-5"
       points="674.3,588.57 646.95,588.57 646.95,469.75 674.3,469.75 674.3,520.68 710.13,469.75 741.25,469.75 699.38,528.22 744.08,588.57 712.96,588.57 674.3,535.76 "
       id="polygon37"
       style="fill:#384e71" />
    <polygon
       class="cls-5"
       points="87.73,193.38 111.78,240.36 135.65,193.38 164.78,193.38 125.31,267.6 125.31,311.76 98.06,311.76 98.06,267.6 58.6,193.38 "
       id="polygon39"
       style="fill:#384e71" />
    <path
       class="cls-5"
       d="m 272.66,252.57 a 60.24,60.24 0 0 1 -4.61,23.68 61.87,61.87 0 0 1 -12.49,19.07 57,57 0 0 1 -18.51,12.78 58,58 0 0 1 -45.29,0 56.92,56.92 0 0 1 -18.51,-12.78 61.9,61.9 0 0 1 -12.5,-19.07 63,63 0 0 1 0,-47.26 61.43,61.43 0 0 1 12.5,-19.17 56.92,56.92 0 0 1 18.51,-12.82 58,58 0 0 1 45.29,0 57,57 0 0 1 18.51,12.78 61.4,61.4 0 0 1 12.49,19.22 60.38,60.38 0 0 1 4.61,23.58 m -27.25,0 A 36.81,36.81 0 0 0 243,239 a 33.32,33.32 0 0 0 -6.68,-10.71 30.42,30.42 0 0 0 -9.86,-7.05 29.84,29.84 0 0 0 -24.05,0 30.57,30.57 0 0 0 -9.87,7.05 33.3,33.3 0 0 0 -6.7,10.71 38.73,38.73 0 0 0 0,27.06 33.3,33.3 0 0 0 6.67,10.71 30.57,30.57 0 0 0 9.87,7.05 29.84,29.84 0 0 0 24.05,0 30.42,30.42 0 0 0 9.86,-7.05 33.32,33.32 0 0 0 6.71,-10.67 36.81,36.81 0 0 0 2.44,-13.53"
       id="path41"
       inkscape:connector-curvature="0"
       style="fill:#384e71" />
    <path
       class="cls-5"
       d="m 310.32,193.37 v 70.48 q 0,10.71 5.83,16.63 5.83,5.92 15.78,5.91 10,0 15.79,-5.91 5.79,-5.91 5.82,-16.63 v -70.48 h 27.25 v 70.48 a 53.73,53.73 0 0 1 -3.57,19.92 43.7,43.7 0 0 1 -25.37,25.36 57.21,57.21 0 0 1 -39.84,0 43.7,43.7 0 0 1 -25.37,-25.36 53.73,53.73 0 0 1 -3.57,-19.92 v -70.48 z"
       id="path43"
       inkscape:connector-curvature="0"
       style="fill:#384e71" />
    <path
       class="cls-5"
       d="m 441.37,193.12 a 45.55,45.55 0 0 1 16.82,3 41.34,41.34 0 0 1 13.06,8.08 36,36 0 0 1 11.46,26.5 q 0,10 -3.48,16.72 a 43.68,43.68 0 0 1 -7.7,11 46.72,46.72 0 0 1 -11.37,8 l 26.31,45.1 H 456.4 L 434.79,272 h -14.1 v 39.5 H 393.45 V 193.12 Z m 0,52.61 q 7.14,0 11.08,-3.76 a 13.15,13.15 0 0 0 0,-18.79 q -3.94,-3.75 -11.08,-3.76 h -20.68 v 26.31 z"
       id="path45"
       inkscape:connector-curvature="0"
       style="fill:#384e71" />
    <rect
       class="cls-5"
       x="514.91998"
       y="238.53999"
       width="226.34"
       height="24.76"
       id="rect47"
       style="fill:#384e71" />
    <path
       class="cls-5"
       d="M 338.69,541.54 H 365 v -24.76 h -61.17 a 209.82,209.82 0 0 1 34.86,24.76"
       id="path49"
       inkscape:connector-curvature="0"
       style="fill:#384e71" />
    <path
       class="cls-5"
       d="m 133.16,535.8 c -23.69,-2.68 -49.1,-0.69 -74.56,5.56 v 0.18 h 102.8 c -3.38,-1 -6.76,-1.93 -10.11,-2.75 a 179.43,179.43 0 0 0 -18.13,-3"
       id="path51"
       inkscape:connector-curvature="0"
       style="fill:#384e71" />
    <path
       class="cls-5"
       d="m 183.2,525.16 a 172,172 0 0 0 -27.8,-8.38 H 76.7 q -9,1.76 -18.1,4.27 v 8 a 222.78,222.78 0 0 1 75.88,-5 189,189 0 0 1 19.52,3.19 c 7,1.71 13.93,3.77 20.76,6.18 l 0.31,0.12 c 6.46,2.69 12.21,5.14 17.58,7.49 l 1.17,0.51 h 26.1 c -7,-2.94 -13.8,-5.8 -20.4,-8.74 -6.13,-2.73 -11.46,-5.23 -16.29,-7.64"
       id="path53"
       inkscape:connector-curvature="0"
       style="fill:#384e71" />
    <path
       class="cls-5"
       d="m 177.6,516.78 c 2.66,0.92 5.3,1.88 7.91,2.92 l 0.23,0.1 c 4.78,2.39 10.06,4.87 16.16,7.59 8.18,3.64 16.64,7.17 25.6,10.91 l 7.75,3.24 h 52 a 258.54,258.54 0 0 0 -57.19,-24.76 z"
       id="path55"
       inkscape:connector-curvature="0"
       style="fill:#384e71" />
    <path
       class="cls-5"
       d="m 248.82,516.78 a 256.86,256.86 0 0 1 49.75,24.76 h 27.82 A 216.14,216.14 0 0 0 287,516.78 Z"
       id="path57"
       inkscape:connector-curvature="0"
       style="fill:#384e71" />
  </g>
</svg>
