<?xml version='1.0' encoding='UTF-8' ?>
<svg xmlns='http://www.w3.org/2000/svg' xmlns:xlink='http://www.w3.org/1999/xlink' class='svglite' width='510.24pt' height='291.69pt' viewBox='0 0 510.24 291.69'>
<defs>
  <style type='text/css'><![CDATA[
    .svglite line, .svglite polyline, .svglite polygon, .svglite path, .svglite rect, .svglite circle {
      fill: none;
      stroke: #000000;
      stroke-linecap: round;
      stroke-linejoin: round;
      stroke-miterlimit: 10.00;
    }
    .svglite text {
      white-space: pre;
    }
  ]]></style>
</defs>
<rect width='100%' height='100%' style='stroke: none; fill: none;'/>
<defs>
  <clipPath id='cpMC4wMHw1MTAuMjR8MC4wMHwyOTEuNjk='>
    <rect x='0.00' y='0.00' width='510.24' height='291.69' />
  </clipPath>
</defs>
<g clip-path='url(#cpMC4wMHw1MTAuMjR8MC4wMHwyOTEuNjk=)'>
</g>
<defs>
  <clipPath id='cpMjgxLjY5fDQ1NC4wOHwxOC4wMHwyOTEuNjk='>
    <rect x='281.69' y='18.00' width='172.40' height='273.69' />
  </clipPath>
</defs>
<g clip-path='url(#cpMjgxLjY5fDQ1NC4wOHwxOC4wMHwyOTEuNjk=)'>
<rect x='281.69' y='18.00' width='172.40' height='273.69' style='stroke-width: 0.78; stroke: #FFFFFF; fill: #FFFFFF;' />
</g>
<g clip-path='url(#cpMC4wMHw1MTAuMjR8MC4wMHwyOTEuNjk=)'>
</g>
<defs>
  <clipPath id='cpMzQzLjg2fDQwMC4wMXwyMS45OXwyNjguODk='>
    <rect x='343.86' y='21.99' width='56.15' height='246.90' />
  </clipPath>
</defs>
<g clip-path='url(#cpMzQzLjg2fDQwMC4wMXwyMS45OXwyNjguODk=)'>
<rect x='343.86' y='21.99' width='56.15' height='246.90' style='stroke-width: 0.78; stroke: none; fill: #FFFFFF;' />
<polyline points='344.00,268.89 344.00,21.99 ' style='stroke-width: 0.39; stroke: #EBEBEB; stroke-linecap: butt;' />
<polyline points='348.63,268.89 348.63,21.99 ' style='stroke-width: 0.39; stroke: #EBEBEB; stroke-linecap: butt;' />
<polyline points='353.26,268.89 353.26,21.99 ' style='stroke-width: 0.39; stroke: #EBEBEB; stroke-linecap: butt;' />
<polyline points='357.89,268.89 357.89,21.99 ' style='stroke-width: 0.39; stroke: #EBEBEB; stroke-linecap: butt;' />
<polyline points='362.52,268.89 362.52,21.99 ' style='stroke-width: 0.39; stroke: #EBEBEB; stroke-linecap: butt;' />
<polyline points='367.15,268.89 367.15,21.99 ' style='stroke-width: 0.39; stroke: #EBEBEB; stroke-linecap: butt;' />
<polyline points='371.78,268.89 371.78,21.99 ' style='stroke-width: 0.39; stroke: #EBEBEB; stroke-linecap: butt;' />
<polyline points='376.41,268.89 376.41,21.99 ' style='stroke-width: 0.39; stroke: #EBEBEB; stroke-linecap: butt;' />
<polyline points='381.04,268.89 381.04,21.99 ' style='stroke-width: 0.39; stroke: #EBEBEB; stroke-linecap: butt;' />
<polyline points='385.67,268.89 385.67,21.99 ' style='stroke-width: 0.39; stroke: #EBEBEB; stroke-linecap: butt;' />
<polyline points='390.30,268.89 390.30,21.99 ' style='stroke-width: 0.39; stroke: #EBEBEB; stroke-linecap: butt;' />
<polyline points='394.93,268.89 394.93,21.99 ' style='stroke-width: 0.39; stroke: #EBEBEB; stroke-linecap: butt;' />
<polyline points='397.25,268.89 397.25,21.99 ' style='stroke-width: 0.39; stroke: #EBEBEB; stroke-linecap: butt;' />
<polyline points='343.86,250.40 400.01,250.40 ' style='stroke-width: 0.78; stroke: #EBEBEB; stroke-linecap: butt;' />
<polyline points='343.86,224.18 400.01,224.18 ' style='stroke-width: 0.78; stroke: #EBEBEB; stroke-linecap: butt;' />
<polyline points='343.86,197.96 400.01,197.96 ' style='stroke-width: 0.78; stroke: #EBEBEB; stroke-linecap: butt;' />
<polyline points='343.86,171.75 400.01,171.75 ' style='stroke-width: 0.78; stroke: #EBEBEB; stroke-linecap: butt;' />
<polyline points='343.86,145.53 400.01,145.53 ' style='stroke-width: 0.78; stroke: #EBEBEB; stroke-linecap: butt;' />
<polyline points='343.86,119.31 400.01,119.31 ' style='stroke-width: 0.78; stroke: #EBEBEB; stroke-linecap: butt;' />
<polyline points='343.86,93.09 400.01,93.09 ' style='stroke-width: 0.78; stroke: #EBEBEB; stroke-linecap: butt;' />
<polyline points='343.86,66.88 400.01,66.88 ' style='stroke-width: 0.78; stroke: #EBEBEB; stroke-linecap: butt;' />
<polyline points='343.86,40.66 400.01,40.66 ' style='stroke-width: 0.78; stroke: #EBEBEB; stroke-linecap: butt;' />
<polyline points='346.31,268.89 346.31,21.99 ' style='stroke-width: 0.78; stroke: #EBEBEB; stroke-linecap: butt;' />
<polyline points='350.94,268.89 350.94,21.99 ' style='stroke-width: 0.78; stroke: #EBEBEB; stroke-linecap: butt;' />
<polyline points='355.57,268.89 355.57,21.99 ' style='stroke-width: 0.78; stroke: #EBEBEB; stroke-linecap: butt;' />
<polyline points='360.21,268.89 360.21,21.99 ' style='stroke-width: 0.78; stroke: #EBEBEB; stroke-linecap: butt;' />
<polyline points='364.84,268.89 364.84,21.99 ' style='stroke-width: 0.78; stroke: #EBEBEB; stroke-linecap: butt;' />
<polyline points='369.47,268.89 369.47,21.99 ' style='stroke-width: 0.78; stroke: #EBEBEB; stroke-linecap: butt;' />
<polyline points='374.10,268.89 374.10,21.99 ' style='stroke-width: 0.78; stroke: #EBEBEB; stroke-linecap: butt;' />
<polyline points='378.73,268.89 378.73,21.99 ' style='stroke-width: 0.78; stroke: #EBEBEB; stroke-linecap: butt;' />
<polyline points='383.36,268.89 383.36,21.99 ' style='stroke-width: 0.78; stroke: #EBEBEB; stroke-linecap: butt;' />
<polyline points='387.99,268.89 387.99,21.99 ' style='stroke-width: 0.78; stroke: #EBEBEB; stroke-linecap: butt;' />
<polyline points='392.62,268.89 392.62,21.99 ' style='stroke-width: 0.78; stroke: #EBEBEB; stroke-linecap: butt;' />
<circle cx='386.12' cy='242.82' r='2.13' style='stroke-width: 0.00; stroke: #444444; stroke-opacity: 0.10; fill: #444444; fill-opacity: 0.10;' />
<circle cx='375.56' cy='257.64' r='2.13' style='stroke-width: 0.00; stroke: #444444; stroke-opacity: 0.10; fill: #444444; fill-opacity: 0.10;' />
<circle cx='373.35' cy='257.67' r='2.13' style='stroke-width: 0.00; stroke: #444444; stroke-opacity: 0.10; fill: #444444; fill-opacity: 0.10;' />
<circle cx='374.23' cy='256.88' r='2.13' style='stroke-width: 0.00; stroke: #444444; stroke-opacity: 0.10; fill: #444444; fill-opacity: 0.10;' />
<circle cx='391.29' cy='246.18' r='2.13' style='stroke-width: 0.00; stroke: #444444; stroke-opacity: 0.10; fill: #444444; fill-opacity: 0.10;' />
<circle cx='381.81' cy='243.95' r='2.13' style='stroke-width: 0.00; stroke: #444444; stroke-opacity: 0.10; fill: #444444; fill-opacity: 0.10;' />
<circle cx='372.84' cy='251.35' r='2.13' style='stroke-width: 0.00; stroke: #444444; stroke-opacity: 0.10; fill: #444444; fill-opacity: 0.10;' />
<circle cx='390.59' cy='257.16' r='2.13' style='stroke-width: 0.00; stroke: #444444; stroke-opacity: 0.10; fill: #444444; fill-opacity: 0.10;' />
<circle cx='383.12' cy='245.56' r='2.13' style='stroke-width: 0.00; stroke: #444444; stroke-opacity: 0.10; fill: #444444; fill-opacity: 0.10;' />
<circle cx='372.86' cy='250.87' r='2.13' style='stroke-width: 0.00; stroke: #444444; stroke-opacity: 0.10; fill: #444444; fill-opacity: 0.10;' />
<circle cx='371.96' cy='248.33' r='2.13' style='stroke-width: 0.00; stroke: #444444; stroke-opacity: 0.10; fill: #444444; fill-opacity: 0.10;' />
<circle cx='373.64' cy='245.57' r='2.13' style='stroke-width: 0.00; stroke: #444444; stroke-opacity: 0.10; fill: #444444; fill-opacity: 0.10;' />
<circle cx='374.08' cy='254.85' r='2.13' style='stroke-width: 0.00; stroke: #444444; stroke-opacity: 0.10; fill: #444444; fill-opacity: 0.10;' />
<circle cx='370.51' cy='244.00' r='2.13' style='stroke-width: 0.00; stroke: #444444; stroke-opacity: 0.10; fill: #444444; fill-opacity: 0.10;' />
<circle cx='372.25' cy='246.04' r='2.13' style='stroke-width: 0.00; stroke: #444444; stroke-opacity: 0.10; fill: #444444; fill-opacity: 0.10;' />
<circle cx='374.72' cy='254.65' r='2.13' style='stroke-width: 0.00; stroke: #444444; stroke-opacity: 0.10; fill: #444444; fill-opacity: 0.10;' />
<circle cx='392.79' cy='249.97' r='2.13' style='stroke-width: 0.00; stroke: #444444; stroke-opacity: 0.10; fill: #444444; fill-opacity: 0.10;' />
<circle cx='372.84' cy='252.32' r='2.13' style='stroke-width: 0.00; stroke: #444444; stroke-opacity: 0.10; fill: #444444; fill-opacity: 0.10;' />
<circle cx='374.60' cy='255.95' r='2.13' style='stroke-width: 0.00; stroke: #444444; stroke-opacity: 0.10; fill: #444444; fill-opacity: 0.10;' />
<circle cx='367.92' cy='251.16' r='2.13' style='stroke-width: 0.00; stroke: #444444; stroke-opacity: 0.10; fill: #444444; fill-opacity: 0.10;' />
<circle cx='391.59' cy='223.37' r='2.13' style='stroke-width: 0.00; stroke: #444444; stroke-opacity: 0.10; fill: #444444; fill-opacity: 0.10;' />
<circle cx='394.21' cy='228.68' r='2.13' style='stroke-width: 0.00; stroke: #444444; stroke-opacity: 0.10; fill: #444444; fill-opacity: 0.10;' />
<circle cx='390.65' cy='217.46' r='2.13' style='stroke-width: 0.00; stroke: #444444; stroke-opacity: 0.10; fill: #444444; fill-opacity: 0.10;' />
<circle cx='390.54' cy='219.92' r='2.13' style='stroke-width: 0.00; stroke: #444444; stroke-opacity: 0.10; fill: #444444; fill-opacity: 0.10;' />
<circle cx='358.31' cy='226.49' r='2.13' style='stroke-width: 0.00; stroke: #444444; stroke-opacity: 0.10; fill: #444444; fill-opacity: 0.10;' />
<circle cx='393.73' cy='226.92' r='2.13' style='stroke-width: 0.00; stroke: #444444; stroke-opacity: 0.10; fill: #444444; fill-opacity: 0.10;' />
<circle cx='392.10' cy='227.38' r='2.13' style='stroke-width: 0.00; stroke: #444444; stroke-opacity: 0.10; fill: #444444; fill-opacity: 0.10;' />
<circle cx='390.56' cy='230.79' r='2.13' style='stroke-width: 0.00; stroke: #444444; stroke-opacity: 0.10; fill: #444444; fill-opacity: 0.10;' />
<circle cx='370.84' cy='228.18' r='2.13' style='stroke-width: 0.00; stroke: #444444; stroke-opacity: 0.10; fill: #444444; fill-opacity: 0.10;' />
<circle cx='384.34' cy='223.76' r='2.13' style='stroke-width: 0.00; stroke: #444444; stroke-opacity: 0.10; fill: #444444; fill-opacity: 0.10;' />
<circle cx='390.68' cy='231.01' r='2.13' style='stroke-width: 0.00; stroke: #444444; stroke-opacity: 0.10; fill: #444444; fill-opacity: 0.10;' />
<circle cx='393.20' cy='231.54' r='2.13' style='stroke-width: 0.00; stroke: #444444; stroke-opacity: 0.10; fill: #444444; fill-opacity: 0.10;' />
<circle cx='394.21' cy='227.46' r='2.13' style='stroke-width: 0.00; stroke: #444444; stroke-opacity: 0.10; fill: #444444; fill-opacity: 0.10;' />
<circle cx='391.20' cy='222.28' r='2.13' style='stroke-width: 0.00; stroke: #444444; stroke-opacity: 0.10; fill: #444444; fill-opacity: 0.10;' />
<circle cx='393.08' cy='228.85' r='2.13' style='stroke-width: 0.00; stroke: #444444; stroke-opacity: 0.10; fill: #444444; fill-opacity: 0.10;' />
<circle cx='392.82' cy='227.96' r='2.13' style='stroke-width: 0.00; stroke: #444444; stroke-opacity: 0.10; fill: #444444; fill-opacity: 0.10;' />
<circle cx='391.59' cy='218.60' r='2.13' style='stroke-width: 0.00; stroke: #444444; stroke-opacity: 0.10; fill: #444444; fill-opacity: 0.10;' />
<circle cx='388.01' cy='227.78' r='2.13' style='stroke-width: 0.00; stroke: #444444; stroke-opacity: 0.10; fill: #444444; fill-opacity: 0.10;' />
<circle cx='362.53' cy='229.45' r='2.13' style='stroke-width: 0.00; stroke: #444444; stroke-opacity: 0.10; fill: #444444; fill-opacity: 0.10;' />
<circle cx='392.15' cy='220.07' r='2.13' style='stroke-width: 0.00; stroke: #444444; stroke-opacity: 0.10; fill: #444444; fill-opacity: 0.10;' />
<circle cx='392.46' cy='222.01' r='2.13' style='stroke-width: 0.00; stroke: #444444; stroke-opacity: 0.10; fill: #444444; fill-opacity: 0.10;' />
<circle cx='386.05' cy='228.78' r='2.13' style='stroke-width: 0.00; stroke: #444444; stroke-opacity: 0.10; fill: #444444; fill-opacity: 0.10;' />
<circle cx='384.35' cy='231.41' r='2.13' style='stroke-width: 0.00; stroke: #444444; stroke-opacity: 0.10; fill: #444444; fill-opacity: 0.10;' />
<circle cx='392.90' cy='219.37' r='2.13' style='stroke-width: 0.00; stroke: #444444; stroke-opacity: 0.10; fill: #444444; fill-opacity: 0.10;' />
<circle cx='392.50' cy='231.42' r='2.13' style='stroke-width: 0.00; stroke: #444444; stroke-opacity: 0.10; fill: #444444; fill-opacity: 0.10;' />
<circle cx='346.69' cy='220.70' r='2.13' style='stroke-width: 0.00; stroke: #444444; stroke-opacity: 0.10; fill: #444444; fill-opacity: 0.10;' />
<circle cx='394.15' cy='229.14' r='2.13' style='stroke-width: 0.00; stroke: #444444; stroke-opacity: 0.10; fill: #444444; fill-opacity: 0.10;' />
<circle cx='391.63' cy='227.53' r='2.13' style='stroke-width: 0.00; stroke: #444444; stroke-opacity: 0.10; fill: #444444; fill-opacity: 0.10;' />
<circle cx='371.53' cy='190.43' r='2.13' style='stroke-width: 0.00; stroke: #444444; stroke-opacity: 0.10; fill: #444444; fill-opacity: 0.10;' />
<circle cx='368.32' cy='192.60' r='2.13' style='stroke-width: 0.00; stroke: #444444; stroke-opacity: 0.10; fill: #444444; fill-opacity: 0.10;' />
<circle cx='380.64' cy='190.95' r='2.13' style='stroke-width: 0.00; stroke: #444444; stroke-opacity: 0.10; fill: #444444; fill-opacity: 0.10;' />
<circle cx='376.56' cy='203.62' r='2.13' style='stroke-width: 0.00; stroke: #444444; stroke-opacity: 0.10; fill: #444444; fill-opacity: 0.10;' />
<circle cx='372.11' cy='201.75' r='2.13' style='stroke-width: 0.00; stroke: #444444; stroke-opacity: 0.10; fill: #444444; fill-opacity: 0.10;' />
<circle cx='392.67' cy='202.80' r='2.13' style='stroke-width: 0.00; stroke: #444444; stroke-opacity: 0.10; fill: #444444; fill-opacity: 0.10;' />
<circle cx='392.21' cy='197.12' r='2.13' style='stroke-width: 0.00; stroke: #444444; stroke-opacity: 0.10; fill: #444444; fill-opacity: 0.10;' />
<circle cx='370.03' cy='192.05' r='2.13' style='stroke-width: 0.00; stroke: #444444; stroke-opacity: 0.10; fill: #444444; fill-opacity: 0.10;' />
<circle cx='362.56' cy='198.84' r='2.13' style='stroke-width: 0.00; stroke: #444444; stroke-opacity: 0.10; fill: #444444; fill-opacity: 0.10;' />
<circle cx='356.51' cy='194.60' r='2.13' style='stroke-width: 0.00; stroke: #444444; stroke-opacity: 0.10; fill: #444444; fill-opacity: 0.10;' />
<circle cx='362.28' cy='203.22' r='2.13' style='stroke-width: 0.00; stroke: #444444; stroke-opacity: 0.10; fill: #444444; fill-opacity: 0.10;' />
<circle cx='394.09' cy='200.53' r='2.13' style='stroke-width: 0.00; stroke: #444444; stroke-opacity: 0.10; fill: #444444; fill-opacity: 0.10;' />
<circle cx='363.60' cy='205.04' r='2.13' style='stroke-width: 0.00; stroke: #444444; stroke-opacity: 0.10; fill: #444444; fill-opacity: 0.10;' />
<circle cx='393.42' cy='191.46' r='2.13' style='stroke-width: 0.00; stroke: #444444; stroke-opacity: 0.10; fill: #444444; fill-opacity: 0.10;' />
<circle cx='370.81' cy='194.48' r='2.13' style='stroke-width: 0.00; stroke: #444444; stroke-opacity: 0.10; fill: #444444; fill-opacity: 0.10;' />
<circle cx='387.93' cy='201.21' r='2.13' style='stroke-width: 0.00; stroke: #444444; stroke-opacity: 0.10; fill: #444444; fill-opacity: 0.10;' />
<circle cx='390.93' cy='192.37' r='2.13' style='stroke-width: 0.00; stroke: #444444; stroke-opacity: 0.10; fill: #444444; fill-opacity: 0.10;' />
<circle cx='392.68' cy='193.49' r='2.13' style='stroke-width: 0.00; stroke: #444444; stroke-opacity: 0.10; fill: #444444; fill-opacity: 0.10;' />
<circle cx='391.79' cy='191.63' r='2.13' style='stroke-width: 0.00; stroke: #444444; stroke-opacity: 0.10; fill: #444444; fill-opacity: 0.10;' />
<circle cx='380.06' cy='205.17' r='2.13' style='stroke-width: 0.00; stroke: #444444; stroke-opacity: 0.10; fill: #444444; fill-opacity: 0.10;' />
<circle cx='392.62' cy='198.75' r='2.13' style='stroke-width: 0.00; stroke: #444444; stroke-opacity: 0.10; fill: #444444; fill-opacity: 0.10;' />
<circle cx='390.76' cy='205.48' r='2.13' style='stroke-width: 0.00; stroke: #444444; stroke-opacity: 0.10; fill: #444444; fill-opacity: 0.10;' />
<circle cx='393.25' cy='190.39' r='2.13' style='stroke-width: 0.00; stroke: #444444; stroke-opacity: 0.10; fill: #444444; fill-opacity: 0.10;' />
<circle cx='391.46' cy='195.64' r='2.13' style='stroke-width: 0.00; stroke: #444444; stroke-opacity: 0.10; fill: #444444; fill-opacity: 0.10;' />
<circle cx='375.16' cy='191.31' r='2.13' style='stroke-width: 0.00; stroke: #444444; stroke-opacity: 0.10; fill: #444444; fill-opacity: 0.10;' />
<circle cx='385.14' cy='194.59' r='2.13' style='stroke-width: 0.00; stroke: #444444; stroke-opacity: 0.10; fill: #444444; fill-opacity: 0.10;' />
<circle cx='394.05' cy='205.46' r='2.13' style='stroke-width: 0.00; stroke: #444444; stroke-opacity: 0.10; fill: #444444; fill-opacity: 0.10;' />
<circle cx='389.03' cy='201.62' r='2.13' style='stroke-width: 0.00; stroke: #444444; stroke-opacity: 0.10; fill: #444444; fill-opacity: 0.10;' />
<circle cx='391.03' cy='194.77' r='2.13' style='stroke-width: 0.00; stroke: #444444; stroke-opacity: 0.10; fill: #444444; fill-opacity: 0.10;' />
<circle cx='390.54' cy='192.50' r='2.13' style='stroke-width: 0.00; stroke: #444444; stroke-opacity: 0.10; fill: #444444; fill-opacity: 0.10;' />
<circle cx='393.16' cy='197.96' r='2.13' style='stroke-width: 0.00; stroke: #444444; stroke-opacity: 0.10; fill: #444444; fill-opacity: 0.10;' />
<circle cx='363.14' cy='193.84' r='2.13' style='stroke-width: 0.00; stroke: #444444; stroke-opacity: 0.10; fill: #444444; fill-opacity: 0.10;' />
<circle cx='373.50' cy='192.10' r='2.13' style='stroke-width: 0.00; stroke: #444444; stroke-opacity: 0.10; fill: #444444; fill-opacity: 0.10;' />
<circle cx='357.16' cy='192.81' r='2.13' style='stroke-width: 0.00; stroke: #444444; stroke-opacity: 0.10; fill: #444444; fill-opacity: 0.10;' />
<circle cx='373.92' cy='199.08' r='2.13' style='stroke-width: 0.00; stroke: #444444; stroke-opacity: 0.10; fill: #444444; fill-opacity: 0.10;' />
<circle cx='393.20' cy='200.35' r='2.13' style='stroke-width: 0.00; stroke: #444444; stroke-opacity: 0.10; fill: #444444; fill-opacity: 0.10;' />
<circle cx='346.41' cy='200.26' r='2.13' style='stroke-width: 0.00; stroke: #444444; stroke-opacity: 0.10; fill: #444444; fill-opacity: 0.10;' />
<circle cx='375.43' cy='204.49' r='2.13' style='stroke-width: 0.00; stroke: #444444; stroke-opacity: 0.10; fill: #444444; fill-opacity: 0.10;' />
<circle cx='376.72' cy='193.28' r='2.13' style='stroke-width: 0.00; stroke: #444444; stroke-opacity: 0.10; fill: #444444; fill-opacity: 0.10;' />
<circle cx='380.45' cy='174.77' r='2.13' style='stroke-width: 0.00; stroke: #444444; stroke-opacity: 0.10; fill: #444444; fill-opacity: 0.10;' />
<circle cx='393.54' cy='165.60' r='2.13' style='stroke-width: 0.00; stroke: #444444; stroke-opacity: 0.10; fill: #444444; fill-opacity: 0.10;' />
<circle cx='367.43' cy='166.39' r='2.13' style='stroke-width: 0.00; stroke: #444444; stroke-opacity: 0.10; fill: #444444; fill-opacity: 0.10;' />
<circle cx='392.85' cy='168.21' r='2.13' style='stroke-width: 0.00; stroke: #444444; stroke-opacity: 0.10; fill: #444444; fill-opacity: 0.10;' />
<circle cx='381.25' cy='178.55' r='2.13' style='stroke-width: 0.00; stroke: #444444; stroke-opacity: 0.10; fill: #444444; fill-opacity: 0.10;' />
<circle cx='382.92' cy='169.60' r='2.13' style='stroke-width: 0.00; stroke: #444444; stroke-opacity: 0.10; fill: #444444; fill-opacity: 0.10;' />
<circle cx='373.92' cy='174.63' r='2.13' style='stroke-width: 0.00; stroke: #444444; stroke-opacity: 0.10; fill: #444444; fill-opacity: 0.10;' />
<circle cx='370.42' cy='177.42' r='2.13' style='stroke-width: 0.00; stroke: #444444; stroke-opacity: 0.10; fill: #444444; fill-opacity: 0.10;' />
<circle cx='365.99' cy='167.40' r='2.13' style='stroke-width: 0.00; stroke: #444444; stroke-opacity: 0.10; fill: #444444; fill-opacity: 0.10;' />
<circle cx='375.19' cy='164.02' r='2.13' style='stroke-width: 0.00; stroke: #444444; stroke-opacity: 0.10; fill: #444444; fill-opacity: 0.10;' />
<circle cx='366.65' cy='163.90' r='2.13' style='stroke-width: 0.00; stroke: #444444; stroke-opacity: 0.10; fill: #444444; fill-opacity: 0.10;' />
<circle cx='377.94' cy='169.83' r='2.13' style='stroke-width: 0.00; stroke: #444444; stroke-opacity: 0.10; fill: #444444; fill-opacity: 0.10;' />
<circle cx='391.32' cy='170.58' r='2.13' style='stroke-width: 0.00; stroke: #444444; stroke-opacity: 0.10; fill: #444444; fill-opacity: 0.10;' />
<circle cx='377.01' cy='178.10' r='2.13' style='stroke-width: 0.00; stroke: #444444; stroke-opacity: 0.10; fill: #444444; fill-opacity: 0.10;' />
<circle cx='384.23' cy='167.30' r='2.13' style='stroke-width: 0.00; stroke: #444444; stroke-opacity: 0.10; fill: #444444; fill-opacity: 0.10;' />
<circle cx='362.30' cy='165.66' r='2.13' style='stroke-width: 0.00; stroke: #444444; stroke-opacity: 0.10; fill: #444444; fill-opacity: 0.10;' />
<circle cx='394.63' cy='168.50' r='2.13' style='stroke-width: 0.00; stroke: #444444; stroke-opacity: 0.10; fill: #444444; fill-opacity: 0.10;' />
<circle cx='391.52' cy='170.68' r='2.13' style='stroke-width: 0.00; stroke: #444444; stroke-opacity: 0.10; fill: #444444; fill-opacity: 0.10;' />
<circle cx='391.56' cy='168.50' r='2.13' style='stroke-width: 0.00; stroke: #444444; stroke-opacity: 0.10; fill: #444444; fill-opacity: 0.10;' />
<circle cx='384.50' cy='164.70' r='2.13' style='stroke-width: 0.00; stroke: #444444; stroke-opacity: 0.10; fill: #444444; fill-opacity: 0.10;' />
<circle cx='372.34' cy='178.24' r='2.13' style='stroke-width: 0.00; stroke: #444444; stroke-opacity: 0.10; fill: #444444; fill-opacity: 0.10;' />
<circle cx='347.67' cy='176.91' r='2.13' style='stroke-width: 0.00; stroke: #444444; stroke-opacity: 0.10; fill: #444444; fill-opacity: 0.10;' />
<circle cx='369.93' cy='142.02' r='2.13' style='stroke-width: 0.00; stroke: #444444; stroke-opacity: 0.10; fill: #444444; fill-opacity: 0.10;' />
<circle cx='380.22' cy='141.35' r='2.13' style='stroke-width: 0.00; stroke: #444444; stroke-opacity: 0.10; fill: #444444; fill-opacity: 0.10;' />
<circle cx='383.16' cy='140.45' r='2.13' style='stroke-width: 0.00; stroke: #444444; stroke-opacity: 0.10; fill: #444444; fill-opacity: 0.10;' />
<circle cx='379.14' cy='153.35' r='2.13' style='stroke-width: 0.00; stroke: #444444; stroke-opacity: 0.10; fill: #444444; fill-opacity: 0.10;' />
<circle cx='368.76' cy='146.71' r='2.13' style='stroke-width: 0.00; stroke: #444444; stroke-opacity: 0.10; fill: #444444; fill-opacity: 0.10;' />
<circle cx='370.55' cy='149.47' r='2.13' style='stroke-width: 0.00; stroke: #444444; stroke-opacity: 0.10; fill: #444444; fill-opacity: 0.10;' />
<circle cx='359.82' cy='141.43' r='2.13' style='stroke-width: 0.00; stroke: #444444; stroke-opacity: 0.10; fill: #444444; fill-opacity: 0.10;' />
<circle cx='391.18' cy='139.98' r='2.13' style='stroke-width: 0.00; stroke: #444444; stroke-opacity: 0.10; fill: #444444; fill-opacity: 0.10;' />
<circle cx='393.94' cy='146.74' r='2.13' style='stroke-width: 0.00; stroke: #444444; stroke-opacity: 0.10; fill: #444444; fill-opacity: 0.10;' />
<circle cx='368.16' cy='149.30' r='2.13' style='stroke-width: 0.00; stroke: #444444; stroke-opacity: 0.10; fill: #444444; fill-opacity: 0.10;' />
<circle cx='374.21' cy='142.10' r='2.13' style='stroke-width: 0.00; stroke: #444444; stroke-opacity: 0.10; fill: #444444; fill-opacity: 0.10;' />
<circle cx='374.93' cy='138.16' r='2.13' style='stroke-width: 0.00; stroke: #444444; stroke-opacity: 0.10; fill: #444444; fill-opacity: 0.10;' />
<circle cx='371.26' cy='141.76' r='2.13' style='stroke-width: 0.00; stroke: #444444; stroke-opacity: 0.10; fill: #444444; fill-opacity: 0.10;' />
<circle cx='394.10' cy='149.27' r='2.13' style='stroke-width: 0.00; stroke: #444444; stroke-opacity: 0.10; fill: #444444; fill-opacity: 0.10;' />
<circle cx='391.06' cy='147.95' r='2.13' style='stroke-width: 0.00; stroke: #444444; stroke-opacity: 0.10; fill: #444444; fill-opacity: 0.10;' />
<circle cx='369.93' cy='141.27' r='2.13' style='stroke-width: 0.00; stroke: #444444; stroke-opacity: 0.10; fill: #444444; fill-opacity: 0.10;' />
<circle cx='371.13' cy='146.64' r='2.13' style='stroke-width: 0.00; stroke: #444444; stroke-opacity: 0.10; fill: #444444; fill-opacity: 0.10;' />
<circle cx='390.90' cy='146.70' r='2.13' style='stroke-width: 0.00; stroke: #444444; stroke-opacity: 0.10; fill: #444444; fill-opacity: 0.10;' />
<circle cx='360.44' cy='150.73' r='2.13' style='stroke-width: 0.00; stroke: #444444; stroke-opacity: 0.10; fill: #444444; fill-opacity: 0.10;' />
<circle cx='370.57' cy='143.58' r='2.13' style='stroke-width: 0.00; stroke: #444444; stroke-opacity: 0.10; fill: #444444; fill-opacity: 0.10;' />
<circle cx='372.47' cy='139.20' r='2.13' style='stroke-width: 0.00; stroke: #444444; stroke-opacity: 0.10; fill: #444444; fill-opacity: 0.10;' />
<circle cx='394.47' cy='150.47' r='2.13' style='stroke-width: 0.00; stroke: #444444; stroke-opacity: 0.10; fill: #444444; fill-opacity: 0.10;' />
<circle cx='382.99' cy='151.48' r='2.13' style='stroke-width: 0.00; stroke: #444444; stroke-opacity: 0.10; fill: #444444; fill-opacity: 0.10;' />
<circle cx='361.21' cy='143.08' r='2.13' style='stroke-width: 0.00; stroke: #444444; stroke-opacity: 0.10; fill: #444444; fill-opacity: 0.10;' />
<circle cx='390.94' cy='144.51' r='2.13' style='stroke-width: 0.00; stroke: #444444; stroke-opacity: 0.10; fill: #444444; fill-opacity: 0.10;' />
<circle cx='368.44' cy='148.16' r='2.13' style='stroke-width: 0.00; stroke: #444444; stroke-opacity: 0.10; fill: #444444; fill-opacity: 0.10;' />
<circle cx='393.93' cy='141.00' r='2.13' style='stroke-width: 0.00; stroke: #444444; stroke-opacity: 0.10; fill: #444444; fill-opacity: 0.10;' />
<circle cx='386.92' cy='137.74' r='2.13' style='stroke-width: 0.00; stroke: #444444; stroke-opacity: 0.10; fill: #444444; fill-opacity: 0.10;' />
<circle cx='383.28' cy='152.01' r='2.13' style='stroke-width: 0.00; stroke: #444444; stroke-opacity: 0.10; fill: #444444; fill-opacity: 0.10;' />
<circle cx='377.98' cy='124.16' r='2.13' style='stroke-width: 0.00; stroke: #444444; stroke-opacity: 0.10; fill: #444444; fill-opacity: 0.10;' />
<circle cx='376.17' cy='118.98' r='2.13' style='stroke-width: 0.00; stroke: #444444; stroke-opacity: 0.10; fill: #444444; fill-opacity: 0.10;' />
<circle cx='376.12' cy='119.41' r='2.13' style='stroke-width: 0.00; stroke: #444444; stroke-opacity: 0.10; fill: #444444; fill-opacity: 0.10;' />
<circle cx='376.00' cy='120.87' r='2.13' style='stroke-width: 0.00; stroke: #444444; stroke-opacity: 0.10; fill: #444444; fill-opacity: 0.10;' />
<circle cx='373.82' cy='125.32' r='2.13' style='stroke-width: 0.00; stroke: #444444; stroke-opacity: 0.10; fill: #444444; fill-opacity: 0.10;' />
<circle cx='375.55' cy='124.58' r='2.13' style='stroke-width: 0.00; stroke: #444444; stroke-opacity: 0.10; fill: #444444; fill-opacity: 0.10;' />
<circle cx='394.34' cy='118.09' r='2.13' style='stroke-width: 0.00; stroke: #444444; stroke-opacity: 0.10; fill: #444444; fill-opacity: 0.10;' />
<circle cx='374.32' cy='122.43' r='2.13' style='stroke-width: 0.00; stroke: #444444; stroke-opacity: 0.10; fill: #444444; fill-opacity: 0.10;' />
<circle cx='374.23' cy='116.72' r='2.13' style='stroke-width: 0.00; stroke: #444444; stroke-opacity: 0.10; fill: #444444; fill-opacity: 0.10;' />
<circle cx='369.75' cy='126.39' r='2.13' style='stroke-width: 0.00; stroke: #444444; stroke-opacity: 0.10; fill: #444444; fill-opacity: 0.10;' />
<circle cx='373.37' cy='123.25' r='2.13' style='stroke-width: 0.00; stroke: #444444; stroke-opacity: 0.10; fill: #444444; fill-opacity: 0.10;' />
<circle cx='392.74' cy='118.38' r='2.13' style='stroke-width: 0.00; stroke: #444444; stroke-opacity: 0.10; fill: #444444; fill-opacity: 0.10;' />
<circle cx='394.17' cy='124.75' r='2.13' style='stroke-width: 0.00; stroke: #444444; stroke-opacity: 0.10; fill: #444444; fill-opacity: 0.10;' />
<circle cx='372.66' cy='125.44' r='2.13' style='stroke-width: 0.00; stroke: #444444; stroke-opacity: 0.10; fill: #444444; fill-opacity: 0.10;' />
<circle cx='375.30' cy='121.45' r='2.13' style='stroke-width: 0.00; stroke: #444444; stroke-opacity: 0.10; fill: #444444; fill-opacity: 0.10;' />
<circle cx='390.97' cy='113.28' r='2.13' style='stroke-width: 0.00; stroke: #444444; stroke-opacity: 0.10; fill: #444444; fill-opacity: 0.10;' />
<circle cx='369.89' cy='119.40' r='2.13' style='stroke-width: 0.00; stroke: #444444; stroke-opacity: 0.10; fill: #444444; fill-opacity: 0.10;' />
<circle cx='393.39' cy='126.78' r='2.13' style='stroke-width: 0.00; stroke: #444444; stroke-opacity: 0.10; fill: #444444; fill-opacity: 0.10;' />
<circle cx='380.08' cy='120.22' r='2.13' style='stroke-width: 0.00; stroke: #444444; stroke-opacity: 0.10; fill: #444444; fill-opacity: 0.10;' />
<circle cx='375.62' cy='114.44' r='2.13' style='stroke-width: 0.00; stroke: #444444; stroke-opacity: 0.10; fill: #444444; fill-opacity: 0.10;' />
<circle cx='373.67' cy='119.50' r='2.13' style='stroke-width: 0.00; stroke: #444444; stroke-opacity: 0.10; fill: #444444; fill-opacity: 0.10;' />
<circle cx='365.86' cy='111.80' r='2.13' style='stroke-width: 0.00; stroke: #444444; stroke-opacity: 0.10; fill: #444444; fill-opacity: 0.10;' />
<circle cx='393.74' cy='114.79' r='2.13' style='stroke-width: 0.00; stroke: #444444; stroke-opacity: 0.10; fill: #444444; fill-opacity: 0.10;' />
<circle cx='371.19' cy='124.83' r='2.13' style='stroke-width: 0.00; stroke: #444444; stroke-opacity: 0.10; fill: #444444; fill-opacity: 0.10;' />
<circle cx='373.85' cy='116.46' r='2.13' style='stroke-width: 0.00; stroke: #444444; stroke-opacity: 0.10; fill: #444444; fill-opacity: 0.10;' />
<circle cx='392.36' cy='121.38' r='2.13' style='stroke-width: 0.00; stroke: #444444; stroke-opacity: 0.10; fill: #444444; fill-opacity: 0.10;' />
<circle cx='368.51' cy='124.10' r='2.13' style='stroke-width: 0.00; stroke: #444444; stroke-opacity: 0.10; fill: #444444; fill-opacity: 0.10;' />
<circle cx='391.11' cy='92.32' r='2.13' style='stroke-width: 0.00; stroke: #444444; stroke-opacity: 0.10; fill: #444444; fill-opacity: 0.10;' />
<circle cx='381.58' cy='87.35' r='2.13' style='stroke-width: 0.00; stroke: #444444; stroke-opacity: 0.10; fill: #444444; fill-opacity: 0.10;' />
<circle cx='373.44' cy='95.76' r='2.13' style='stroke-width: 0.00; stroke: #444444; stroke-opacity: 0.10; fill: #444444; fill-opacity: 0.10;' />
<circle cx='392.66' cy='92.92' r='2.13' style='stroke-width: 0.00; stroke: #444444; stroke-opacity: 0.10; fill: #444444; fill-opacity: 0.10;' />
<circle cx='390.91' cy='85.99' r='2.13' style='stroke-width: 0.00; stroke: #444444; stroke-opacity: 0.10; fill: #444444; fill-opacity: 0.10;' />
<circle cx='393.26' cy='97.18' r='2.13' style='stroke-width: 0.00; stroke: #444444; stroke-opacity: 0.10; fill: #444444; fill-opacity: 0.10;' />
<circle cx='393.40' cy='97.61' r='2.13' style='stroke-width: 0.00; stroke: #444444; stroke-opacity: 0.10; fill: #444444; fill-opacity: 0.10;' />
<circle cx='392.46' cy='96.26' r='2.13' style='stroke-width: 0.00; stroke: #444444; stroke-opacity: 0.10; fill: #444444; fill-opacity: 0.10;' />
<circle cx='386.09' cy='96.43' r='2.13' style='stroke-width: 0.00; stroke: #444444; stroke-opacity: 0.10; fill: #444444; fill-opacity: 0.10;' />
<circle cx='393.46' cy='96.04' r='2.13' style='stroke-width: 0.00; stroke: #444444; stroke-opacity: 0.10; fill: #444444; fill-opacity: 0.10;' />
<circle cx='394.18' cy='94.75' r='2.13' style='stroke-width: 0.00; stroke: #444444; stroke-opacity: 0.10; fill: #444444; fill-opacity: 0.10;' />
<circle cx='394.22' cy='93.18' r='2.13' style='stroke-width: 0.00; stroke: #444444; stroke-opacity: 0.10; fill: #444444; fill-opacity: 0.10;' />
<circle cx='393.72' cy='96.49' r='2.13' style='stroke-width: 0.00; stroke: #444444; stroke-opacity: 0.10; fill: #444444; fill-opacity: 0.10;' />
<circle cx='370.61' cy='98.32' r='2.13' style='stroke-width: 0.00; stroke: #444444; stroke-opacity: 0.10; fill: #444444; fill-opacity: 0.10;' />
<circle cx='394.04' cy='87.43' r='2.13' style='stroke-width: 0.00; stroke: #444444; stroke-opacity: 0.10; fill: #444444; fill-opacity: 0.10;' />
<circle cx='374.88' cy='90.47' r='2.13' style='stroke-width: 0.00; stroke: #444444; stroke-opacity: 0.10; fill: #444444; fill-opacity: 0.10;' />
<circle cx='369.81' cy='91.03' r='2.13' style='stroke-width: 0.00; stroke: #444444; stroke-opacity: 0.10; fill: #444444; fill-opacity: 0.10;' />
<circle cx='391.26' cy='86.46' r='2.13' style='stroke-width: 0.00; stroke: #444444; stroke-opacity: 0.10; fill: #444444; fill-opacity: 0.10;' />
<circle cx='394.10' cy='95.55' r='2.13' style='stroke-width: 0.00; stroke: #444444; stroke-opacity: 0.10; fill: #444444; fill-opacity: 0.10;' />
<circle cx='390.97' cy='86.25' r='2.13' style='stroke-width: 0.00; stroke: #444444; stroke-opacity: 0.10; fill: #444444; fill-opacity: 0.10;' />
<circle cx='393.93' cy='85.55' r='2.13' style='stroke-width: 0.00; stroke: #444444; stroke-opacity: 0.10; fill: #444444; fill-opacity: 0.10;' />
<circle cx='390.64' cy='91.61' r='2.13' style='stroke-width: 0.00; stroke: #444444; stroke-opacity: 0.10; fill: #444444; fill-opacity: 0.10;' />
<circle cx='392.79' cy='95.51' r='2.13' style='stroke-width: 0.00; stroke: #444444; stroke-opacity: 0.10; fill: #444444; fill-opacity: 0.10;' />
<circle cx='376.11' cy='99.16' r='2.13' style='stroke-width: 0.00; stroke: #444444; stroke-opacity: 0.10; fill: #444444; fill-opacity: 0.10;' />
<circle cx='354.89' cy='90.34' r='2.13' style='stroke-width: 0.00; stroke: #444444; stroke-opacity: 0.10; fill: #444444; fill-opacity: 0.10;' />
<circle cx='373.44' cy='89.67' r='2.13' style='stroke-width: 0.00; stroke: #444444; stroke-opacity: 0.10; fill: #444444; fill-opacity: 0.10;' />
<circle cx='392.22' cy='98.27' r='2.13' style='stroke-width: 0.00; stroke: #444444; stroke-opacity: 0.10; fill: #444444; fill-opacity: 0.10;' />
<circle cx='392.84' cy='99.67' r='2.13' style='stroke-width: 0.00; stroke: #444444; stroke-opacity: 0.10; fill: #444444; fill-opacity: 0.10;' />
<circle cx='394.16' cy='97.42' r='2.13' style='stroke-width: 0.00; stroke: #444444; stroke-opacity: 0.10; fill: #444444; fill-opacity: 0.10;' />
<circle cx='380.48' cy='97.86' r='2.13' style='stroke-width: 0.00; stroke: #444444; stroke-opacity: 0.10; fill: #444444; fill-opacity: 0.10;' />
<circle cx='392.09' cy='97.37' r='2.13' style='stroke-width: 0.00; stroke: #444444; stroke-opacity: 0.10; fill: #444444; fill-opacity: 0.10;' />
<circle cx='375.15' cy='86.88' r='2.13' style='stroke-width: 0.00; stroke: #444444; stroke-opacity: 0.10; fill: #444444; fill-opacity: 0.10;' />
<circle cx='390.77' cy='92.53' r='2.13' style='stroke-width: 0.00; stroke: #444444; stroke-opacity: 0.10; fill: #444444; fill-opacity: 0.10;' />
<circle cx='368.02' cy='99.92' r='2.13' style='stroke-width: 0.00; stroke: #444444; stroke-opacity: 0.10; fill: #444444; fill-opacity: 0.10;' />
<circle cx='390.67' cy='89.96' r='2.13' style='stroke-width: 0.00; stroke: #444444; stroke-opacity: 0.10; fill: #444444; fill-opacity: 0.10;' />
<circle cx='393.67' cy='92.91' r='2.13' style='stroke-width: 0.00; stroke: #444444; stroke-opacity: 0.10; fill: #444444; fill-opacity: 0.10;' />
<circle cx='392.53' cy='95.48' r='2.13' style='stroke-width: 0.00; stroke: #444444; stroke-opacity: 0.10; fill: #444444; fill-opacity: 0.10;' />
<circle cx='368.82' cy='71.09' r='2.13' style='stroke-width: 0.00; stroke: #444444; stroke-opacity: 0.10; fill: #444444; fill-opacity: 0.10;' />
<circle cx='368.67' cy='61.97' r='2.13' style='stroke-width: 0.00; stroke: #444444; stroke-opacity: 0.10; fill: #444444; fill-opacity: 0.10;' />
<circle cx='373.55' cy='68.01' r='2.13' style='stroke-width: 0.00; stroke: #444444; stroke-opacity: 0.10; fill: #444444; fill-opacity: 0.10;' />
<circle cx='364.29' cy='72.47' r='2.13' style='stroke-width: 0.00; stroke: #444444; stroke-opacity: 0.10; fill: #444444; fill-opacity: 0.10;' />
<circle cx='365.21' cy='74.02' r='2.13' style='stroke-width: 0.00; stroke: #444444; stroke-opacity: 0.10; fill: #444444; fill-opacity: 0.10;' />
<circle cx='365.48' cy='59.70' r='2.13' style='stroke-width: 0.00; stroke: #444444; stroke-opacity: 0.10; fill: #444444; fill-opacity: 0.10;' />
<circle cx='391.16' cy='59.31' r='2.13' style='stroke-width: 0.00; stroke: #444444; stroke-opacity: 0.10; fill: #444444; fill-opacity: 0.10;' />
<circle cx='369.44' cy='61.40' r='2.13' style='stroke-width: 0.00; stroke: #444444; stroke-opacity: 0.10; fill: #444444; fill-opacity: 0.10;' />
<circle cx='387.85' cy='63.96' r='2.13' style='stroke-width: 0.00; stroke: #444444; stroke-opacity: 0.10; fill: #444444; fill-opacity: 0.10;' />
<circle cx='370.57' cy='72.76' r='2.13' style='stroke-width: 0.00; stroke: #444444; stroke-opacity: 0.10; fill: #444444; fill-opacity: 0.10;' />
<circle cx='391.55' cy='59.88' r='2.13' style='stroke-width: 0.00; stroke: #444444; stroke-opacity: 0.10; fill: #444444; fill-opacity: 0.10;' />
<circle cx='391.59' cy='67.80' r='2.13' style='stroke-width: 0.00; stroke: #444444; stroke-opacity: 0.10; fill: #444444; fill-opacity: 0.10;' />
<circle cx='371.26' cy='60.24' r='2.13' style='stroke-width: 0.00; stroke: #444444; stroke-opacity: 0.10; fill: #444444; fill-opacity: 0.10;' />
<circle cx='393.94' cy='74.41' r='2.13' style='stroke-width: 0.00; stroke: #444444; stroke-opacity: 0.10; fill: #444444; fill-opacity: 0.10;' />
<circle cx='374.46' cy='66.91' r='2.13' style='stroke-width: 0.00; stroke: #444444; stroke-opacity: 0.10; fill: #444444; fill-opacity: 0.10;' />
<circle cx='391.25' cy='72.55' r='2.13' style='stroke-width: 0.00; stroke: #444444; stroke-opacity: 0.10; fill: #444444; fill-opacity: 0.10;' />
<circle cx='394.49' cy='65.83' r='2.13' style='stroke-width: 0.00; stroke: #444444; stroke-opacity: 0.10; fill: #444444; fill-opacity: 0.10;' />
<circle cx='391.02' cy='66.66' r='2.13' style='stroke-width: 0.00; stroke: #444444; stroke-opacity: 0.10; fill: #444444; fill-opacity: 0.10;' />
<circle cx='393.23' cy='65.69' r='2.13' style='stroke-width: 0.00; stroke: #444444; stroke-opacity: 0.10; fill: #444444; fill-opacity: 0.10;' />
<circle cx='391.86' cy='68.81' r='2.13' style='stroke-width: 0.00; stroke: #444444; stroke-opacity: 0.10; fill: #444444; fill-opacity: 0.10;' />
<circle cx='372.53' cy='37.56' r='2.13' style='stroke-width: 0.00; stroke: #444444; stroke-opacity: 0.10; fill: #444444; fill-opacity: 0.10;' />
<circle cx='376.55' cy='46.15' r='2.13' style='stroke-width: 0.00; stroke: #444444; stroke-opacity: 0.10; fill: #444444; fill-opacity: 0.10;' />
<circle cx='373.43' cy='46.00' r='2.13' style='stroke-width: 0.00; stroke: #444444; stroke-opacity: 0.10; fill: #444444; fill-opacity: 0.10;' />
<circle cx='368.10' cy='33.21' r='2.13' style='stroke-width: 0.00; stroke: #444444; stroke-opacity: 0.10; fill: #444444; fill-opacity: 0.10;' />
<circle cx='380.97' cy='45.67' r='2.13' style='stroke-width: 0.00; stroke: #444444; stroke-opacity: 0.10; fill: #444444; fill-opacity: 0.10;' />
<circle cx='393.87' cy='34.35' r='2.13' style='stroke-width: 0.00; stroke: #444444; stroke-opacity: 0.10; fill: #444444; fill-opacity: 0.10;' />
<circle cx='363.11' cy='42.71' r='2.13' style='stroke-width: 0.00; stroke: #444444; stroke-opacity: 0.10; fill: #444444; fill-opacity: 0.10;' />
<circle cx='383.46' cy='37.45' r='2.13' style='stroke-width: 0.00; stroke: #444444; stroke-opacity: 0.10; fill: #444444; fill-opacity: 0.10;' />
<circle cx='384.86' cy='44.39' r='2.13' style='stroke-width: 0.00; stroke: #444444; stroke-opacity: 0.10; fill: #444444; fill-opacity: 0.10;' />
<circle cx='391.85' cy='34.74' r='2.13' style='stroke-width: 0.00; stroke: #444444; stroke-opacity: 0.10; fill: #444444; fill-opacity: 0.10;' />
<circle cx='377.69' cy='43.30' r='2.13' style='stroke-width: 0.00; stroke: #444444; stroke-opacity: 0.10; fill: #444444; fill-opacity: 0.10;' />
<circle cx='392.12' cy='44.55' r='2.13' style='stroke-width: 0.00; stroke: #444444; stroke-opacity: 0.10; fill: #444444; fill-opacity: 0.10;' />
<circle cx='393.41' cy='44.25' r='2.13' style='stroke-width: 0.00; stroke: #444444; stroke-opacity: 0.10; fill: #444444; fill-opacity: 0.10;' />
<circle cx='394.05' cy='43.13' r='2.13' style='stroke-width: 0.00; stroke: #444444; stroke-opacity: 0.10; fill: #444444; fill-opacity: 0.10;' />
<circle cx='372.28' cy='45.35' r='2.13' style='stroke-width: 0.00; stroke: #444444; stroke-opacity: 0.10; fill: #444444; fill-opacity: 0.10;' />
<circle cx='390.07' cy='47.71' r='2.13' style='stroke-width: 0.00; stroke: #444444; stroke-opacity: 0.10; fill: #444444; fill-opacity: 0.10;' />
<circle cx='382.95' cy='33.34' r='2.13' style='stroke-width: 0.00; stroke: #444444; stroke-opacity: 0.10; fill: #444444; fill-opacity: 0.10;' />
<circle cx='386.08' cy='33.57' r='2.13' style='stroke-width: 0.00; stroke: #444444; stroke-opacity: 0.10; fill: #444444; fill-opacity: 0.10;' />
<circle cx='392.71' cy='40.85' r='2.13' style='stroke-width: 0.00; stroke: #444444; stroke-opacity: 0.10; fill: #444444; fill-opacity: 0.10;' />
<circle cx='390.89' cy='44.56' r='2.13' style='stroke-width: 0.00; stroke: #444444; stroke-opacity: 0.10; fill: #444444; fill-opacity: 0.10;' />
<circle cx='383.56' cy='44.24' r='2.13' style='stroke-width: 0.00; stroke: #444444; stroke-opacity: 0.10; fill: #444444; fill-opacity: 0.10;' />
<circle cx='394.49' cy='34.92' r='2.13' style='stroke-width: 0.00; stroke: #444444; stroke-opacity: 0.10; fill: #444444; fill-opacity: 0.10;' />
<circle cx='391.28' cy='38.11' r='2.13' style='stroke-width: 0.00; stroke: #444444; stroke-opacity: 0.10; fill: #444444; fill-opacity: 0.10;' />
<circle cx='391.76' cy='39.85' r='2.13' style='stroke-width: 0.00; stroke: #444444; stroke-opacity: 0.10; fill: #444444; fill-opacity: 0.10;' />
<circle cx='393.65' cy='46.91' r='2.13' style='stroke-width: 0.00; stroke: #444444; stroke-opacity: 0.10; fill: #444444; fill-opacity: 0.10;' />
<polygon points='369.27,250.40 377.57,254.33 385.87,250.40 377.57,246.47 369.27,250.40 ' style='stroke-width: 1.07; stroke: #4F3754; stroke-linecap: butt; fill: #4F3754;' />
<polygon points='376.31,224.18 386.89,228.11 397.46,224.18 386.89,220.25 376.31,224.18 ' style='stroke-width: 1.07; stroke: #481654; stroke-linecap: butt; fill: #481654;' />
<polygon points='370.89,197.96 380.03,201.90 389.17,197.96 380.03,194.03 370.89,197.96 ' style='stroke-width: 1.07; stroke: #4D2E54; stroke-linecap: butt; fill: #4D2E54;' />
<polygon points='366.22,171.75 378.73,175.68 391.24,171.75 378.73,167.81 366.22,171.75 ' style='stroke-width: 1.07; stroke: #4E3354; stroke-linecap: butt; fill: #4E3354;' />
<polygon points='368.99,145.53 378.30,149.46 387.61,145.53 378.30,141.60 368.99,145.53 ' style='stroke-width: 1.07; stroke: #4E3554; stroke-linecap: butt; fill: #4E3554;' />
<polygon points='370.90,119.31 378.67,123.24 386.44,119.31 378.67,115.38 370.90,119.31 ' style='stroke-width: 1.07; stroke: #4E3354; stroke-linecap: butt; fill: #4E3354;' />
<polygon points='379.54,93.09 386.61,97.03 393.68,93.09 386.61,89.16 379.54,93.09 ' style='stroke-width: 1.07; stroke: #481754; stroke-linecap: butt; fill: #481754;' />
<polygon points='367.62,66.88 380.73,70.81 393.85,66.88 380.73,62.94 367.62,66.88 ' style='stroke-width: 1.07; stroke: #4C2C54; stroke-linecap: butt; fill: #4C2C54;' />
<polygon points='376.38,40.66 384.65,44.59 392.93,40.66 384.65,36.73 376.38,40.66 ' style='stroke-width: 1.07; stroke: #4A1E54; stroke-linecap: butt; fill: #4A1E54;' />
<rect x='343.86' y='21.99' width='56.15' height='246.90' style='stroke-width: 0.78; stroke: #333333;' />
</g>
<g clip-path='url(#cpMC4wMHw1MTAuMjR8MC4wMHwyOTEuNjk=)'>
<text x='340.27' y='252.69' text-anchor='end' style='font-size: 6.40px;fill: #4D4D4D; font-family: "Arial";' textLength='55.45px' lengthAdjust='spacingAndGlyphs'>strongly disapprove</text>
<text x='340.27' y='226.47' text-anchor='end' style='font-size: 6.40px;fill: #4D4D4D; font-family: "Arial";' textLength='55.45px' lengthAdjust='spacingAndGlyphs'>strongly disapprove</text>
<text x='340.27' y='200.25' text-anchor='end' style='font-size: 6.40px;fill: #4D4D4D; font-family: "Arial";' textLength='55.45px' lengthAdjust='spacingAndGlyphs'>strongly disapprove</text>
<text x='340.27' y='174.04' text-anchor='end' style='font-size: 6.40px;fill: #4D4D4D; font-family: "Arial";' textLength='55.45px' lengthAdjust='spacingAndGlyphs'>strongly disapprove</text>
<text x='340.27' y='147.82' text-anchor='end' style='font-size: 6.40px;fill: #4D4D4D; font-family: "Arial";' textLength='55.45px' lengthAdjust='spacingAndGlyphs'>strongly disapprove</text>
<text x='340.27' y='121.60' text-anchor='end' style='font-size: 6.40px;fill: #4D4D4D; font-family: "Arial";' textLength='55.45px' lengthAdjust='spacingAndGlyphs'>strongly disapprove</text>
<text x='340.27' y='95.38' text-anchor='end' style='font-size: 6.40px;fill: #4D4D4D; font-family: "Arial";' textLength='55.45px' lengthAdjust='spacingAndGlyphs'>strongly disapprove</text>
<text x='340.27' y='69.17' text-anchor='end' style='font-size: 6.40px;fill: #4D4D4D; font-family: "Arial";' textLength='55.45px' lengthAdjust='spacingAndGlyphs'>strongly disapprove</text>
<text x='340.27' y='42.95' text-anchor='end' style='font-size: 6.40px;fill: #4D4D4D; font-family: "Arial";' textLength='55.45px' lengthAdjust='spacingAndGlyphs'>strongly disapprove</text>
<polyline points='341.87,250.40 343.86,250.40 ' style='stroke-width: 0.78; stroke: #333333; stroke-linecap: butt;' />
<polyline points='341.87,224.18 343.86,224.18 ' style='stroke-width: 0.78; stroke: #333333; stroke-linecap: butt;' />
<polyline points='341.87,197.96 343.86,197.96 ' style='stroke-width: 0.78; stroke: #333333; stroke-linecap: butt;' />
<polyline points='341.87,171.75 343.86,171.75 ' style='stroke-width: 0.78; stroke: #333333; stroke-linecap: butt;' />
<polyline points='341.87,145.53 343.86,145.53 ' style='stroke-width: 0.78; stroke: #333333; stroke-linecap: butt;' />
<polyline points='341.87,119.31 343.86,119.31 ' style='stroke-width: 0.78; stroke: #333333; stroke-linecap: butt;' />
<polyline points='341.87,93.09 343.86,93.09 ' style='stroke-width: 0.78; stroke: #333333; stroke-linecap: butt;' />
<polyline points='341.87,66.88 343.86,66.88 ' style='stroke-width: 0.78; stroke: #333333; stroke-linecap: butt;' />
<polyline points='341.87,40.66 343.86,40.66 ' style='stroke-width: 0.78; stroke: #333333; stroke-linecap: butt;' />
<polyline points='402.00,250.40 400.01,250.40 ' style='stroke-width: 0.78; stroke: #333333; stroke-linecap: butt;' />
<polyline points='402.00,224.18 400.01,224.18 ' style='stroke-width: 0.78; stroke: #333333; stroke-linecap: butt;' />
<polyline points='402.00,197.96 400.01,197.96 ' style='stroke-width: 0.78; stroke: #333333; stroke-linecap: butt;' />
<polyline points='402.00,171.75 400.01,171.75 ' style='stroke-width: 0.78; stroke: #333333; stroke-linecap: butt;' />
<polyline points='402.00,145.53 400.01,145.53 ' style='stroke-width: 0.78; stroke: #333333; stroke-linecap: butt;' />
<polyline points='402.00,119.31 400.01,119.31 ' style='stroke-width: 0.78; stroke: #333333; stroke-linecap: butt;' />
<polyline points='402.00,93.09 400.01,93.09 ' style='stroke-width: 0.78; stroke: #333333; stroke-linecap: butt;' />
<polyline points='402.00,66.88 400.01,66.88 ' style='stroke-width: 0.78; stroke: #333333; stroke-linecap: butt;' />
<polyline points='402.00,40.66 400.01,40.66 ' style='stroke-width: 0.78; stroke: #333333; stroke-linecap: butt;' />
<text x='403.60' y='252.69' style='font-size: 6.40px;fill: #4D4D4D; font-family: "Arial";' textLength='47.28px' lengthAdjust='spacingAndGlyphs'>strongly approve</text>
<text x='403.60' y='226.47' style='font-size: 6.40px;fill: #4D4D4D; font-family: "Arial";' textLength='47.28px' lengthAdjust='spacingAndGlyphs'>strongly approve</text>
<text x='403.60' y='200.25' style='font-size: 6.40px;fill: #4D4D4D; font-family: "Arial";' textLength='47.28px' lengthAdjust='spacingAndGlyphs'>strongly approve</text>
<text x='403.60' y='174.04' style='font-size: 6.40px;fill: #4D4D4D; font-family: "Arial";' textLength='47.28px' lengthAdjust='spacingAndGlyphs'>strongly approve</text>
<text x='403.60' y='147.82' style='font-size: 6.40px;fill: #4D4D4D; font-family: "Arial";' textLength='47.28px' lengthAdjust='spacingAndGlyphs'>strongly approve</text>
<text x='403.60' y='121.60' style='font-size: 6.40px;fill: #4D4D4D; font-family: "Arial";' textLength='47.28px' lengthAdjust='spacingAndGlyphs'>strongly approve</text>
<text x='403.60' y='95.38' style='font-size: 6.40px;fill: #4D4D4D; font-family: "Arial";' textLength='47.28px' lengthAdjust='spacingAndGlyphs'>strongly approve</text>
<text x='403.60' y='69.17' style='font-size: 6.40px;fill: #4D4D4D; font-family: "Arial";' textLength='47.28px' lengthAdjust='spacingAndGlyphs'>strongly approve</text>
<text x='403.60' y='42.95' style='font-size: 6.40px;fill: #4D4D4D; font-family: "Arial";' textLength='47.28px' lengthAdjust='spacingAndGlyphs'>strongly approve</text>
<polyline points='346.31,270.88 346.31,268.89 ' style='stroke-width: 0.78; stroke: #333333; stroke-linecap: butt;' />
<polyline points='350.94,270.88 350.94,268.89 ' style='stroke-width: 0.78; stroke: #333333; stroke-linecap: butt;' />
<polyline points='355.57,270.88 355.57,268.89 ' style='stroke-width: 0.78; stroke: #333333; stroke-linecap: butt;' />
<polyline points='360.21,270.88 360.21,268.89 ' style='stroke-width: 0.78; stroke: #333333; stroke-linecap: butt;' />
<polyline points='364.84,270.88 364.84,268.89 ' style='stroke-width: 0.78; stroke: #333333; stroke-linecap: butt;' />
<polyline points='369.47,270.88 369.47,268.89 ' style='stroke-width: 0.78; stroke: #333333; stroke-linecap: butt;' />
<polyline points='374.10,270.88 374.10,268.89 ' style='stroke-width: 0.78; stroke: #333333; stroke-linecap: butt;' />
<polyline points='378.73,270.88 378.73,268.89 ' style='stroke-width: 0.78; stroke: #333333; stroke-linecap: butt;' />
<polyline points='383.36,270.88 383.36,268.89 ' style='stroke-width: 0.78; stroke: #333333; stroke-linecap: butt;' />
<polyline points='387.99,270.88 387.99,268.89 ' style='stroke-width: 0.78; stroke: #333333; stroke-linecap: butt;' />
<polyline points='392.62,270.88 392.62,268.89 ' style='stroke-width: 0.78; stroke: #333333; stroke-linecap: butt;' />
<text x='346.31' y='277.06' text-anchor='middle' style='font-size: 6.40px;fill: #4D4D4D; font-family: "Arial";' textLength='5.69px' lengthAdjust='spacingAndGlyphs'>-5</text>
<text x='350.94' y='277.06' text-anchor='middle' style='font-size: 6.40px;fill: #4D4D4D; font-family: "Arial";' textLength='5.69px' lengthAdjust='spacingAndGlyphs'>-4</text>
<text x='355.57' y='277.06' text-anchor='middle' style='font-size: 6.40px;fill: #4D4D4D; font-family: "Arial";' textLength='5.69px' lengthAdjust='spacingAndGlyphs'>-3</text>
<text x='360.21' y='277.06' text-anchor='middle' style='font-size: 6.40px;fill: #4D4D4D; font-family: "Arial";' textLength='5.69px' lengthAdjust='spacingAndGlyphs'>-2</text>
<text x='364.84' y='277.06' text-anchor='middle' style='font-size: 6.40px;fill: #4D4D4D; font-family: "Arial";' textLength='5.69px' lengthAdjust='spacingAndGlyphs'>-1</text>
<text x='369.47' y='277.06' text-anchor='middle' style='font-size: 6.40px;fill: #4D4D4D; font-family: "Arial";' textLength='3.56px' lengthAdjust='spacingAndGlyphs'>0</text>
<text x='374.10' y='277.06' text-anchor='middle' style='font-size: 6.40px;fill: #4D4D4D; font-family: "Arial";' textLength='3.56px' lengthAdjust='spacingAndGlyphs'>1</text>
<text x='378.73' y='277.06' text-anchor='middle' style='font-size: 6.40px;fill: #4D4D4D; font-family: "Arial";' textLength='3.56px' lengthAdjust='spacingAndGlyphs'>2</text>
<text x='383.36' y='277.06' text-anchor='middle' style='font-size: 6.40px;fill: #4D4D4D; font-family: "Arial";' textLength='3.56px' lengthAdjust='spacingAndGlyphs'>3</text>
<text x='387.99' y='277.06' text-anchor='middle' style='font-size: 6.40px;fill: #4D4D4D; font-family: "Arial";' textLength='3.56px' lengthAdjust='spacingAndGlyphs'>4</text>
<text x='392.62' y='277.06' text-anchor='middle' style='font-size: 6.40px;fill: #4D4D4D; font-family: "Arial";' textLength='3.56px' lengthAdjust='spacingAndGlyphs'>5</text>
<text x='371.93' y='286.20' text-anchor='middle' style='font-size: 8.00px; font-family: "Arial";' textLength='84.07px' lengthAdjust='spacingAndGlyphs'>Scores and 99.99% CIs</text>
</g>
<defs>
  <clipPath id='cpMC4wMHwyODEuNjl8MjEuOTl8MjY4Ljg5'>
    <rect x='0.00' y='21.99' width='281.69' height='246.90' />
  </clipPath>
</defs>
<g clip-path='url(#cpMC4wMHwyODEuNjl8MjEuOTl8MjY4Ljg5)'>
</g>
<g clip-path='url(#cpMC4wMHw1MTAuMjR8MC4wMHwyOTEuNjk=)'>
<text x='3.59' y='245.60' style='font-size: 8.00px; font-family: "Arial";' textLength='248.59px' lengthAdjust='spacingAndGlyphs'>NrmInApFriends * NrmInMcFriends [If I were to keep at least {distRec}</text>
<text x='3.59' y='254.24' style='font-size: 8.00px; font-family: "Arial";' textLength='148.10px' lengthAdjust='spacingAndGlyphs'>distance from others, my friends would ...]</text>
<text x='3.59' y='262.88' style='font-size: 8.00px; font-family: "Arial";' textLength='57.36px' lengthAdjust='spacingAndGlyphs'>[NrmIn_Friends]</text>
<text x='3.59' y='219.18' style='font-size: 8.00px; font-family: "Arial";' textLength='242.35px' lengthAdjust='spacingAndGlyphs'>NrmInApDoctor * NrmInMcDoctor [If I were to keep at least {distRec}</text>
<text x='3.59' y='227.82' style='font-size: 8.00px; font-family: "Arial";' textLength='146.33px' lengthAdjust='spacingAndGlyphs'>distance from others, my doctor would ...]</text>
<text x='3.59' y='236.46' style='font-size: 8.00px; font-family: "Arial";' textLength='54.24px' lengthAdjust='spacingAndGlyphs'>[NrmIn_Doctor]</text>
<text x='3.59' y='192.77' style='font-size: 8.00px; font-family: "Arial";' textLength='271.73px' lengthAdjust='spacingAndGlyphs'>NrmInApHousehold * NrmInMcHousehold [If I were to keep at least {distRec}</text>
<text x='3.59' y='201.41' style='font-size: 8.00px; font-family: "Arial";' textLength='195.72px' lengthAdjust='spacingAndGlyphs'>distance from others, people in my household would ...]</text>
<text x='3.59' y='210.05' style='font-size: 8.00px; font-family: "Arial";' textLength='68.93px' lengthAdjust='spacingAndGlyphs'>[NrmIn_Household]</text>
<text x='3.59' y='166.36' style='font-size: 8.00px; font-family: "Arial";' textLength='252.14px' lengthAdjust='spacingAndGlyphs'>NrmInApGeneral * NrmInMcGeneral [If I were to keep at least {distRec}</text>
<text x='3.59' y='175.00' style='font-size: 8.00px; font-family: "Arial";' textLength='172.59px' lengthAdjust='spacingAndGlyphs'>distance from others, people in general would ...]</text>
<text x='3.59' y='183.64' style='font-size: 8.00px; font-family: "Arial";' textLength='59.13px' lengthAdjust='spacingAndGlyphs'>[NrmIn_General]</text>
<text x='3.59' y='139.95' style='font-size: 8.00px; font-family: "Arial";' textLength='269.05px' lengthAdjust='spacingAndGlyphs'>NrmInApNeighbrhd * NrmInMcNeighbrhd [If I were to keep at least {distRec}</text>
<text x='3.59' y='148.59' style='font-size: 8.00px; font-family: "Arial";' textLength='212.18px' lengthAdjust='spacingAndGlyphs'>distance from others, people in my neighbourhood would ...]</text>
<text x='3.59' y='157.23' style='font-size: 8.00px; font-family: "Arial";' textLength='67.59px' lengthAdjust='spacingAndGlyphs'>[NrmIn_Neighbrhd]</text>
<text x='3.59' y='113.53' style='font-size: 8.00px; font-family: "Arial";' textLength='241.03px' lengthAdjust='spacingAndGlyphs'>NrmInApColleagues * NrmInMcColleagues [If I were to keep at least</text>
<text x='3.59' y='122.17' style='font-size: 8.00px; font-family: "Arial";' textLength='196.60px' lengthAdjust='spacingAndGlyphs'>{distRec} distance from others, my colleagues would ...]</text>
<text x='3.59' y='130.81' style='font-size: 8.00px; font-family: "Arial";' textLength='70.70px' lengthAdjust='spacingAndGlyphs'>[NrmIn_Colleagues]</text>
<text x='3.59' y='87.12' style='font-size: 8.00px; font-family: "Arial";' textLength='242.34px' lengthAdjust='spacingAndGlyphs'>NrmInApFamily * NrmInMcFamily [If I were to keep at least {distRec}</text>
<text x='3.59' y='95.76' style='font-size: 8.00px; font-family: "Arial";' textLength='144.98px' lengthAdjust='spacingAndGlyphs'>distance from others, my family would ...]</text>
<text x='3.59' y='104.40' style='font-size: 8.00px; font-family: "Arial";' textLength='54.23px' lengthAdjust='spacingAndGlyphs'>[NrmIn_Family]</text>
<text x='3.59' y='60.71' style='font-size: 8.00px; font-family: "Arial";' textLength='249.01px' lengthAdjust='spacingAndGlyphs'>NrmInApGovernment * NrmInMcGovernment [If I were to keep at least</text>
<text x='3.59' y='69.35' style='font-size: 8.00px; font-family: "Arial";' textLength='200.58px' lengthAdjust='spacingAndGlyphs'>{distRec} distance from others, my government would ...]</text>
<text x='3.59' y='77.99' style='font-size: 8.00px; font-family: "Arial";' textLength='74.69px' lengthAdjust='spacingAndGlyphs'>[NrmIn_Government]</text>
<text x='3.59' y='34.29' style='font-size: 8.00px; font-family: "Arial";' textLength='246.80px' lengthAdjust='spacingAndGlyphs'>NrmInApLikeMe * NrmInMcLikeMe [If I were to keep at least {distRec}</text>
<text x='3.59' y='42.93' style='font-size: 8.00px; font-family: "Arial";' textLength='162.79px' lengthAdjust='spacingAndGlyphs'>distance from others, people like me would ...]</text>
<text x='3.59' y='51.57' style='font-size: 8.00px; font-family: "Arial";' textLength='56.46px' lengthAdjust='spacingAndGlyphs'>[NrmIn_LikeMe]</text>
</g>
<g clip-path='url(#cpMC4wMHwyODEuNjl8MjEuOTl8MjY4Ljg5)'>
</g>
<g clip-path='url(#cpMC4wMHw1MTAuMjR8MC4wMHwyOTEuNjk=)'>
</g>
<defs>
  <clipPath id='cpNDU0LjA4fDUxMC4yNHwxOC4wMHwyOTEuNjk='>
    <rect x='454.08' y='18.00' width='56.15' height='273.69' />
  </clipPath>
</defs>
<g clip-path='url(#cpNDU0LjA4fDUxMC4yNHwxOC4wMHwyOTEuNjk=)'>
<rect x='454.08' y='18.00' width='56.15' height='273.69' style='stroke-width: 0.78; stroke: #FFFFFF; fill: #FFFFFF;' />
</g>
<defs>
  <clipPath id='cpNDU4LjA3fDUwNi4yNXwyMS45OXwyNjguODk='>
    <rect x='458.07' y='21.99' width='48.18' height='246.90' />
  </clipPath>
</defs>
<g clip-path='url(#cpNDU4LjA3fDUwNi4yNXwyMS45OXwyNjguODk=)'>
<rect x='458.07' y='21.99' width='48.18' height='246.90' style='stroke-width: 0.78; stroke: none; fill: #FFFFFF;' />
<polyline points='465.73,268.89 465.73,21.99 ' style='stroke-width: 0.39; stroke: #EBEBEB; stroke-linecap: butt;' />
<polyline points='476.68,268.89 476.68,21.99 ' style='stroke-width: 0.39; stroke: #EBEBEB; stroke-linecap: butt;' />
<polyline points='487.63,268.89 487.63,21.99 ' style='stroke-width: 0.39; stroke: #EBEBEB; stroke-linecap: butt;' />
<polyline points='498.59,268.89 498.59,21.99 ' style='stroke-width: 0.39; stroke: #EBEBEB; stroke-linecap: butt;' />
<polyline points='460.26,268.89 460.26,21.99 ' style='stroke-width: 0.78; stroke: #EBEBEB; stroke-linecap: butt;' />
<polyline points='471.21,268.89 471.21,21.99 ' style='stroke-width: 0.78; stroke: #EBEBEB; stroke-linecap: butt;' />
<polyline points='482.16,268.89 482.16,21.99 ' style='stroke-width: 0.78; stroke: #EBEBEB; stroke-linecap: butt;' />
<polyline points='493.11,268.89 493.11,21.99 ' style='stroke-width: 0.78; stroke: #EBEBEB; stroke-linecap: butt;' />
<polyline points='504.06,268.89 504.06,21.99 ' style='stroke-width: 0.78; stroke: #EBEBEB; stroke-linecap: butt;' />
<line x1='471.21' y1='268.89' x2='471.21' y2='21.99' style='stroke-width: 1.07; stroke: #BEBEBE; stroke-linecap: butt;' />
<line x1='482.16' y1='268.89' x2='482.16' y2='21.99' style='stroke-width: 1.07; stroke: #BEBEBE; stroke-linecap: butt;' />
<line x1='493.11' y1='268.89' x2='493.11' y2='21.99' style='stroke-width: 1.07; stroke: #BEBEBE; stroke-linecap: butt;' />
<polygon points='467.64,253.61 475.32,257.67 485.47,253.61 475.32,249.55 467.64,253.61 ' style='stroke-width: 2.13; stroke-linecap: butt; fill: #446766; fill-opacity: 0.50;' />
<polygon points='472.17,226.57 479.97,230.62 488.37,226.57 479.97,222.51 472.17,226.57 ' style='stroke-width: 2.13; stroke-linecap: butt; fill: #4F5B5A; fill-opacity: 0.50;' />
<polygon points='475.98,199.52 482.96,203.58 489.78,199.52 482.96,195.47 475.98,199.52 ' style='stroke-width: 2.13; stroke-linecap: butt; fill: #545255; fill-opacity: 0.50;' />
<polygon points='475.51,172.48 485.13,176.54 493.70,172.48 485.13,168.42 475.51,172.48 ' style='stroke-width: 2.13; stroke-linecap: butt; fill: #524955; fill-opacity: 0.50;' />
<polygon points='477.86,145.44 486.17,149.49 493.44,145.44 486.17,141.38 477.86,145.44 ' style='stroke-width: 2.13; stroke-linecap: butt; fill: #524554; fill-opacity: 0.50;' />
<polygon points='477.92,118.39 486.57,122.45 493.99,118.39 486.57,114.34 477.92,118.39 ' style='stroke-width: 2.13; stroke-linecap: butt; fill: #514454; fill-opacity: 0.50;' />
<polygon points='479.36,91.35 486.86,95.41 493.36,91.35 486.86,87.29 479.36,91.35 ' style='stroke-width: 2.13; stroke-linecap: butt; fill: #514354; fill-opacity: 0.50;' />
<polygon points='478.05,64.31 488.25,68.36 496.21,64.31 488.25,60.25 478.05,64.31 ' style='stroke-width: 2.13; stroke-linecap: butt; fill: #503D54; fill-opacity: 0.50;' />
<polygon points='480.41,37.26 489.29,41.32 496.15,37.26 489.29,33.21 480.41,37.26 ' style='stroke-width: 2.13; stroke-linecap: butt; fill: #4F3954; fill-opacity: 0.50;' />
<rect x='458.07' y='21.99' width='48.18' height='246.90' style='stroke-width: 0.78; stroke: #333333;' />
</g>
<g clip-path='url(#cpNDU0LjA4fDUxMC4yNHwxOC4wMHwyOTEuNjk=)'>
</g>
<g clip-path='url(#cpMC4wMHw1MTAuMjR8MC4wMHwyOTEuNjk=)'>
</g>
<g clip-path='url(#cpNDU0LjA4fDUxMC4yNHwxOC4wMHwyOTEuNjk=)'>
</g>
<g clip-path='url(#cpMC4wMHw1MTAuMjR8MC4wMHwyOTEuNjk=)'>
</g>
<g clip-path='url(#cpNDU0LjA4fDUxMC4yNHwxOC4wMHwyOTEuNjk=)'>
</g>
<g clip-path='url(#cpMC4wMHw1MTAuMjR8MC4wMHwyOTEuNjk=)'>
</g>
<g clip-path='url(#cpNDU0LjA4fDUxMC4yNHwxOC4wMHwyOTEuNjk=)'>
</g>
<g clip-path='url(#cpMC4wMHw1MTAuMjR8MC4wMHwyOTEuNjk=)'>
</g>
<g clip-path='url(#cpNDU0LjA4fDUxMC4yNHwxOC4wMHwyOTEuNjk=)'>
</g>
<g clip-path='url(#cpMC4wMHw1MTAuMjR8MC4wMHwyOTEuNjk=)'>
</g>
<g clip-path='url(#cpNDU0LjA4fDUxMC4yNHwxOC4wMHwyOTEuNjk=)'>
</g>
<g clip-path='url(#cpMC4wMHw1MTAuMjR8MC4wMHwyOTEuNjk=)'>
</g>
<g clip-path='url(#cpNDU0LjA4fDUxMC4yNHwxOC4wMHwyOTEuNjk=)'>
</g>
<g clip-path='url(#cpMC4wMHw1MTAuMjR8MC4wMHwyOTEuNjk=)'>
</g>
<g clip-path='url(#cpNDU0LjA4fDUxMC4yNHwxOC4wMHwyOTEuNjk=)'>
</g>
<g clip-path='url(#cpMC4wMHw1MTAuMjR8MC4wMHwyOTEuNjk=)'>
<polyline points='460.26,270.88 460.26,268.89 ' style='stroke-width: 0.78; stroke: #333333; stroke-linecap: butt;' />
<polyline points='471.21,270.88 471.21,268.89 ' style='stroke-width: 0.78; stroke: #333333; stroke-linecap: butt;' />
<polyline points='482.16,270.88 482.16,268.89 ' style='stroke-width: 0.78; stroke: #333333; stroke-linecap: butt;' />
<polyline points='493.11,270.88 493.11,268.89 ' style='stroke-width: 0.78; stroke: #333333; stroke-linecap: butt;' />
<polyline points='504.06,270.88 504.06,268.89 ' style='stroke-width: 0.78; stroke: #333333; stroke-linecap: butt;' />
<text x='460.26' y='277.06' text-anchor='middle' style='font-size: 6.40px;fill: #4D4D4D; font-family: "Arial";' textLength='11.02px' lengthAdjust='spacingAndGlyphs'>-1.0</text>
<text x='471.21' y='277.06' text-anchor='middle' style='font-size: 6.40px;fill: #4D4D4D; font-family: "Arial";' textLength='11.02px' lengthAdjust='spacingAndGlyphs'>-0.5</text>
<text x='482.16' y='277.06' text-anchor='middle' style='font-size: 6.40px;fill: #4D4D4D; font-family: "Arial";' textLength='8.89px' lengthAdjust='spacingAndGlyphs'>0.0</text>
<text x='493.11' y='277.06' text-anchor='middle' style='font-size: 6.40px;fill: #4D4D4D; font-family: "Arial";' textLength='8.89px' lengthAdjust='spacingAndGlyphs'>0.5</text>
<text x='504.06' y='277.06' text-anchor='middle' style='font-size: 6.40px;fill: #4D4D4D; font-family: "Arial";' textLength='8.89px' lengthAdjust='spacingAndGlyphs'>1.0</text>
</g>
<g clip-path='url(#cpNDU0LjA4fDUxMC4yNHwxOC4wMHwyOTEuNjk=)'>
</g>
<g clip-path='url(#cpMC4wMHw1MTAuMjR8MC4wMHwyOTEuNjk=)'>
</g>
<g clip-path='url(#cpNDU0LjA4fDUxMC4yNHwxOC4wMHwyOTEuNjk=)'>
</g>
<g clip-path='url(#cpMC4wMHw1MTAuMjR8MC4wMHwyOTEuNjk=)'>
<text x='482.16' y='286.20' text-anchor='middle' style='font-size: 8.00px; font-family: "Arial";' textLength='85.41px' lengthAdjust='spacingAndGlyphs'>95% CIs of associations</text>
</g>
<g clip-path='url(#cpNDU0LjA4fDUxMC4yNHwxOC4wMHwyOTEuNjk=)'>
</g>
<g clip-path='url(#cpMC4wMHw1MTAuMjR8MC4wMHwyOTEuNjk=)'>
</g>
<g clip-path='url(#cpNDU0LjA4fDUxMC4yNHwxOC4wMHwyOTEuNjk=)'>
</g>
<g clip-path='url(#cpMC4wMHw1MTAuMjR8MC4wMHwyOTEuNjk=)'>
</g>
<g clip-path='url(#cpNDU0LjA4fDUxMC4yNHwxOC4wMHwyOTEuNjk=)'>
</g>
<g clip-path='url(#cpMC4wMHw1MTAuMjR8MC4wMHwyOTEuNjk=)'>
</g>
<g clip-path='url(#cpNDU0LjA4fDUxMC4yNHwxOC4wMHwyOTEuNjk=)'>
</g>
<g clip-path='url(#cpMC4wMHw1MTAuMjR8MC4wMHwyOTEuNjk=)'>
</g>
<g clip-path='url(#cpNDU0LjA4fDUxMC4yNHwxOC4wMHwyOTEuNjk=)'>
</g>
<g clip-path='url(#cpMC4wMHw1MTAuMjR8MC4wMHwyOTEuNjk=)'>
</g>
<g clip-path='url(#cpNDU0LjA4fDUxMC4yNHwxOC4wMHwyOTEuNjk=)'>
</g>
<g clip-path='url(#cpMC4wMHw1MTAuMjR8MC4wMHwyOTEuNjk=)'>
</g>
<g clip-path='url(#cpNDU0LjA4fDUxMC4yNHwxOC4wMHwyOTEuNjk=)'>
</g>
<g clip-path='url(#cpMC4wMHw1MTAuMjR8MC4wMHwyOTEuNjk=)'>
</g>
<g clip-path='url(#cpNDU0LjA4fDUxMC4yNHwxOC4wMHwyOTEuNjk=)'>
</g>
<g clip-path='url(#cpMC4wMHw1MTAuMjR8MC4wMHwyOTEuNjk=)'>
</g>
<g clip-path='url(#cpNDU0LjA4fDUxMC4yNHwxOC4wMHwyOTEuNjk=)'>
</g>
<g clip-path='url(#cpMC4wMHw1MTAuMjR8MC4wMHwyOTEuNjk=)'>
</g>
<g clip-path='url(#cpNDU0LjA4fDUxMC4yNHwxOC4wMHwyOTEuNjk=)'>
</g>
<g clip-path='url(#cpMC4wMHw1MTAuMjR8MC4wMHwyOTEuNjk=)'>
</g>
<g clip-path='url(#cpNDU0LjA4fDUxMC4yNHwxOC4wMHwyOTEuNjk=)'>
</g>
<g clip-path='url(#cpMC4wMHw1MTAuMjR8MC4wMHwyOTEuNjk=)'>
<text x='2.30' y='8.78' style='font-size: 9.60px; font-weight: bold; font-family: "Arial";' textLength='147.66px' lengthAdjust='spacingAndGlyphs'>Means and associations (r) with </text>
<text x='149.96' y='8.78' style='font-size: 9.60px; font-weight: bold; font-family: "Arial";' textLength='43.17px' lengthAdjust='spacingAndGlyphs'>proximity</text>
<text x='193.13' y='8.78' style='font-size: 9.60px; font-weight: bold; font-family: "Arial";' textLength='2.66px' lengthAdjust='spacingAndGlyphs'> </text>
</g>
</svg>
