<?xml version='1.0' encoding='UTF-8' ?>
<svg xmlns='http://www.w3.org/2000/svg' xmlns:xlink='http://www.w3.org/1999/xlink' class='svglite' width='510.24pt' height='142.87pt' viewBox='0 0 510.24 142.87'>
<defs>
  <style type='text/css'><![CDATA[
    .svglite line, .svglite polyline, .svglite polygon, .svglite path, .svglite rect, .svglite circle {
      fill: none;
      stroke: #000000;
      stroke-linecap: round;
      stroke-linejoin: round;
      stroke-miterlimit: 10.00;
    }
    .svglite text {
      white-space: pre;
    }
  ]]></style>
</defs>
<rect width='100%' height='100%' style='stroke: none; fill: none;'/>
<defs>
  <clipPath id='cpMC4wMHw1MTAuMjR8MC4wMHwxNDIuODc='>
    <rect x='0.00' y='0.00' width='510.24' height='142.87' />
  </clipPath>
</defs>
<g clip-path='url(#cpMC4wMHw1MTAuMjR8MC4wMHwxNDIuODc=)'>
</g>
<defs>
  <clipPath id='cpMjcyLjA5fDQ1NC45OHwxOC4wMHwxNDIuODc='>
    <rect x='272.09' y='18.00' width='182.90' height='124.87' />
  </clipPath>
</defs>
<g clip-path='url(#cpMjcyLjA5fDQ1NC45OHwxOC4wMHwxNDIuODc=)'>
<rect x='272.09' y='18.00' width='182.90' height='124.87' style='stroke-width: 0.78; stroke: #FFFFFF; fill: #FFFFFF;' />
</g>
<g clip-path='url(#cpMC4wMHw1MTAuMjR8MC4wMHwxNDIuODc=)'>
</g>
<defs>
  <clipPath id='cpMzM5LjA2fDM5NC4zMXwyMS45OXwxMjAuMDc='>
    <rect x='339.06' y='21.99' width='55.25' height='98.09' />
  </clipPath>
</defs>
<g clip-path='url(#cpMzM5LjA2fDM5NC4zMXwyMS45OXwxMjAuMDc=)'>
<rect x='339.06' y='21.99' width='55.25' height='98.09' style='stroke-width: 0.78; stroke: none; fill: #FFFFFF;' />
<polyline points='340.94,120.07 340.94,21.99 ' style='stroke-width: 0.39; stroke: #EBEBEB; stroke-linecap: butt;' />
<polyline points='351.25,120.07 351.25,21.99 ' style='stroke-width: 0.39; stroke: #EBEBEB; stroke-linecap: butt;' />
<polyline points='361.56,120.07 361.56,21.99 ' style='stroke-width: 0.39; stroke: #EBEBEB; stroke-linecap: butt;' />
<polyline points='371.87,120.07 371.87,21.99 ' style='stroke-width: 0.39; stroke: #EBEBEB; stroke-linecap: butt;' />
<polyline points='382.18,120.07 382.18,21.99 ' style='stroke-width: 0.39; stroke: #EBEBEB; stroke-linecap: butt;' />
<polyline points='392.49,120.07 392.49,21.99 ' style='stroke-width: 0.39; stroke: #EBEBEB; stroke-linecap: butt;' />
<polyline points='339.06,108.50 394.31,108.50 ' style='stroke-width: 0.78; stroke: #EBEBEB; stroke-linecap: butt;' />
<polyline points='339.06,83.64 394.31,83.64 ' style='stroke-width: 0.78; stroke: #EBEBEB; stroke-linecap: butt;' />
<polyline points='339.06,58.77 394.31,58.77 ' style='stroke-width: 0.78; stroke: #EBEBEB; stroke-linecap: butt;' />
<polyline points='339.06,33.90 394.31,33.90 ' style='stroke-width: 0.78; stroke: #EBEBEB; stroke-linecap: butt;' />
<polyline points='346.10,120.07 346.10,21.99 ' style='stroke-width: 0.78; stroke: #EBEBEB; stroke-linecap: butt;' />
<polyline points='356.40,120.07 356.40,21.99 ' style='stroke-width: 0.78; stroke: #EBEBEB; stroke-linecap: butt;' />
<polyline points='366.71,120.07 366.71,21.99 ' style='stroke-width: 0.78; stroke: #EBEBEB; stroke-linecap: butt;' />
<polyline points='377.02,120.07 377.02,21.99 ' style='stroke-width: 0.78; stroke: #EBEBEB; stroke-linecap: butt;' />
<polyline points='387.33,120.07 387.33,21.99 ' style='stroke-width: 0.78; stroke: #EBEBEB; stroke-linecap: butt;' />
<circle cx='343.98' cy='102.62' r='2.13' style='stroke-width: 0.00; stroke: #444444; stroke-opacity: 0.10; fill: #444444; fill-opacity: 0.10;' />
<circle cx='343.52' cy='113.44' r='2.13' style='stroke-width: 0.00; stroke: #444444; stroke-opacity: 0.10; fill: #444444; fill-opacity: 0.10;' />
<circle cx='384.01' cy='102.18' r='2.13' style='stroke-width: 0.00; stroke: #444444; stroke-opacity: 0.10; fill: #444444; fill-opacity: 0.10;' />
<circle cx='347.31' cy='111.76' r='2.13' style='stroke-width: 0.00; stroke: #444444; stroke-opacity: 0.10; fill: #444444; fill-opacity: 0.10;' />
<circle cx='344.91' cy='114.25' r='2.13' style='stroke-width: 0.00; stroke: #444444; stroke-opacity: 0.10; fill: #444444; fill-opacity: 0.10;' />
<circle cx='349.54' cy='110.63' r='2.13' style='stroke-width: 0.00; stroke: #444444; stroke-opacity: 0.10; fill: #444444; fill-opacity: 0.10;' />
<circle cx='348.85' cy='112.89' r='2.13' style='stroke-width: 0.00; stroke: #444444; stroke-opacity: 0.10; fill: #444444; fill-opacity: 0.10;' />
<circle cx='350.15' cy='115.20' r='2.13' style='stroke-width: 0.00; stroke: #444444; stroke-opacity: 0.10; fill: #444444; fill-opacity: 0.10;' />
<circle cx='346.48' cy='114.90' r='2.13' style='stroke-width: 0.00; stroke: #444444; stroke-opacity: 0.10; fill: #444444; fill-opacity: 0.10;' />
<circle cx='353.00' cy='108.14' r='2.13' style='stroke-width: 0.00; stroke: #444444; stroke-opacity: 0.10; fill: #444444; fill-opacity: 0.10;' />
<circle cx='348.26' cy='104.50' r='2.13' style='stroke-width: 0.00; stroke: #444444; stroke-opacity: 0.10; fill: #444444; fill-opacity: 0.10;' />
<circle cx='349.01' cy='108.84' r='2.13' style='stroke-width: 0.00; stroke: #444444; stroke-opacity: 0.10; fill: #444444; fill-opacity: 0.10;' />
<circle cx='342.83' cy='113.82' r='2.13' style='stroke-width: 0.00; stroke: #444444; stroke-opacity: 0.10; fill: #444444; fill-opacity: 0.10;' />
<circle cx='354.00' cy='108.28' r='2.13' style='stroke-width: 0.00; stroke: #444444; stroke-opacity: 0.10; fill: #444444; fill-opacity: 0.10;' />
<circle cx='350.56' cy='102.28' r='2.13' style='stroke-width: 0.00; stroke: #444444; stroke-opacity: 0.10; fill: #444444; fill-opacity: 0.10;' />
<circle cx='359.99' cy='103.34' r='2.13' style='stroke-width: 0.00; stroke: #444444; stroke-opacity: 0.10; fill: #444444; fill-opacity: 0.10;' />
<circle cx='350.21' cy='108.00' r='2.13' style='stroke-width: 0.00; stroke: #444444; stroke-opacity: 0.10; fill: #444444; fill-opacity: 0.10;' />
<circle cx='347.40' cy='115.61' r='2.13' style='stroke-width: 0.00; stroke: #444444; stroke-opacity: 0.10; fill: #444444; fill-opacity: 0.10;' />
<circle cx='346.53' cy='102.19' r='2.13' style='stroke-width: 0.00; stroke: #444444; stroke-opacity: 0.10; fill: #444444; fill-opacity: 0.10;' />
<circle cx='343.05' cy='112.26' r='2.13' style='stroke-width: 0.00; stroke: #444444; stroke-opacity: 0.10; fill: #444444; fill-opacity: 0.10;' />
<circle cx='342.57' cy='106.54' r='2.13' style='stroke-width: 0.00; stroke: #444444; stroke-opacity: 0.10; fill: #444444; fill-opacity: 0.10;' />
<circle cx='342.80' cy='104.99' r='2.13' style='stroke-width: 0.00; stroke: #444444; stroke-opacity: 0.10; fill: #444444; fill-opacity: 0.10;' />
<circle cx='348.86' cy='104.21' r='2.13' style='stroke-width: 0.00; stroke: #444444; stroke-opacity: 0.10; fill: #444444; fill-opacity: 0.10;' />
<circle cx='350.16' cy='111.16' r='2.13' style='stroke-width: 0.00; stroke: #444444; stroke-opacity: 0.10; fill: #444444; fill-opacity: 0.10;' />
<circle cx='353.59' cy='115.15' r='2.13' style='stroke-width: 0.00; stroke: #444444; stroke-opacity: 0.10; fill: #444444; fill-opacity: 0.10;' />
<circle cx='387.20' cy='102.90' r='2.13' style='stroke-width: 0.00; stroke: #444444; stroke-opacity: 0.10; fill: #444444; fill-opacity: 0.10;' />
<circle cx='345.34' cy='113.36' r='2.13' style='stroke-width: 0.00; stroke: #444444; stroke-opacity: 0.10; fill: #444444; fill-opacity: 0.10;' />
<circle cx='349.17' cy='107.52' r='2.13' style='stroke-width: 0.00; stroke: #444444; stroke-opacity: 0.10; fill: #444444; fill-opacity: 0.10;' />
<circle cx='347.97' cy='104.41' r='2.13' style='stroke-width: 0.00; stroke: #444444; stroke-opacity: 0.10; fill: #444444; fill-opacity: 0.10;' />
<circle cx='345.81' cy='112.42' r='2.13' style='stroke-width: 0.00; stroke: #444444; stroke-opacity: 0.10; fill: #444444; fill-opacity: 0.10;' />
<circle cx='348.46' cy='107.43' r='2.13' style='stroke-width: 0.00; stroke: #444444; stroke-opacity: 0.10; fill: #444444; fill-opacity: 0.10;' />
<circle cx='345.04' cy='113.44' r='2.13' style='stroke-width: 0.00; stroke: #444444; stroke-opacity: 0.10; fill: #444444; fill-opacity: 0.10;' />
<circle cx='343.69' cy='103.93' r='2.13' style='stroke-width: 0.00; stroke: #444444; stroke-opacity: 0.10; fill: #444444; fill-opacity: 0.10;' />
<circle cx='347.47' cy='106.15' r='2.13' style='stroke-width: 0.00; stroke: #444444; stroke-opacity: 0.10; fill: #444444; fill-opacity: 0.10;' />
<circle cx='343.47' cy='108.52' r='2.13' style='stroke-width: 0.00; stroke: #444444; stroke-opacity: 0.10; fill: #444444; fill-opacity: 0.10;' />
<circle cx='349.41' cy='106.09' r='2.13' style='stroke-width: 0.00; stroke: #444444; stroke-opacity: 0.10; fill: #444444; fill-opacity: 0.10;' />
<circle cx='341.92' cy='111.94' r='2.13' style='stroke-width: 0.00; stroke: #444444; stroke-opacity: 0.10; fill: #444444; fill-opacity: 0.10;' />
<circle cx='344.37' cy='101.41' r='2.13' style='stroke-width: 0.00; stroke: #444444; stroke-opacity: 0.10; fill: #444444; fill-opacity: 0.10;' />
<circle cx='346.06' cy='108.47' r='2.13' style='stroke-width: 0.00; stroke: #444444; stroke-opacity: 0.10; fill: #444444; fill-opacity: 0.10;' />
<circle cx='349.03' cy='107.65' r='2.13' style='stroke-width: 0.00; stroke: #444444; stroke-opacity: 0.10; fill: #444444; fill-opacity: 0.10;' />
<circle cx='350.85' cy='108.29' r='2.13' style='stroke-width: 0.00; stroke: #444444; stroke-opacity: 0.10; fill: #444444; fill-opacity: 0.10;' />
<circle cx='347.35' cy='84.90' r='2.13' style='stroke-width: 0.00; stroke: #444444; stroke-opacity: 0.10; fill: #444444; fill-opacity: 0.10;' />
<circle cx='379.17' cy='78.91' r='2.13' style='stroke-width: 0.00; stroke: #444444; stroke-opacity: 0.10; fill: #444444; fill-opacity: 0.10;' />
<circle cx='360.98' cy='81.76' r='2.13' style='stroke-width: 0.00; stroke: #444444; stroke-opacity: 0.10; fill: #444444; fill-opacity: 0.10;' />
<circle cx='344.58' cy='79.20' r='2.13' style='stroke-width: 0.00; stroke: #444444; stroke-opacity: 0.10; fill: #444444; fill-opacity: 0.10;' />
<circle cx='347.36' cy='79.43' r='2.13' style='stroke-width: 0.00; stroke: #444444; stroke-opacity: 0.10; fill: #444444; fill-opacity: 0.10;' />
<circle cx='374.11' cy='90.72' r='2.13' style='stroke-width: 0.00; stroke: #444444; stroke-opacity: 0.10; fill: #444444; fill-opacity: 0.10;' />
<circle cx='345.94' cy='78.65' r='2.13' style='stroke-width: 0.00; stroke: #444444; stroke-opacity: 0.10; fill: #444444; fill-opacity: 0.10;' />
<circle cx='353.13' cy='90.93' r='2.13' style='stroke-width: 0.00; stroke: #444444; stroke-opacity: 0.10; fill: #444444; fill-opacity: 0.10;' />
<circle cx='341.57' cy='82.02' r='2.13' style='stroke-width: 0.00; stroke: #444444; stroke-opacity: 0.10; fill: #444444; fill-opacity: 0.10;' />
<circle cx='354.10' cy='81.94' r='2.13' style='stroke-width: 0.00; stroke: #444444; stroke-opacity: 0.10; fill: #444444; fill-opacity: 0.10;' />
<circle cx='344.89' cy='77.99' r='2.13' style='stroke-width: 0.00; stroke: #444444; stroke-opacity: 0.10; fill: #444444; fill-opacity: 0.10;' />
<circle cx='347.30' cy='81.27' r='2.13' style='stroke-width: 0.00; stroke: #444444; stroke-opacity: 0.10; fill: #444444; fill-opacity: 0.10;' />
<circle cx='345.06' cy='83.81' r='2.13' style='stroke-width: 0.00; stroke: #444444; stroke-opacity: 0.10; fill: #444444; fill-opacity: 0.10;' />
<circle cx='344.39' cy='89.58' r='2.13' style='stroke-width: 0.00; stroke: #444444; stroke-opacity: 0.10; fill: #444444; fill-opacity: 0.10;' />
<circle cx='386.20' cy='89.58' r='2.13' style='stroke-width: 0.00; stroke: #444444; stroke-opacity: 0.10; fill: #444444; fill-opacity: 0.10;' />
<circle cx='349.01' cy='90.89' r='2.13' style='stroke-width: 0.00; stroke: #444444; stroke-opacity: 0.10; fill: #444444; fill-opacity: 0.10;' />
<circle cx='349.67' cy='84.24' r='2.13' style='stroke-width: 0.00; stroke: #444444; stroke-opacity: 0.10; fill: #444444; fill-opacity: 0.10;' />
<circle cx='348.76' cy='84.58' r='2.13' style='stroke-width: 0.00; stroke: #444444; stroke-opacity: 0.10; fill: #444444; fill-opacity: 0.10;' />
<circle cx='341.61' cy='79.49' r='2.13' style='stroke-width: 0.00; stroke: #444444; stroke-opacity: 0.10; fill: #444444; fill-opacity: 0.10;' />
<circle cx='344.45' cy='78.50' r='2.13' style='stroke-width: 0.00; stroke: #444444; stroke-opacity: 0.10; fill: #444444; fill-opacity: 0.10;' />
<circle cx='348.53' cy='77.88' r='2.13' style='stroke-width: 0.00; stroke: #444444; stroke-opacity: 0.10; fill: #444444; fill-opacity: 0.10;' />
<circle cx='346.73' cy='84.07' r='2.13' style='stroke-width: 0.00; stroke: #444444; stroke-opacity: 0.10; fill: #444444; fill-opacity: 0.10;' />
<circle cx='345.75' cy='76.32' r='2.13' style='stroke-width: 0.00; stroke: #444444; stroke-opacity: 0.10; fill: #444444; fill-opacity: 0.10;' />
<circle cx='343.35' cy='88.60' r='2.13' style='stroke-width: 0.00; stroke: #444444; stroke-opacity: 0.10; fill: #444444; fill-opacity: 0.10;' />
<circle cx='345.63' cy='84.39' r='2.13' style='stroke-width: 0.00; stroke: #444444; stroke-opacity: 0.10; fill: #444444; fill-opacity: 0.10;' />
<circle cx='345.83' cy='77.02' r='2.13' style='stroke-width: 0.00; stroke: #444444; stroke-opacity: 0.10; fill: #444444; fill-opacity: 0.10;' />
<circle cx='384.36' cy='88.44' r='2.13' style='stroke-width: 0.00; stroke: #444444; stroke-opacity: 0.10; fill: #444444; fill-opacity: 0.10;' />
<circle cx='344.80' cy='89.55' r='2.13' style='stroke-width: 0.00; stroke: #444444; stroke-opacity: 0.10; fill: #444444; fill-opacity: 0.10;' />
<circle cx='350.31' cy='86.13' r='2.13' style='stroke-width: 0.00; stroke: #444444; stroke-opacity: 0.10; fill: #444444; fill-opacity: 0.10;' />
<circle cx='342.64' cy='77.55' r='2.13' style='stroke-width: 0.00; stroke: #444444; stroke-opacity: 0.10; fill: #444444; fill-opacity: 0.10;' />
<circle cx='344.68' cy='82.31' r='2.13' style='stroke-width: 0.00; stroke: #444444; stroke-opacity: 0.10; fill: #444444; fill-opacity: 0.10;' />
<circle cx='343.76' cy='78.11' r='2.13' style='stroke-width: 0.00; stroke: #444444; stroke-opacity: 0.10; fill: #444444; fill-opacity: 0.10;' />
<circle cx='349.63' cy='79.11' r='2.13' style='stroke-width: 0.00; stroke: #444444; stroke-opacity: 0.10; fill: #444444; fill-opacity: 0.10;' />
<circle cx='344.89' cy='85.00' r='2.13' style='stroke-width: 0.00; stroke: #444444; stroke-opacity: 0.10; fill: #444444; fill-opacity: 0.10;' />
<circle cx='343.94' cy='78.94' r='2.13' style='stroke-width: 0.00; stroke: #444444; stroke-opacity: 0.10; fill: #444444; fill-opacity: 0.10;' />
<circle cx='360.90' cy='55.12' r='2.13' style='stroke-width: 0.00; stroke: #444444; stroke-opacity: 0.10; fill: #444444; fill-opacity: 0.10;' />
<circle cx='353.61' cy='52.78' r='2.13' style='stroke-width: 0.00; stroke: #444444; stroke-opacity: 0.10; fill: #444444; fill-opacity: 0.10;' />
<circle cx='350.40' cy='65.06' r='2.13' style='stroke-width: 0.00; stroke: #444444; stroke-opacity: 0.10; fill: #444444; fill-opacity: 0.10;' />
<circle cx='345.55' cy='51.63' r='2.13' style='stroke-width: 0.00; stroke: #444444; stroke-opacity: 0.10; fill: #444444; fill-opacity: 0.10;' />
<circle cx='360.76' cy='63.45' r='2.13' style='stroke-width: 0.00; stroke: #444444; stroke-opacity: 0.10; fill: #444444; fill-opacity: 0.10;' />
<circle cx='367.97' cy='58.19' r='2.13' style='stroke-width: 0.00; stroke: #444444; stroke-opacity: 0.10; fill: #444444; fill-opacity: 0.10;' />
<circle cx='368.25' cy='53.61' r='2.13' style='stroke-width: 0.00; stroke: #444444; stroke-opacity: 0.10; fill: #444444; fill-opacity: 0.10;' />
<circle cx='343.38' cy='59.05' r='2.13' style='stroke-width: 0.00; stroke: #444444; stroke-opacity: 0.10; fill: #444444; fill-opacity: 0.10;' />
<circle cx='343.29' cy='58.81' r='2.13' style='stroke-width: 0.00; stroke: #444444; stroke-opacity: 0.10; fill: #444444; fill-opacity: 0.10;' />
<circle cx='374.04' cy='55.74' r='2.13' style='stroke-width: 0.00; stroke: #444444; stroke-opacity: 0.10; fill: #444444; fill-opacity: 0.10;' />
<circle cx='357.92' cy='54.20' r='2.13' style='stroke-width: 0.00; stroke: #444444; stroke-opacity: 0.10; fill: #444444; fill-opacity: 0.10;' />
<circle cx='343.28' cy='53.03' r='2.13' style='stroke-width: 0.00; stroke: #444444; stroke-opacity: 0.10; fill: #444444; fill-opacity: 0.10;' />
<circle cx='357.29' cy='58.40' r='2.13' style='stroke-width: 0.00; stroke: #444444; stroke-opacity: 0.10; fill: #444444; fill-opacity: 0.10;' />
<circle cx='355.81' cy='56.02' r='2.13' style='stroke-width: 0.00; stroke: #444444; stroke-opacity: 0.10; fill: #444444; fill-opacity: 0.10;' />
<circle cx='385.32' cy='51.50' r='2.13' style='stroke-width: 0.00; stroke: #444444; stroke-opacity: 0.10; fill: #444444; fill-opacity: 0.10;' />
<circle cx='352.32' cy='57.51' r='2.13' style='stroke-width: 0.00; stroke: #444444; stroke-opacity: 0.10; fill: #444444; fill-opacity: 0.10;' />
<circle cx='356.75' cy='58.29' r='2.13' style='stroke-width: 0.00; stroke: #444444; stroke-opacity: 0.10; fill: #444444; fill-opacity: 0.10;' />
<circle cx='348.70' cy='52.90' r='2.13' style='stroke-width: 0.00; stroke: #444444; stroke-opacity: 0.10; fill: #444444; fill-opacity: 0.10;' />
<circle cx='356.20' cy='63.99' r='2.13' style='stroke-width: 0.00; stroke: #444444; stroke-opacity: 0.10; fill: #444444; fill-opacity: 0.10;' />
<circle cx='345.78' cy='64.83' r='2.13' style='stroke-width: 0.00; stroke: #444444; stroke-opacity: 0.10; fill: #444444; fill-opacity: 0.10;' />
<circle cx='349.10' cy='51.53' r='2.13' style='stroke-width: 0.00; stroke: #444444; stroke-opacity: 0.10; fill: #444444; fill-opacity: 0.10;' />
<circle cx='344.79' cy='58.01' r='2.13' style='stroke-width: 0.00; stroke: #444444; stroke-opacity: 0.10; fill: #444444; fill-opacity: 0.10;' />
<circle cx='350.33' cy='62.70' r='2.13' style='stroke-width: 0.00; stroke: #444444; stroke-opacity: 0.10; fill: #444444; fill-opacity: 0.10;' />
<circle cx='384.20' cy='40.33' r='2.13' style='stroke-width: 0.00; stroke: #444444; stroke-opacity: 0.10; fill: #444444; fill-opacity: 0.10;' />
<circle cx='388.17' cy='30.27' r='2.13' style='stroke-width: 0.00; stroke: #444444; stroke-opacity: 0.10; fill: #444444; fill-opacity: 0.10;' />
<circle cx='387.28' cy='36.81' r='2.13' style='stroke-width: 0.00; stroke: #444444; stroke-opacity: 0.10; fill: #444444; fill-opacity: 0.10;' />
<circle cx='384.22' cy='26.44' r='2.13' style='stroke-width: 0.00; stroke: #444444; stroke-opacity: 0.10; fill: #444444; fill-opacity: 0.10;' />
<circle cx='391.29' cy='27.94' r='2.13' style='stroke-width: 0.00; stroke: #444444; stroke-opacity: 0.10; fill: #444444; fill-opacity: 0.10;' />
<circle cx='354.62' cy='29.66' r='2.13' style='stroke-width: 0.00; stroke: #444444; stroke-opacity: 0.10; fill: #444444; fill-opacity: 0.10;' />
<circle cx='373.23' cy='40.52' r='2.13' style='stroke-width: 0.00; stroke: #444444; stroke-opacity: 0.10; fill: #444444; fill-opacity: 0.10;' />
<circle cx='388.04' cy='34.38' r='2.13' style='stroke-width: 0.00; stroke: #444444; stroke-opacity: 0.10; fill: #444444; fill-opacity: 0.10;' />
<circle cx='388.17' cy='28.27' r='2.13' style='stroke-width: 0.00; stroke: #444444; stroke-opacity: 0.10; fill: #444444; fill-opacity: 0.10;' />
<circle cx='386.11' cy='37.19' r='2.13' style='stroke-width: 0.00; stroke: #444444; stroke-opacity: 0.10; fill: #444444; fill-opacity: 0.10;' />
<circle cx='387.44' cy='33.31' r='2.13' style='stroke-width: 0.00; stroke: #444444; stroke-opacity: 0.10; fill: #444444; fill-opacity: 0.10;' />
<circle cx='375.24' cy='33.33' r='2.13' style='stroke-width: 0.00; stroke: #444444; stroke-opacity: 0.10; fill: #444444; fill-opacity: 0.10;' />
<circle cx='391.12' cy='39.18' r='2.13' style='stroke-width: 0.00; stroke: #444444; stroke-opacity: 0.10; fill: #444444; fill-opacity: 0.10;' />
<circle cx='377.07' cy='30.13' r='2.13' style='stroke-width: 0.00; stroke: #444444; stroke-opacity: 0.10; fill: #444444; fill-opacity: 0.10;' />
<circle cx='385.47' cy='27.45' r='2.13' style='stroke-width: 0.00; stroke: #444444; stroke-opacity: 0.10; fill: #444444; fill-opacity: 0.10;' />
<circle cx='387.72' cy='31.51' r='2.13' style='stroke-width: 0.00; stroke: #444444; stroke-opacity: 0.10; fill: #444444; fill-opacity: 0.10;' />
<circle cx='384.35' cy='34.36' r='2.13' style='stroke-width: 0.00; stroke: #444444; stroke-opacity: 0.10; fill: #444444; fill-opacity: 0.10;' />
<circle cx='386.08' cy='37.37' r='2.13' style='stroke-width: 0.00; stroke: #444444; stroke-opacity: 0.10; fill: #444444; fill-opacity: 0.10;' />
<circle cx='387.93' cy='30.26' r='2.13' style='stroke-width: 0.00; stroke: #444444; stroke-opacity: 0.10; fill: #444444; fill-opacity: 0.10;' />
<circle cx='374.13' cy='40.37' r='2.13' style='stroke-width: 0.00; stroke: #444444; stroke-opacity: 0.10; fill: #444444; fill-opacity: 0.10;' />
<circle cx='391.80' cy='36.48' r='2.13' style='stroke-width: 0.00; stroke: #444444; stroke-opacity: 0.10; fill: #444444; fill-opacity: 0.10;' />
<circle cx='376.88' cy='40.95' r='2.13' style='stroke-width: 0.00; stroke: #444444; stroke-opacity: 0.10; fill: #444444; fill-opacity: 0.10;' />
<circle cx='389.48' cy='27.96' r='2.13' style='stroke-width: 0.00; stroke: #444444; stroke-opacity: 0.10; fill: #444444; fill-opacity: 0.10;' />
<circle cx='383.01' cy='40.29' r='2.13' style='stroke-width: 0.00; stroke: #444444; stroke-opacity: 0.10; fill: #444444; fill-opacity: 0.10;' />
<circle cx='370.48' cy='37.50' r='2.13' style='stroke-width: 0.00; stroke: #444444; stroke-opacity: 0.10; fill: #444444; fill-opacity: 0.10;' />
<circle cx='385.16' cy='27.28' r='2.13' style='stroke-width: 0.00; stroke: #444444; stroke-opacity: 0.10; fill: #444444; fill-opacity: 0.10;' />
<circle cx='379.10' cy='37.15' r='2.13' style='stroke-width: 0.00; stroke: #444444; stroke-opacity: 0.10; fill: #444444; fill-opacity: 0.10;' />
<circle cx='387.29' cy='33.84' r='2.13' style='stroke-width: 0.00; stroke: #444444; stroke-opacity: 0.10; fill: #444444; fill-opacity: 0.10;' />
<polygon points='342.91,108.50 349.11,112.23 355.32,108.50 349.11,104.77 342.91,108.50 ' style='stroke-width: 1.07; stroke: #544F55; stroke-linecap: butt; fill: #544F55;' />
<polygon points='342.54,83.64 351.10,87.37 359.66,83.64 351.10,79.90 342.54,83.64 ' style='stroke-width: 1.07; stroke: #534C55; stroke-linecap: butt; fill: #534C55;' />
<polygon points='344.99,58.77 355.36,62.50 365.73,58.77 355.36,55.04 344.99,58.77 ' style='stroke-width: 1.07; stroke: #524555; stroke-linecap: butt; fill: #524555;' />
<polygon points='376.52,33.90 383.34,37.63 390.17,33.90 383.34,30.17 376.52,33.90 ' style='stroke-width: 1.07; stroke: #460A54; stroke-linecap: butt; fill: #460A54;' />
<rect x='339.06' y='21.99' width='55.25' height='98.09' style='stroke-width: 0.78; stroke: #333333;' />
</g>
<g clip-path='url(#cpMC4wMHw1MTAuMjR8MC4wMHwxNDIuODc=)'>
<text x='335.47' y='110.79' text-anchor='end' style='font-size: 6.40px;fill: #4D4D4D; font-family: "Arial";' textLength='45.50px' lengthAdjust='spacingAndGlyphs'>very reasonable</text>
<text x='335.47' y='85.92' text-anchor='end' style='font-size: 6.40px;fill: #4D4D4D; font-family: "Arial";' textLength='52.62px' lengthAdjust='spacingAndGlyphs'>very unreasonable</text>
<text x='335.47' y='61.06' text-anchor='end' style='font-size: 6.40px;fill: #4D4D4D; font-family: "Arial";' textLength='60.08px' lengthAdjust='spacingAndGlyphs'>definitely not infected</text>
<text x='335.47' y='36.19' text-anchor='end' style='font-size: 6.40px;fill: #4D4D4D; font-family: "Arial";' textLength='50.13px' lengthAdjust='spacingAndGlyphs'>never appropriate</text>
<polyline points='337.07,108.50 339.06,108.50 ' style='stroke-width: 0.78; stroke: #333333; stroke-linecap: butt;' />
<polyline points='337.07,83.64 339.06,83.64 ' style='stroke-width: 0.78; stroke: #333333; stroke-linecap: butt;' />
<polyline points='337.07,58.77 339.06,58.77 ' style='stroke-width: 0.78; stroke: #333333; stroke-linecap: butt;' />
<polyline points='337.07,33.90 339.06,33.90 ' style='stroke-width: 0.78; stroke: #333333; stroke-linecap: butt;' />
<polyline points='396.30,108.50 394.31,108.50 ' style='stroke-width: 0.78; stroke: #333333; stroke-linecap: butt;' />
<polyline points='396.30,83.64 394.31,83.64 ' style='stroke-width: 0.78; stroke: #333333; stroke-linecap: butt;' />
<polyline points='396.30,58.77 394.31,58.77 ' style='stroke-width: 0.78; stroke: #333333; stroke-linecap: butt;' />
<polyline points='396.30,33.90 394.31,33.90 ' style='stroke-width: 0.78; stroke: #333333; stroke-linecap: butt;' />
<text x='397.90' y='110.79' style='font-size: 6.40px;fill: #4D4D4D; font-family: "Arial";' textLength='52.62px' lengthAdjust='spacingAndGlyphs'>very unreasonable</text>
<text x='397.90' y='85.92' style='font-size: 6.40px;fill: #4D4D4D; font-family: "Arial";' textLength='45.50px' lengthAdjust='spacingAndGlyphs'>very reasonable</text>
<text x='397.90' y='61.06' style='font-size: 6.40px;fill: #4D4D4D; font-family: "Arial";' textLength='49.41px' lengthAdjust='spacingAndGlyphs'>definitely infected</text>
<text x='397.90' y='36.19' style='font-size: 6.40px;fill: #4D4D4D; font-family: "Arial";' textLength='53.68px' lengthAdjust='spacingAndGlyphs'>always appropriate</text>
<polyline points='346.10,122.06 346.10,120.07 ' style='stroke-width: 0.78; stroke: #333333; stroke-linecap: butt;' />
<polyline points='356.40,122.06 356.40,120.07 ' style='stroke-width: 0.78; stroke: #333333; stroke-linecap: butt;' />
<polyline points='366.71,122.06 366.71,120.07 ' style='stroke-width: 0.78; stroke: #333333; stroke-linecap: butt;' />
<polyline points='377.02,122.06 377.02,120.07 ' style='stroke-width: 0.78; stroke: #333333; stroke-linecap: butt;' />
<polyline points='387.33,122.06 387.33,120.07 ' style='stroke-width: 0.78; stroke: #333333; stroke-linecap: butt;' />
<text x='346.10' y='128.24' text-anchor='middle' style='font-size: 6.40px;fill: #4D4D4D; font-family: "Arial";' textLength='3.56px' lengthAdjust='spacingAndGlyphs'>1</text>
<text x='356.40' y='128.24' text-anchor='middle' style='font-size: 6.40px;fill: #4D4D4D; font-family: "Arial";' textLength='3.56px' lengthAdjust='spacingAndGlyphs'>2</text>
<text x='366.71' y='128.24' text-anchor='middle' style='font-size: 6.40px;fill: #4D4D4D; font-family: "Arial";' textLength='3.56px' lengthAdjust='spacingAndGlyphs'>3</text>
<text x='377.02' y='128.24' text-anchor='middle' style='font-size: 6.40px;fill: #4D4D4D; font-family: "Arial";' textLength='3.56px' lengthAdjust='spacingAndGlyphs'>4</text>
<text x='387.33' y='128.24' text-anchor='middle' style='font-size: 6.40px;fill: #4D4D4D; font-family: "Arial";' textLength='3.56px' lengthAdjust='spacingAndGlyphs'>5</text>
<text x='366.68' y='137.38' text-anchor='middle' style='font-size: 8.00px; font-family: "Arial";' textLength='84.07px' lengthAdjust='spacingAndGlyphs'>Scores and 99.99% CIs</text>
</g>
<defs>
  <clipPath id='cpMC4wMHwyNzIuMDl8MjEuOTl8MTIwLjA3'>
    <rect x='0.00' y='21.99' width='272.09' height='98.09' />
  </clipPath>
</defs>
<g clip-path='url(#cpMC4wMHwyNzIuMDl8MjEuOTl8MTIwLjA3)'>
</g>
<g clip-path='url(#cpMC4wMHw1MTAuMjR8MC4wMHwxNDIuODc=)'>
<text x='3.59' y='102.62' style='font-size: 8.00px; font-family: "Arial";' textLength='247.31px' lengthAdjust='spacingAndGlyphs'>AttInExReasUni * AttInEvReasUni [If I keep at least {distRec} distance</text>
<text x='3.59' y='111.26' style='font-size: 8.00px; font-family: "Arial";' textLength='144.10px' lengthAdjust='spacingAndGlyphs'>from others, others will think that I am ...]</text>
<text x='3.59' y='119.90' style='font-size: 8.00px; font-family: "Arial";' textLength='56.04px' lengthAdjust='spacingAndGlyphs'>[AttIn_ReasUni]</text>
<text x='3.59' y='77.71' style='font-size: 8.00px; font-family: "Arial";' textLength='260.65px' lengthAdjust='spacingAndGlyphs'>AttInExReasUniFl * AttInEvReasUniFl [If I keep at least {distRec} distance</text>
<text x='3.59' y='86.35' style='font-size: 8.00px; font-family: "Arial";' textLength='144.10px' lengthAdjust='spacingAndGlyphs'>from others, others will think that I am ...]</text>
<text x='3.59' y='94.99' style='font-size: 8.00px; font-family: "Arial";' textLength='62.70px' lengthAdjust='spacingAndGlyphs'>[AttIn_ReasUniFl]</text>
<text x='3.59' y='52.81' style='font-size: 8.00px; font-family: "Arial";' textLength='236.65px' lengthAdjust='spacingAndGlyphs'>AttInExOthThinkInf * AttInEvOthThinkInf [If I keep at least {distRec}</text>
<text x='3.59' y='61.45' style='font-size: 8.00px; font-family: "Arial";' textLength='182.81px' lengthAdjust='spacingAndGlyphs'>distance from others, other people will think I am ...]</text>
<text x='3.59' y='70.09' style='font-size: 8.00px; font-family: "Arial";' textLength='66.72px' lengthAdjust='spacingAndGlyphs'>[AttIn_OthThinkInf]</text>
<text x='3.59' y='27.90' style='font-size: 8.00px; font-family: "Arial";' textLength='255.77px' lengthAdjust='spacingAndGlyphs'>AttInExApprop * AttInEvApprop [If I keep at least {distRec} distance from</text>
<text x='3.59' y='36.54' style='font-size: 8.00px; font-family: "Arial";' textLength='59.17px' lengthAdjust='spacingAndGlyphs'>others, that is ...]</text>
<text x='3.59' y='45.18' style='font-size: 8.00px; font-family: "Arial";' textLength='51.16px' lengthAdjust='spacingAndGlyphs'>[AttIn_Approp]</text>
</g>
<g clip-path='url(#cpMC4wMHwyNzIuMDl8MjEuOTl8MTIwLjA3)'>
</g>
<g clip-path='url(#cpMC4wMHw1MTAuMjR8MC4wMHwxNDIuODc=)'>
</g>
<defs>
  <clipPath id='cpNDU0Ljk4fDUxMC4yNHwxOC4wMHwxNDIuODc='>
    <rect x='454.98' y='18.00' width='55.25' height='124.87' />
  </clipPath>
</defs>
<g clip-path='url(#cpNDU0Ljk4fDUxMC4yNHwxOC4wMHwxNDIuODc=)'>
<rect x='454.98' y='18.00' width='55.25' height='124.87' style='stroke-width: 0.78; stroke: #FFFFFF; fill: #FFFFFF;' />
</g>
<defs>
  <clipPath id='cpNDU4Ljk3fDUwNi4yNXwyMS45OXwxMjAuMDc='>
    <rect x='458.97' y='21.99' width='47.28' height='98.09' />
  </clipPath>
</defs>
<g clip-path='url(#cpNDU4Ljk3fDUwNi4yNXwyMS45OXwxMjAuMDc=)'>
<rect x='458.97' y='21.99' width='47.28' height='98.09' style='stroke-width: 0.78; stroke: none; fill: #FFFFFF;' />
<polyline points='466.49,120.07 466.49,21.99 ' style='stroke-width: 0.39; stroke: #EBEBEB; stroke-linecap: butt;' />
<polyline points='477.24,120.07 477.24,21.99 ' style='stroke-width: 0.39; stroke: #EBEBEB; stroke-linecap: butt;' />
<polyline points='487.98,120.07 487.98,21.99 ' style='stroke-width: 0.39; stroke: #EBEBEB; stroke-linecap: butt;' />
<polyline points='498.73,120.07 498.73,21.99 ' style='stroke-width: 0.39; stroke: #EBEBEB; stroke-linecap: butt;' />
<polyline points='461.12,120.07 461.12,21.99 ' style='stroke-width: 0.78; stroke: #EBEBEB; stroke-linecap: butt;' />
<polyline points='471.86,120.07 471.86,21.99 ' style='stroke-width: 0.78; stroke: #EBEBEB; stroke-linecap: butt;' />
<polyline points='482.61,120.07 482.61,21.99 ' style='stroke-width: 0.78; stroke: #EBEBEB; stroke-linecap: butt;' />
<polyline points='493.36,120.07 493.36,21.99 ' style='stroke-width: 0.78; stroke: #EBEBEB; stroke-linecap: butt;' />
<polyline points='504.10,120.07 504.10,21.99 ' style='stroke-width: 0.78; stroke: #EBEBEB; stroke-linecap: butt;' />
<line x1='471.86' y1='120.07' x2='471.86' y2='21.99' style='stroke-width: 1.07; stroke: #BEBEBE; stroke-linecap: butt;' />
<line x1='482.61' y1='120.07' x2='482.61' y2='21.99' style='stroke-width: 1.07; stroke: #BEBEBE; stroke-linecap: butt;' />
<line x1='493.36' y1='120.07' x2='493.36' y2='21.99' style='stroke-width: 1.07; stroke: #BEBEBE; stroke-linecap: butt;' />
<polygon points='473.46,111.56 479.78,115.61 486.64,111.56 479.78,107.51 473.46,111.56 ' style='stroke-width: 2.13; stroke-linecap: butt; fill: #4E5C5C; fill-opacity: 0.50;' />
<polygon points='473.69,84.54 480.57,88.59 487.90,84.54 480.57,80.49 473.69,84.54 ' style='stroke-width: 2.13; stroke-linecap: butt; fill: #505A5A; fill-opacity: 0.50;' />
<polygon points='478.33,57.52 487.60,61.57 495.25,57.52 487.60,53.46 478.33,57.52 ' style='stroke-width: 2.13; stroke-linecap: butt; fill: #514154; fill-opacity: 0.50;' />
<polygon points='489.31,30.50 495.80,34.55 499.87,30.50 495.80,26.44 489.31,30.50 ' style='stroke-width: 2.13; stroke-linecap: butt; fill: #4A2154; fill-opacity: 0.50;' />
<rect x='458.97' y='21.99' width='47.28' height='98.09' style='stroke-width: 0.78; stroke: #333333;' />
</g>
<g clip-path='url(#cpNDU0Ljk4fDUxMC4yNHwxOC4wMHwxNDIuODc=)'>
</g>
<g clip-path='url(#cpMC4wMHw1MTAuMjR8MC4wMHwxNDIuODc=)'>
</g>
<g clip-path='url(#cpNDU0Ljk4fDUxMC4yNHwxOC4wMHwxNDIuODc=)'>
</g>
<g clip-path='url(#cpMC4wMHw1MTAuMjR8MC4wMHwxNDIuODc=)'>
</g>
<g clip-path='url(#cpNDU0Ljk4fDUxMC4yNHwxOC4wMHwxNDIuODc=)'>
</g>
<g clip-path='url(#cpMC4wMHw1MTAuMjR8MC4wMHwxNDIuODc=)'>
</g>
<g clip-path='url(#cpNDU0Ljk4fDUxMC4yNHwxOC4wMHwxNDIuODc=)'>
</g>
<g clip-path='url(#cpMC4wMHw1MTAuMjR8MC4wMHwxNDIuODc=)'>
</g>
<g clip-path='url(#cpNDU0Ljk4fDUxMC4yNHwxOC4wMHwxNDIuODc=)'>
</g>
<g clip-path='url(#cpMC4wMHw1MTAuMjR8MC4wMHwxNDIuODc=)'>
</g>
<g clip-path='url(#cpNDU0Ljk4fDUxMC4yNHwxOC4wMHwxNDIuODc=)'>
</g>
<g clip-path='url(#cpMC4wMHw1MTAuMjR8MC4wMHwxNDIuODc=)'>
</g>
<g clip-path='url(#cpNDU0Ljk4fDUxMC4yNHwxOC4wMHwxNDIuODc=)'>
</g>
<g clip-path='url(#cpMC4wMHw1MTAuMjR8MC4wMHwxNDIuODc=)'>
</g>
<g clip-path='url(#cpNDU0Ljk4fDUxMC4yNHwxOC4wMHwxNDIuODc=)'>
</g>
<g clip-path='url(#cpMC4wMHw1MTAuMjR8MC4wMHwxNDIuODc=)'>
<polyline points='461.12,122.06 461.12,120.07 ' style='stroke-width: 0.78; stroke: #333333; stroke-linecap: butt;' />
<polyline points='471.86,122.06 471.86,120.07 ' style='stroke-width: 0.78; stroke: #333333; stroke-linecap: butt;' />
<polyline points='482.61,122.06 482.61,120.07 ' style='stroke-width: 0.78; stroke: #333333; stroke-linecap: butt;' />
<polyline points='493.36,122.06 493.36,120.07 ' style='stroke-width: 0.78; stroke: #333333; stroke-linecap: butt;' />
<polyline points='504.10,122.06 504.10,120.07 ' style='stroke-width: 0.78; stroke: #333333; stroke-linecap: butt;' />
<text x='461.12' y='128.24' text-anchor='middle' style='font-size: 6.40px;fill: #4D4D4D; font-family: "Arial";' textLength='11.02px' lengthAdjust='spacingAndGlyphs'>-1.0</text>
<text x='471.86' y='128.24' text-anchor='middle' style='font-size: 6.40px;fill: #4D4D4D; font-family: "Arial";' textLength='11.02px' lengthAdjust='spacingAndGlyphs'>-0.5</text>
<text x='482.61' y='128.24' text-anchor='middle' style='font-size: 6.40px;fill: #4D4D4D; font-family: "Arial";' textLength='8.89px' lengthAdjust='spacingAndGlyphs'>0.0</text>
<text x='493.36' y='128.24' text-anchor='middle' style='font-size: 6.40px;fill: #4D4D4D; font-family: "Arial";' textLength='8.89px' lengthAdjust='spacingAndGlyphs'>0.5</text>
<text x='504.10' y='128.24' text-anchor='middle' style='font-size: 6.40px;fill: #4D4D4D; font-family: "Arial";' textLength='8.89px' lengthAdjust='spacingAndGlyphs'>1.0</text>
</g>
<g clip-path='url(#cpNDU0Ljk4fDUxMC4yNHwxOC4wMHwxNDIuODc=)'>
</g>
<g clip-path='url(#cpMC4wMHw1MTAuMjR8MC4wMHwxNDIuODc=)'>
</g>
<g clip-path='url(#cpNDU0Ljk4fDUxMC4yNHwxOC4wMHwxNDIuODc=)'>
</g>
<g clip-path='url(#cpMC4wMHw1MTAuMjR8MC4wMHwxNDIuODc=)'>
<text x='482.61' y='137.38' text-anchor='middle' style='font-size: 8.00px; font-family: "Arial";' textLength='85.41px' lengthAdjust='spacingAndGlyphs'>95% CIs of associations</text>
</g>
<g clip-path='url(#cpNDU0Ljk4fDUxMC4yNHwxOC4wMHwxNDIuODc=)'>
</g>
<g clip-path='url(#cpMC4wMHw1MTAuMjR8MC4wMHwxNDIuODc=)'>
</g>
<g clip-path='url(#cpNDU0Ljk4fDUxMC4yNHwxOC4wMHwxNDIuODc=)'>
</g>
<g clip-path='url(#cpMC4wMHw1MTAuMjR8MC4wMHwxNDIuODc=)'>
</g>
<g clip-path='url(#cpNDU0Ljk4fDUxMC4yNHwxOC4wMHwxNDIuODc=)'>
</g>
<g clip-path='url(#cpMC4wMHw1MTAuMjR8MC4wMHwxNDIuODc=)'>
</g>
<g clip-path='url(#cpNDU0Ljk4fDUxMC4yNHwxOC4wMHwxNDIuODc=)'>
</g>
<g clip-path='url(#cpMC4wMHw1MTAuMjR8MC4wMHwxNDIuODc=)'>
</g>
<g clip-path='url(#cpNDU0Ljk4fDUxMC4yNHwxOC4wMHwxNDIuODc=)'>
</g>
<g clip-path='url(#cpMC4wMHw1MTAuMjR8MC4wMHwxNDIuODc=)'>
</g>
<g clip-path='url(#cpNDU0Ljk4fDUxMC4yNHwxOC4wMHwxNDIuODc=)'>
</g>
<g clip-path='url(#cpMC4wMHw1MTAuMjR8MC4wMHwxNDIuODc=)'>
</g>
<g clip-path='url(#cpNDU0Ljk4fDUxMC4yNHwxOC4wMHwxNDIuODc=)'>
</g>
<g clip-path='url(#cpMC4wMHw1MTAuMjR8MC4wMHwxNDIuODc=)'>
</g>
<g clip-path='url(#cpNDU0Ljk4fDUxMC4yNHwxOC4wMHwxNDIuODc=)'>
</g>
<g clip-path='url(#cpMC4wMHw1MTAuMjR8MC4wMHwxNDIuODc=)'>
</g>
<g clip-path='url(#cpNDU0Ljk4fDUxMC4yNHwxOC4wMHwxNDIuODc=)'>
</g>
<g clip-path='url(#cpMC4wMHw1MTAuMjR8MC4wMHwxNDIuODc=)'>
</g>
<g clip-path='url(#cpNDU0Ljk4fDUxMC4yNHwxOC4wMHwxNDIuODc=)'>
</g>
<g clip-path='url(#cpMC4wMHw1MTAuMjR8MC4wMHwxNDIuODc=)'>
</g>
<g clip-path='url(#cpNDU0Ljk4fDUxMC4yNHwxOC4wMHwxNDIuODc=)'>
</g>
<g clip-path='url(#cpMC4wMHw1MTAuMjR8MC4wMHwxNDIuODc=)'>
<text x='2.30' y='8.78' style='font-size: 9.60px; font-weight: bold; font-family: "Arial";' textLength='147.66px' lengthAdjust='spacingAndGlyphs'>Means and associations (r) with </text>
<text x='149.96' y='8.78' style='font-size: 9.60px; font-weight: bold; font-family: "Arial";' textLength='43.17px' lengthAdjust='spacingAndGlyphs'>proximity</text>
<text x='193.13' y='8.78' style='font-size: 9.60px; font-weight: bold; font-family: "Arial";' textLength='2.66px' lengthAdjust='spacingAndGlyphs'> </text>
</g>
</svg>
