<?xml version='1.0' encoding='UTF-8' ?>
<svg xmlns='http://www.w3.org/2000/svg' xmlns:xlink='http://www.w3.org/1999/xlink' class='svglite' width='510.24pt' height='232.16pt' viewBox='0 0 510.24 232.16'>
<defs>
  <style type='text/css'><![CDATA[
    .svglite line, .svglite polyline, .svglite polygon, .svglite path, .svglite rect, .svglite circle {
      fill: none;
      stroke: #000000;
      stroke-linecap: round;
      stroke-linejoin: round;
      stroke-miterlimit: 10.00;
    }
    .svglite text {
      white-space: pre;
    }
  ]]></style>
</defs>
<rect width='100%' height='100%' style='stroke: none; fill: none;'/>
<defs>
  <clipPath id='cpMC4wMHw1MTAuMjR8MC4wMHwyMzIuMTY='>
    <rect x='0.00' y='0.00' width='510.24' height='232.16' />
  </clipPath>
</defs>
<g clip-path='url(#cpMC4wMHw1MTAuMjR8MC4wMHwyMzIuMTY=)'>
</g>
<defs>
  <clipPath id='cpMjY2LjM5fDQ1MS4wOHwxOC4wMHwyMzIuMTY='>
    <rect x='266.39' y='18.00' width='184.70' height='214.16' />
  </clipPath>
</defs>
<g clip-path='url(#cpMjY2LjM5fDQ1MS4wOHwxOC4wMHwyMzIuMTY=)'>
<rect x='266.39' y='18.00' width='184.70' height='214.16' style='stroke-width: 0.78; stroke: #FFFFFF; fill: #FFFFFF;' />
</g>
<g clip-path='url(#cpMC4wMHw1MTAuMjR8MC4wMHwyMzIuMTY=)'>
</g>
<defs>
  <clipPath id='cpMzI3LjM2fDM4Ni41MXwyMS45OXwyMDkuMzY='>
    <rect x='327.36' y='21.99' width='59.15' height='187.38' />
  </clipPath>
</defs>
<g clip-path='url(#cpMzI3LjM2fDM4Ni41MXwyMS45OXwyMDkuMzY=)'>
<rect x='327.36' y='21.99' width='59.15' height='187.38' style='stroke-width: 0.78; stroke: none; fill: #FFFFFF;' />
<polyline points='329.66,209.36 329.66,21.99 ' style='stroke-width: 0.39; stroke: #EBEBEB; stroke-linecap: butt;' />
<polyline points='336.93,209.36 336.93,21.99 ' style='stroke-width: 0.39; stroke: #EBEBEB; stroke-linecap: butt;' />
<polyline points='344.19,209.36 344.19,21.99 ' style='stroke-width: 0.39; stroke: #EBEBEB; stroke-linecap: butt;' />
<polyline points='351.46,209.36 351.46,21.99 ' style='stroke-width: 0.39; stroke: #EBEBEB; stroke-linecap: butt;' />
<polyline points='358.72,209.36 358.72,21.99 ' style='stroke-width: 0.39; stroke: #EBEBEB; stroke-linecap: butt;' />
<polyline points='365.99,209.36 365.99,21.99 ' style='stroke-width: 0.39; stroke: #EBEBEB; stroke-linecap: butt;' />
<polyline points='373.25,209.36 373.25,21.99 ' style='stroke-width: 0.39; stroke: #EBEBEB; stroke-linecap: butt;' />
<polyline points='380.51,209.36 380.51,21.99 ' style='stroke-width: 0.39; stroke: #EBEBEB; stroke-linecap: butt;' />
<polyline points='384.15,209.36 384.15,21.99 ' style='stroke-width: 0.39; stroke: #EBEBEB; stroke-linecap: butt;' />
<polyline points='327.36,193.87 386.51,193.87 ' style='stroke-width: 0.78; stroke: #EBEBEB; stroke-linecap: butt;' />
<polyline points='327.36,167.74 386.51,167.74 ' style='stroke-width: 0.78; stroke: #EBEBEB; stroke-linecap: butt;' />
<polyline points='327.36,141.60 386.51,141.60 ' style='stroke-width: 0.78; stroke: #EBEBEB; stroke-linecap: butt;' />
<polyline points='327.36,115.46 386.51,115.46 ' style='stroke-width: 0.78; stroke: #EBEBEB; stroke-linecap: butt;' />
<polyline points='327.36,89.33 386.51,89.33 ' style='stroke-width: 0.78; stroke: #EBEBEB; stroke-linecap: butt;' />
<polyline points='327.36,63.19 386.51,63.19 ' style='stroke-width: 0.78; stroke: #EBEBEB; stroke-linecap: butt;' />
<polyline points='327.36,37.06 386.51,37.06 ' style='stroke-width: 0.78; stroke: #EBEBEB; stroke-linecap: butt;' />
<polyline points='333.30,209.36 333.30,21.99 ' style='stroke-width: 0.78; stroke: #EBEBEB; stroke-linecap: butt;' />
<polyline points='340.56,209.36 340.56,21.99 ' style='stroke-width: 0.78; stroke: #EBEBEB; stroke-linecap: butt;' />
<polyline points='347.83,209.36 347.83,21.99 ' style='stroke-width: 0.78; stroke: #EBEBEB; stroke-linecap: butt;' />
<polyline points='355.09,209.36 355.09,21.99 ' style='stroke-width: 0.78; stroke: #EBEBEB; stroke-linecap: butt;' />
<polyline points='362.35,209.36 362.35,21.99 ' style='stroke-width: 0.78; stroke: #EBEBEB; stroke-linecap: butt;' />
<polyline points='369.62,209.36 369.62,21.99 ' style='stroke-width: 0.78; stroke: #EBEBEB; stroke-linecap: butt;' />
<polyline points='376.88,209.36 376.88,21.99 ' style='stroke-width: 0.78; stroke: #EBEBEB; stroke-linecap: butt;' />
<circle cx='333.09' cy='191.57' r='2.13' style='stroke-width: 0.00; stroke: #444444; stroke-opacity: 0.10; fill: #444444; fill-opacity: 0.10;' />
<circle cx='376.18' cy='200.32' r='2.13' style='stroke-width: 0.00; stroke: #444444; stroke-opacity: 0.10; fill: #444444; fill-opacity: 0.10;' />
<circle cx='372.52' cy='200.85' r='2.13' style='stroke-width: 0.00; stroke: #444444; stroke-opacity: 0.10; fill: #444444; fill-opacity: 0.10;' />
<circle cx='333.77' cy='199.27' r='2.13' style='stroke-width: 0.00; stroke: #444444; stroke-opacity: 0.10; fill: #444444; fill-opacity: 0.10;' />
<circle cx='360.58' cy='188.15' r='2.13' style='stroke-width: 0.00; stroke: #444444; stroke-opacity: 0.10; fill: #444444; fill-opacity: 0.10;' />
<circle cx='367.49' cy='189.45' r='2.13' style='stroke-width: 0.00; stroke: #444444; stroke-opacity: 0.10; fill: #444444; fill-opacity: 0.10;' />
<circle cx='375.24' cy='192.27' r='2.13' style='stroke-width: 0.00; stroke: #444444; stroke-opacity: 0.10; fill: #444444; fill-opacity: 0.10;' />
<circle cx='358.10' cy='188.25' r='2.13' style='stroke-width: 0.00; stroke: #444444; stroke-opacity: 0.10; fill: #444444; fill-opacity: 0.10;' />
<circle cx='334.75' cy='187.05' r='2.13' style='stroke-width: 0.00; stroke: #444444; stroke-opacity: 0.10; fill: #444444; fill-opacity: 0.10;' />
<circle cx='360.66' cy='196.61' r='2.13' style='stroke-width: 0.00; stroke: #444444; stroke-opacity: 0.10; fill: #444444; fill-opacity: 0.10;' />
<circle cx='331.25' cy='188.25' r='2.13' style='stroke-width: 0.00; stroke: #444444; stroke-opacity: 0.10; fill: #444444; fill-opacity: 0.10;' />
<circle cx='335.32' cy='187.31' r='2.13' style='stroke-width: 0.00; stroke: #444444; stroke-opacity: 0.10; fill: #444444; fill-opacity: 0.10;' />
<circle cx='337.65' cy='189.48' r='2.13' style='stroke-width: 0.00; stroke: #444444; stroke-opacity: 0.10; fill: #444444; fill-opacity: 0.10;' />
<circle cx='333.23' cy='189.21' r='2.13' style='stroke-width: 0.00; stroke: #444444; stroke-opacity: 0.10; fill: #444444; fill-opacity: 0.10;' />
<circle cx='347.98' cy='193.83' r='2.13' style='stroke-width: 0.00; stroke: #444444; stroke-opacity: 0.10; fill: #444444; fill-opacity: 0.10;' />
<circle cx='331.45' cy='189.55' r='2.13' style='stroke-width: 0.00; stroke: #444444; stroke-opacity: 0.10; fill: #444444; fill-opacity: 0.10;' />
<circle cx='374.02' cy='192.12' r='2.13' style='stroke-width: 0.00; stroke: #444444; stroke-opacity: 0.10; fill: #444444; fill-opacity: 0.10;' />
<circle cx='369.78' cy='196.62' r='2.13' style='stroke-width: 0.00; stroke: #444444; stroke-opacity: 0.10; fill: #444444; fill-opacity: 0.10;' />
<circle cx='378.13' cy='187.22' r='2.13' style='stroke-width: 0.00; stroke: #444444; stroke-opacity: 0.10; fill: #444444; fill-opacity: 0.10;' />
<circle cx='379.39' cy='187.64' r='2.13' style='stroke-width: 0.00; stroke: #444444; stroke-opacity: 0.10; fill: #444444; fill-opacity: 0.10;' />
<circle cx='378.25' cy='189.05' r='2.13' style='stroke-width: 0.00; stroke: #444444; stroke-opacity: 0.10; fill: #444444; fill-opacity: 0.10;' />
<circle cx='370.60' cy='200.05' r='2.13' style='stroke-width: 0.00; stroke: #444444; stroke-opacity: 0.10; fill: #444444; fill-opacity: 0.10;' />
<circle cx='379.41' cy='200.62' r='2.13' style='stroke-width: 0.00; stroke: #444444; stroke-opacity: 0.10; fill: #444444; fill-opacity: 0.10;' />
<circle cx='336.12' cy='199.63' r='2.13' style='stroke-width: 0.00; stroke: #444444; stroke-opacity: 0.10; fill: #444444; fill-opacity: 0.10;' />
<circle cx='367.89' cy='188.24' r='2.13' style='stroke-width: 0.00; stroke: #444444; stroke-opacity: 0.10; fill: #444444; fill-opacity: 0.10;' />
<circle cx='377.45' cy='196.84' r='2.13' style='stroke-width: 0.00; stroke: #444444; stroke-opacity: 0.10; fill: #444444; fill-opacity: 0.10;' />
<circle cx='375.47' cy='192.20' r='2.13' style='stroke-width: 0.00; stroke: #444444; stroke-opacity: 0.10; fill: #444444; fill-opacity: 0.10;' />
<circle cx='378.80' cy='197.63' r='2.13' style='stroke-width: 0.00; stroke: #444444; stroke-opacity: 0.10; fill: #444444; fill-opacity: 0.10;' />
<circle cx='336.39' cy='199.07' r='2.13' style='stroke-width: 0.00; stroke: #444444; stroke-opacity: 0.10; fill: #444444; fill-opacity: 0.10;' />
<circle cx='375.72' cy='200.42' r='2.13' style='stroke-width: 0.00; stroke: #444444; stroke-opacity: 0.10; fill: #444444; fill-opacity: 0.10;' />
<circle cx='335.67' cy='196.52' r='2.13' style='stroke-width: 0.00; stroke: #444444; stroke-opacity: 0.10; fill: #444444; fill-opacity: 0.10;' />
<circle cx='375.72' cy='188.42' r='2.13' style='stroke-width: 0.00; stroke: #444444; stroke-opacity: 0.10; fill: #444444; fill-opacity: 0.10;' />
<circle cx='360.67' cy='192.14' r='2.13' style='stroke-width: 0.00; stroke: #444444; stroke-opacity: 0.10; fill: #444444; fill-opacity: 0.10;' />
<circle cx='369.20' cy='195.86' r='2.13' style='stroke-width: 0.00; stroke: #444444; stroke-opacity: 0.10; fill: #444444; fill-opacity: 0.10;' />
<circle cx='379.08' cy='187.06' r='2.13' style='stroke-width: 0.00; stroke: #444444; stroke-opacity: 0.10; fill: #444444; fill-opacity: 0.10;' />
<circle cx='330.36' cy='187.27' r='2.13' style='stroke-width: 0.00; stroke: #444444; stroke-opacity: 0.10; fill: #444444; fill-opacity: 0.10;' />
<circle cx='375.22' cy='191.38' r='2.13' style='stroke-width: 0.00; stroke: #444444; stroke-opacity: 0.10; fill: #444444; fill-opacity: 0.10;' />
<circle cx='378.98' cy='194.07' r='2.13' style='stroke-width: 0.00; stroke: #444444; stroke-opacity: 0.10; fill: #444444; fill-opacity: 0.10;' />
<circle cx='336.09' cy='192.02' r='2.13' style='stroke-width: 0.00; stroke: #444444; stroke-opacity: 0.10; fill: #444444; fill-opacity: 0.10;' />
<circle cx='374.34' cy='195.56' r='2.13' style='stroke-width: 0.00; stroke: #444444; stroke-opacity: 0.10; fill: #444444; fill-opacity: 0.10;' />
<circle cx='377.87' cy='173.82' r='2.13' style='stroke-width: 0.00; stroke: #444444; stroke-opacity: 0.10; fill: #444444; fill-opacity: 0.10;' />
<circle cx='349.39' cy='167.75' r='2.13' style='stroke-width: 0.00; stroke: #444444; stroke-opacity: 0.10; fill: #444444; fill-opacity: 0.10;' />
<circle cx='368.21' cy='163.05' r='2.13' style='stroke-width: 0.00; stroke: #444444; stroke-opacity: 0.10; fill: #444444; fill-opacity: 0.10;' />
<circle cx='356.38' cy='172.60' r='2.13' style='stroke-width: 0.00; stroke: #444444; stroke-opacity: 0.10; fill: #444444; fill-opacity: 0.10;' />
<circle cx='335.58' cy='171.76' r='2.13' style='stroke-width: 0.00; stroke: #444444; stroke-opacity: 0.10; fill: #444444; fill-opacity: 0.10;' />
<circle cx='372.15' cy='172.82' r='2.13' style='stroke-width: 0.00; stroke: #444444; stroke-opacity: 0.10; fill: #444444; fill-opacity: 0.10;' />
<circle cx='362.75' cy='162.49' r='2.13' style='stroke-width: 0.00; stroke: #444444; stroke-opacity: 0.10; fill: #444444; fill-opacity: 0.10;' />
<circle cx='357.75' cy='171.92' r='2.13' style='stroke-width: 0.00; stroke: #444444; stroke-opacity: 0.10; fill: #444444; fill-opacity: 0.10;' />
<circle cx='360.59' cy='162.10' r='2.13' style='stroke-width: 0.00; stroke: #444444; stroke-opacity: 0.10; fill: #444444; fill-opacity: 0.10;' />
<circle cx='375.86' cy='161.59' r='2.13' style='stroke-width: 0.00; stroke: #444444; stroke-opacity: 0.10; fill: #444444; fill-opacity: 0.10;' />
<circle cx='377.43' cy='163.45' r='2.13' style='stroke-width: 0.00; stroke: #444444; stroke-opacity: 0.10; fill: #444444; fill-opacity: 0.10;' />
<circle cx='333.44' cy='168.54' r='2.13' style='stroke-width: 0.00; stroke: #444444; stroke-opacity: 0.10; fill: #444444; fill-opacity: 0.10;' />
<circle cx='379.83' cy='164.20' r='2.13' style='stroke-width: 0.00; stroke: #444444; stroke-opacity: 0.10; fill: #444444; fill-opacity: 0.10;' />
<circle cx='332.92' cy='166.09' r='2.13' style='stroke-width: 0.00; stroke: #444444; stroke-opacity: 0.10; fill: #444444; fill-opacity: 0.10;' />
<circle cx='374.02' cy='173.49' r='2.13' style='stroke-width: 0.00; stroke: #444444; stroke-opacity: 0.10; fill: #444444; fill-opacity: 0.10;' />
<circle cx='369.15' cy='173.47' r='2.13' style='stroke-width: 0.00; stroke: #444444; stroke-opacity: 0.10; fill: #444444; fill-opacity: 0.10;' />
<circle cx='354.20' cy='165.00' r='2.13' style='stroke-width: 0.00; stroke: #444444; stroke-opacity: 0.10; fill: #444444; fill-opacity: 0.10;' />
<circle cx='330.08' cy='173.36' r='2.13' style='stroke-width: 0.00; stroke: #444444; stroke-opacity: 0.10; fill: #444444; fill-opacity: 0.10;' />
<circle cx='346.74' cy='169.53' r='2.13' style='stroke-width: 0.00; stroke: #444444; stroke-opacity: 0.10; fill: #444444; fill-opacity: 0.10;' />
<circle cx='354.58' cy='163.11' r='2.13' style='stroke-width: 0.00; stroke: #444444; stroke-opacity: 0.10; fill: #444444; fill-opacity: 0.10;' />
<circle cx='334.52' cy='161.52' r='2.13' style='stroke-width: 0.00; stroke: #444444; stroke-opacity: 0.10; fill: #444444; fill-opacity: 0.10;' />
<circle cx='377.17' cy='163.99' r='2.13' style='stroke-width: 0.00; stroke: #444444; stroke-opacity: 0.10; fill: #444444; fill-opacity: 0.10;' />
<circle cx='345.02' cy='168.46' r='2.13' style='stroke-width: 0.00; stroke: #444444; stroke-opacity: 0.10; fill: #444444; fill-opacity: 0.10;' />
<circle cx='379.78' cy='164.79' r='2.13' style='stroke-width: 0.00; stroke: #444444; stroke-opacity: 0.10; fill: #444444; fill-opacity: 0.10;' />
<circle cx='379.50' cy='160.61' r='2.13' style='stroke-width: 0.00; stroke: #444444; stroke-opacity: 0.10; fill: #444444; fill-opacity: 0.10;' />
<circle cx='333.97' cy='165.07' r='2.13' style='stroke-width: 0.00; stroke: #444444; stroke-opacity: 0.10; fill: #444444; fill-opacity: 0.10;' />
<circle cx='375.82' cy='164.01' r='2.13' style='stroke-width: 0.00; stroke: #444444; stroke-opacity: 0.10; fill: #444444; fill-opacity: 0.10;' />
<circle cx='378.10' cy='162.86' r='2.13' style='stroke-width: 0.00; stroke: #444444; stroke-opacity: 0.10; fill: #444444; fill-opacity: 0.10;' />
<circle cx='355.45' cy='166.76' r='2.13' style='stroke-width: 0.00; stroke: #444444; stroke-opacity: 0.10; fill: #444444; fill-opacity: 0.10;' />
<circle cx='379.37' cy='166.70' r='2.13' style='stroke-width: 0.00; stroke: #444444; stroke-opacity: 0.10; fill: #444444; fill-opacity: 0.10;' />
<circle cx='361.31' cy='161.88' r='2.13' style='stroke-width: 0.00; stroke: #444444; stroke-opacity: 0.10; fill: #444444; fill-opacity: 0.10;' />
<circle cx='335.52' cy='168.52' r='2.13' style='stroke-width: 0.00; stroke: #444444; stroke-opacity: 0.10; fill: #444444; fill-opacity: 0.10;' />
<circle cx='354.09' cy='164.29' r='2.13' style='stroke-width: 0.00; stroke: #444444; stroke-opacity: 0.10; fill: #444444; fill-opacity: 0.10;' />
<circle cx='369.73' cy='164.51' r='2.13' style='stroke-width: 0.00; stroke: #444444; stroke-opacity: 0.10; fill: #444444; fill-opacity: 0.10;' />
<circle cx='374.38' cy='174.54' r='2.13' style='stroke-width: 0.00; stroke: #444444; stroke-opacity: 0.10; fill: #444444; fill-opacity: 0.10;' />
<circle cx='357.81' cy='143.77' r='2.13' style='stroke-width: 0.00; stroke: #444444; stroke-opacity: 0.10; fill: #444444; fill-opacity: 0.10;' />
<circle cx='372.02' cy='139.58' r='2.13' style='stroke-width: 0.00; stroke: #444444; stroke-opacity: 0.10; fill: #444444; fill-opacity: 0.10;' />
<circle cx='375.90' cy='146.56' r='2.13' style='stroke-width: 0.00; stroke: #444444; stroke-opacity: 0.10; fill: #444444; fill-opacity: 0.10;' />
<circle cx='375.94' cy='134.17' r='2.13' style='stroke-width: 0.00; stroke: #444444; stroke-opacity: 0.10; fill: #444444; fill-opacity: 0.10;' />
<circle cx='352.47' cy='142.49' r='2.13' style='stroke-width: 0.00; stroke: #444444; stroke-opacity: 0.10; fill: #444444; fill-opacity: 0.10;' />
<circle cx='356.42' cy='137.32' r='2.13' style='stroke-width: 0.00; stroke: #444444; stroke-opacity: 0.10; fill: #444444; fill-opacity: 0.10;' />
<circle cx='377.45' cy='147.12' r='2.13' style='stroke-width: 0.00; stroke: #444444; stroke-opacity: 0.10; fill: #444444; fill-opacity: 0.10;' />
<circle cx='340.15' cy='143.82' r='2.13' style='stroke-width: 0.00; stroke: #444444; stroke-opacity: 0.10; fill: #444444; fill-opacity: 0.10;' />
<circle cx='331.41' cy='145.95' r='2.13' style='stroke-width: 0.00; stroke: #444444; stroke-opacity: 0.10; fill: #444444; fill-opacity: 0.10;' />
<circle cx='331.12' cy='142.28' r='2.13' style='stroke-width: 0.00; stroke: #444444; stroke-opacity: 0.10; fill: #444444; fill-opacity: 0.10;' />
<circle cx='355.79' cy='134.62' r='2.13' style='stroke-width: 0.00; stroke: #444444; stroke-opacity: 0.10; fill: #444444; fill-opacity: 0.10;' />
<circle cx='378.60' cy='141.58' r='2.13' style='stroke-width: 0.00; stroke: #444444; stroke-opacity: 0.10; fill: #444444; fill-opacity: 0.10;' />
<circle cx='375.42' cy='134.57' r='2.13' style='stroke-width: 0.00; stroke: #444444; stroke-opacity: 0.10; fill: #444444; fill-opacity: 0.10;' />
<circle cx='374.20' cy='134.39' r='2.13' style='stroke-width: 0.00; stroke: #444444; stroke-opacity: 0.10; fill: #444444; fill-opacity: 0.10;' />
<circle cx='375.56' cy='135.28' r='2.13' style='stroke-width: 0.00; stroke: #444444; stroke-opacity: 0.10; fill: #444444; fill-opacity: 0.10;' />
<circle cx='376.13' cy='134.90' r='2.13' style='stroke-width: 0.00; stroke: #444444; stroke-opacity: 0.10; fill: #444444; fill-opacity: 0.10;' />
<circle cx='334.01' cy='138.31' r='2.13' style='stroke-width: 0.00; stroke: #444444; stroke-opacity: 0.10; fill: #444444; fill-opacity: 0.10;' />
<circle cx='374.75' cy='149.37' r='2.13' style='stroke-width: 0.00; stroke: #444444; stroke-opacity: 0.10; fill: #444444; fill-opacity: 0.10;' />
<circle cx='335.45' cy='141.94' r='2.13' style='stroke-width: 0.00; stroke: #444444; stroke-opacity: 0.10; fill: #444444; fill-opacity: 0.10;' />
<circle cx='374.67' cy='136.04' r='2.13' style='stroke-width: 0.00; stroke: #444444; stroke-opacity: 0.10; fill: #444444; fill-opacity: 0.10;' />
<circle cx='378.39' cy='144.87' r='2.13' style='stroke-width: 0.00; stroke: #444444; stroke-opacity: 0.10; fill: #444444; fill-opacity: 0.10;' />
<circle cx='379.76' cy='147.30' r='2.13' style='stroke-width: 0.00; stroke: #444444; stroke-opacity: 0.10; fill: #444444; fill-opacity: 0.10;' />
<circle cx='375.79' cy='145.10' r='2.13' style='stroke-width: 0.00; stroke: #444444; stroke-opacity: 0.10; fill: #444444; fill-opacity: 0.10;' />
<circle cx='335.27' cy='137.45' r='2.13' style='stroke-width: 0.00; stroke: #444444; stroke-opacity: 0.10; fill: #444444; fill-opacity: 0.10;' />
<circle cx='377.42' cy='145.32' r='2.13' style='stroke-width: 0.00; stroke: #444444; stroke-opacity: 0.10; fill: #444444; fill-opacity: 0.10;' />
<circle cx='330.94' cy='134.15' r='2.13' style='stroke-width: 0.00; stroke: #444444; stroke-opacity: 0.10; fill: #444444; fill-opacity: 0.10;' />
<circle cx='367.93' cy='147.30' r='2.13' style='stroke-width: 0.00; stroke: #444444; stroke-opacity: 0.10; fill: #444444; fill-opacity: 0.10;' />
<circle cx='335.64' cy='145.38' r='2.13' style='stroke-width: 0.00; stroke: #444444; stroke-opacity: 0.10; fill: #444444; fill-opacity: 0.10;' />
<circle cx='332.55' cy='146.87' r='2.13' style='stroke-width: 0.00; stroke: #444444; stroke-opacity: 0.10; fill: #444444; fill-opacity: 0.10;' />
<circle cx='330.20' cy='143.29' r='2.13' style='stroke-width: 0.00; stroke: #444444; stroke-opacity: 0.10; fill: #444444; fill-opacity: 0.10;' />
<circle cx='334.33' cy='137.75' r='2.13' style='stroke-width: 0.00; stroke: #444444; stroke-opacity: 0.10; fill: #444444; fill-opacity: 0.10;' />
<circle cx='353.70' cy='114.24' r='2.13' style='stroke-width: 0.00; stroke: #444444; stroke-opacity: 0.10; fill: #444444; fill-opacity: 0.10;' />
<circle cx='331.87' cy='117.21' r='2.13' style='stroke-width: 0.00; stroke: #444444; stroke-opacity: 0.10; fill: #444444; fill-opacity: 0.10;' />
<circle cx='370.47' cy='122.59' r='2.13' style='stroke-width: 0.00; stroke: #444444; stroke-opacity: 0.10; fill: #444444; fill-opacity: 0.10;' />
<circle cx='331.20' cy='110.44' r='2.13' style='stroke-width: 0.00; stroke: #444444; stroke-opacity: 0.10; fill: #444444; fill-opacity: 0.10;' />
<circle cx='372.47' cy='116.01' r='2.13' style='stroke-width: 0.00; stroke: #444444; stroke-opacity: 0.10; fill: #444444; fill-opacity: 0.10;' />
<circle cx='374.40' cy='117.86' r='2.13' style='stroke-width: 0.00; stroke: #444444; stroke-opacity: 0.10; fill: #444444; fill-opacity: 0.10;' />
<circle cx='378.42' cy='119.74' r='2.13' style='stroke-width: 0.00; stroke: #444444; stroke-opacity: 0.10; fill: #444444; fill-opacity: 0.10;' />
<circle cx='376.23' cy='108.15' r='2.13' style='stroke-width: 0.00; stroke: #444444; stroke-opacity: 0.10; fill: #444444; fill-opacity: 0.10;' />
<circle cx='377.19' cy='116.02' r='2.13' style='stroke-width: 0.00; stroke: #444444; stroke-opacity: 0.10; fill: #444444; fill-opacity: 0.10;' />
<circle cx='346.08' cy='120.54' r='2.13' style='stroke-width: 0.00; stroke: #444444; stroke-opacity: 0.10; fill: #444444; fill-opacity: 0.10;' />
<circle cx='357.01' cy='112.56' r='2.13' style='stroke-width: 0.00; stroke: #444444; stroke-opacity: 0.10; fill: #444444; fill-opacity: 0.10;' />
<circle cx='353.51' cy='113.26' r='2.13' style='stroke-width: 0.00; stroke: #444444; stroke-opacity: 0.10; fill: #444444; fill-opacity: 0.10;' />
<circle cx='334.71' cy='108.68' r='2.13' style='stroke-width: 0.00; stroke: #444444; stroke-opacity: 0.10; fill: #444444; fill-opacity: 0.10;' />
<circle cx='330.74' cy='122.53' r='2.13' style='stroke-width: 0.00; stroke: #444444; stroke-opacity: 0.10; fill: #444444; fill-opacity: 0.10;' />
<circle cx='378.82' cy='119.20' r='2.13' style='stroke-width: 0.00; stroke: #444444; stroke-opacity: 0.10; fill: #444444; fill-opacity: 0.10;' />
<circle cx='354.61' cy='109.92' r='2.13' style='stroke-width: 0.00; stroke: #444444; stroke-opacity: 0.10; fill: #444444; fill-opacity: 0.10;' />
<circle cx='332.37' cy='107.89' r='2.13' style='stroke-width: 0.00; stroke: #444444; stroke-opacity: 0.10; fill: #444444; fill-opacity: 0.10;' />
<circle cx='362.61' cy='118.84' r='2.13' style='stroke-width: 0.00; stroke: #444444; stroke-opacity: 0.10; fill: #444444; fill-opacity: 0.10;' />
<circle cx='370.89' cy='109.08' r='2.13' style='stroke-width: 0.00; stroke: #444444; stroke-opacity: 0.10; fill: #444444; fill-opacity: 0.10;' />
<circle cx='375.49' cy='112.53' r='2.13' style='stroke-width: 0.00; stroke: #444444; stroke-opacity: 0.10; fill: #444444; fill-opacity: 0.10;' />
<circle cx='374.05' cy='119.23' r='2.13' style='stroke-width: 0.00; stroke: #444444; stroke-opacity: 0.10; fill: #444444; fill-opacity: 0.10;' />
<circle cx='377.25' cy='119.23' r='2.13' style='stroke-width: 0.00; stroke: #444444; stroke-opacity: 0.10; fill: #444444; fill-opacity: 0.10;' />
<circle cx='331.96' cy='115.76' r='2.13' style='stroke-width: 0.00; stroke: #444444; stroke-opacity: 0.10; fill: #444444; fill-opacity: 0.10;' />
<circle cx='357.87' cy='94.64' r='2.13' style='stroke-width: 0.00; stroke: #444444; stroke-opacity: 0.10; fill: #444444; fill-opacity: 0.10;' />
<circle cx='330.05' cy='96.72' r='2.13' style='stroke-width: 0.00; stroke: #444444; stroke-opacity: 0.10; fill: #444444; fill-opacity: 0.10;' />
<circle cx='351.95' cy='85.87' r='2.13' style='stroke-width: 0.00; stroke: #444444; stroke-opacity: 0.10; fill: #444444; fill-opacity: 0.10;' />
<circle cx='376.52' cy='87.73' r='2.13' style='stroke-width: 0.00; stroke: #444444; stroke-opacity: 0.10; fill: #444444; fill-opacity: 0.10;' />
<circle cx='367.84' cy='86.59' r='2.13' style='stroke-width: 0.00; stroke: #444444; stroke-opacity: 0.10; fill: #444444; fill-opacity: 0.10;' />
<circle cx='365.39' cy='92.77' r='2.13' style='stroke-width: 0.00; stroke: #444444; stroke-opacity: 0.10; fill: #444444; fill-opacity: 0.10;' />
<circle cx='357.22' cy='83.40' r='2.13' style='stroke-width: 0.00; stroke: #444444; stroke-opacity: 0.10; fill: #444444; fill-opacity: 0.10;' />
<circle cx='379.66' cy='90.17' r='2.13' style='stroke-width: 0.00; stroke: #444444; stroke-opacity: 0.10; fill: #444444; fill-opacity: 0.10;' />
<circle cx='376.42' cy='84.68' r='2.13' style='stroke-width: 0.00; stroke: #444444; stroke-opacity: 0.10; fill: #444444; fill-opacity: 0.10;' />
<circle cx='372.71' cy='85.83' r='2.13' style='stroke-width: 0.00; stroke: #444444; stroke-opacity: 0.10; fill: #444444; fill-opacity: 0.10;' />
<circle cx='379.48' cy='96.00' r='2.13' style='stroke-width: 0.00; stroke: #444444; stroke-opacity: 0.10; fill: #444444; fill-opacity: 0.10;' />
<circle cx='379.42' cy='91.93' r='2.13' style='stroke-width: 0.00; stroke: #444444; stroke-opacity: 0.10; fill: #444444; fill-opacity: 0.10;' />
<circle cx='357.28' cy='83.47' r='2.13' style='stroke-width: 0.00; stroke: #444444; stroke-opacity: 0.10; fill: #444444; fill-opacity: 0.10;' />
<circle cx='372.86' cy='88.56' r='2.13' style='stroke-width: 0.00; stroke: #444444; stroke-opacity: 0.10; fill: #444444; fill-opacity: 0.10;' />
<circle cx='376.42' cy='86.83' r='2.13' style='stroke-width: 0.00; stroke: #444444; stroke-opacity: 0.10; fill: #444444; fill-opacity: 0.10;' />
<circle cx='378.29' cy='89.61' r='2.13' style='stroke-width: 0.00; stroke: #444444; stroke-opacity: 0.10; fill: #444444; fill-opacity: 0.10;' />
<circle cx='365.24' cy='85.40' r='2.13' style='stroke-width: 0.00; stroke: #444444; stroke-opacity: 0.10; fill: #444444; fill-opacity: 0.10;' />
<circle cx='377.38' cy='83.85' r='2.13' style='stroke-width: 0.00; stroke: #444444; stroke-opacity: 0.10; fill: #444444; fill-opacity: 0.10;' />
<circle cx='370.70' cy='87.84' r='2.13' style='stroke-width: 0.00; stroke: #444444; stroke-opacity: 0.10; fill: #444444; fill-opacity: 0.10;' />
<circle cx='330.38' cy='83.26' r='2.13' style='stroke-width: 0.00; stroke: #444444; stroke-opacity: 0.10; fill: #444444; fill-opacity: 0.10;' />
<circle cx='355.95' cy='89.47' r='2.13' style='stroke-width: 0.00; stroke: #444444; stroke-opacity: 0.10; fill: #444444; fill-opacity: 0.10;' />
<circle cx='379.62' cy='87.54' r='2.13' style='stroke-width: 0.00; stroke: #444444; stroke-opacity: 0.10; fill: #444444; fill-opacity: 0.10;' />
<circle cx='375.37' cy='90.32' r='2.13' style='stroke-width: 0.00; stroke: #444444; stroke-opacity: 0.10; fill: #444444; fill-opacity: 0.10;' />
<circle cx='377.45' cy='81.50' r='2.13' style='stroke-width: 0.00; stroke: #444444; stroke-opacity: 0.10; fill: #444444; fill-opacity: 0.10;' />
<circle cx='335.96' cy='87.40' r='2.13' style='stroke-width: 0.00; stroke: #444444; stroke-opacity: 0.10; fill: #444444; fill-opacity: 0.10;' />
<circle cx='377.84' cy='90.26' r='2.13' style='stroke-width: 0.00; stroke: #444444; stroke-opacity: 0.10; fill: #444444; fill-opacity: 0.10;' />
<circle cx='373.74' cy='96.98' r='2.13' style='stroke-width: 0.00; stroke: #444444; stroke-opacity: 0.10; fill: #444444; fill-opacity: 0.10;' />
<circle cx='375.86' cy='90.20' r='2.13' style='stroke-width: 0.00; stroke: #444444; stroke-opacity: 0.10; fill: #444444; fill-opacity: 0.10;' />
<circle cx='372.66' cy='88.73' r='2.13' style='stroke-width: 0.00; stroke: #444444; stroke-opacity: 0.10; fill: #444444; fill-opacity: 0.10;' />
<circle cx='379.79' cy='96.54' r='2.13' style='stroke-width: 0.00; stroke: #444444; stroke-opacity: 0.10; fill: #444444; fill-opacity: 0.10;' />
<circle cx='375.16' cy='83.08' r='2.13' style='stroke-width: 0.00; stroke: #444444; stroke-opacity: 0.10; fill: #444444; fill-opacity: 0.10;' />
<circle cx='375.39' cy='89.25' r='2.13' style='stroke-width: 0.00; stroke: #444444; stroke-opacity: 0.10; fill: #444444; fill-opacity: 0.10;' />
<circle cx='379.27' cy='86.56' r='2.13' style='stroke-width: 0.00; stroke: #444444; stroke-opacity: 0.10; fill: #444444; fill-opacity: 0.10;' />
<circle cx='373.94' cy='84.71' r='2.13' style='stroke-width: 0.00; stroke: #444444; stroke-opacity: 0.10; fill: #444444; fill-opacity: 0.10;' />
<circle cx='377.80' cy='93.83' r='2.13' style='stroke-width: 0.00; stroke: #444444; stroke-opacity: 0.10; fill: #444444; fill-opacity: 0.10;' />
<circle cx='379.39' cy='92.21' r='2.13' style='stroke-width: 0.00; stroke: #444444; stroke-opacity: 0.10; fill: #444444; fill-opacity: 0.10;' />
<circle cx='375.17' cy='96.55' r='2.13' style='stroke-width: 0.00; stroke: #444444; stroke-opacity: 0.10; fill: #444444; fill-opacity: 0.10;' />
<circle cx='353.62' cy='93.04' r='2.13' style='stroke-width: 0.00; stroke: #444444; stroke-opacity: 0.10; fill: #444444; fill-opacity: 0.10;' />
<circle cx='377.27' cy='90.30' r='2.13' style='stroke-width: 0.00; stroke: #444444; stroke-opacity: 0.10; fill: #444444; fill-opacity: 0.10;' />
<circle cx='367.68' cy='65.49' r='2.13' style='stroke-width: 0.00; stroke: #444444; stroke-opacity: 0.10; fill: #444444; fill-opacity: 0.10;' />
<circle cx='357.15' cy='61.58' r='2.13' style='stroke-width: 0.00; stroke: #444444; stroke-opacity: 0.10; fill: #444444; fill-opacity: 0.10;' />
<circle cx='339.81' cy='68.05' r='2.13' style='stroke-width: 0.00; stroke: #444444; stroke-opacity: 0.10; fill: #444444; fill-opacity: 0.10;' />
<circle cx='336.06' cy='61.17' r='2.13' style='stroke-width: 0.00; stroke: #444444; stroke-opacity: 0.10; fill: #444444; fill-opacity: 0.10;' />
<circle cx='368.98' cy='65.37' r='2.13' style='stroke-width: 0.00; stroke: #444444; stroke-opacity: 0.10; fill: #444444; fill-opacity: 0.10;' />
<circle cx='379.22' cy='58.10' r='2.13' style='stroke-width: 0.00; stroke: #444444; stroke-opacity: 0.10; fill: #444444; fill-opacity: 0.10;' />
<circle cx='378.57' cy='67.16' r='2.13' style='stroke-width: 0.00; stroke: #444444; stroke-opacity: 0.10; fill: #444444; fill-opacity: 0.10;' />
<circle cx='376.80' cy='63.78' r='2.13' style='stroke-width: 0.00; stroke: #444444; stroke-opacity: 0.10; fill: #444444; fill-opacity: 0.10;' />
<circle cx='373.82' cy='56.07' r='2.13' style='stroke-width: 0.00; stroke: #444444; stroke-opacity: 0.10; fill: #444444; fill-opacity: 0.10;' />
<circle cx='374.36' cy='64.93' r='2.13' style='stroke-width: 0.00; stroke: #444444; stroke-opacity: 0.10; fill: #444444; fill-opacity: 0.10;' />
<circle cx='377.08' cy='66.87' r='2.13' style='stroke-width: 0.00; stroke: #444444; stroke-opacity: 0.10; fill: #444444; fill-opacity: 0.10;' />
<circle cx='375.45' cy='56.71' r='2.13' style='stroke-width: 0.00; stroke: #444444; stroke-opacity: 0.10; fill: #444444; fill-opacity: 0.10;' />
<circle cx='379.59' cy='67.35' r='2.13' style='stroke-width: 0.00; stroke: #444444; stroke-opacity: 0.10; fill: #444444; fill-opacity: 0.10;' />
<circle cx='375.51' cy='67.50' r='2.13' style='stroke-width: 0.00; stroke: #444444; stroke-opacity: 0.10; fill: #444444; fill-opacity: 0.10;' />
<circle cx='375.97' cy='65.99' r='2.13' style='stroke-width: 0.00; stroke: #444444; stroke-opacity: 0.10; fill: #444444; fill-opacity: 0.10;' />
<circle cx='378.60' cy='57.80' r='2.13' style='stroke-width: 0.00; stroke: #444444; stroke-opacity: 0.10; fill: #444444; fill-opacity: 0.10;' />
<circle cx='331.10' cy='56.71' r='2.13' style='stroke-width: 0.00; stroke: #444444; stroke-opacity: 0.10; fill: #444444; fill-opacity: 0.10;' />
<circle cx='377.33' cy='62.35' r='2.13' style='stroke-width: 0.00; stroke: #444444; stroke-opacity: 0.10; fill: #444444; fill-opacity: 0.10;' />
<circle cx='374.12' cy='59.91' r='2.13' style='stroke-width: 0.00; stroke: #444444; stroke-opacity: 0.10; fill: #444444; fill-opacity: 0.10;' />
<circle cx='374.66' cy='61.45' r='2.13' style='stroke-width: 0.00; stroke: #444444; stroke-opacity: 0.10; fill: #444444; fill-opacity: 0.10;' />
<circle cx='374.74' cy='65.59' r='2.13' style='stroke-width: 0.00; stroke: #444444; stroke-opacity: 0.10; fill: #444444; fill-opacity: 0.10;' />
<circle cx='374.78' cy='70.20' r='2.13' style='stroke-width: 0.00; stroke: #444444; stroke-opacity: 0.10; fill: #444444; fill-opacity: 0.10;' />
<circle cx='377.46' cy='61.65' r='2.13' style='stroke-width: 0.00; stroke: #444444; stroke-opacity: 0.10; fill: #444444; fill-opacity: 0.10;' />
<circle cx='379.15' cy='57.71' r='2.13' style='stroke-width: 0.00; stroke: #444444; stroke-opacity: 0.10; fill: #444444; fill-opacity: 0.10;' />
<circle cx='374.22' cy='43.13' r='2.13' style='stroke-width: 0.00; stroke: #444444; stroke-opacity: 0.10; fill: #444444; fill-opacity: 0.10;' />
<circle cx='377.36' cy='32.01' r='2.13' style='stroke-width: 0.00; stroke: #444444; stroke-opacity: 0.10; fill: #444444; fill-opacity: 0.10;' />
<circle cx='374.80' cy='33.53' r='2.13' style='stroke-width: 0.00; stroke: #444444; stroke-opacity: 0.10; fill: #444444; fill-opacity: 0.10;' />
<circle cx='351.91' cy='32.50' r='2.13' style='stroke-width: 0.00; stroke: #444444; stroke-opacity: 0.10; fill: #444444; fill-opacity: 0.10;' />
<circle cx='357.31' cy='42.32' r='2.13' style='stroke-width: 0.00; stroke: #444444; stroke-opacity: 0.10; fill: #444444; fill-opacity: 0.10;' />
<circle cx='332.65' cy='33.72' r='2.13' style='stroke-width: 0.00; stroke: #444444; stroke-opacity: 0.10; fill: #444444; fill-opacity: 0.10;' />
<circle cx='331.19' cy='37.82' r='2.13' style='stroke-width: 0.00; stroke: #444444; stroke-opacity: 0.10; fill: #444444; fill-opacity: 0.10;' />
<circle cx='330.05' cy='42.16' r='2.13' style='stroke-width: 0.00; stroke: #444444; stroke-opacity: 0.10; fill: #444444; fill-opacity: 0.10;' />
<circle cx='333.17' cy='39.91' r='2.13' style='stroke-width: 0.00; stroke: #444444; stroke-opacity: 0.10; fill: #444444; fill-opacity: 0.10;' />
<circle cx='379.05' cy='35.99' r='2.13' style='stroke-width: 0.00; stroke: #444444; stroke-opacity: 0.10; fill: #444444; fill-opacity: 0.10;' />
<circle cx='379.83' cy='44.88' r='2.13' style='stroke-width: 0.00; stroke: #444444; stroke-opacity: 0.10; fill: #444444; fill-opacity: 0.10;' />
<circle cx='377.64' cy='30.82' r='2.13' style='stroke-width: 0.00; stroke: #444444; stroke-opacity: 0.10; fill: #444444; fill-opacity: 0.10;' />
<circle cx='376.24' cy='43.65' r='2.13' style='stroke-width: 0.00; stroke: #444444; stroke-opacity: 0.10; fill: #444444; fill-opacity: 0.10;' />
<circle cx='357.12' cy='37.92' r='2.13' style='stroke-width: 0.00; stroke: #444444; stroke-opacity: 0.10; fill: #444444; fill-opacity: 0.10;' />
<circle cx='376.31' cy='40.32' r='2.13' style='stroke-width: 0.00; stroke: #444444; stroke-opacity: 0.10; fill: #444444; fill-opacity: 0.10;' />
<circle cx='377.34' cy='39.34' r='2.13' style='stroke-width: 0.00; stroke: #444444; stroke-opacity: 0.10; fill: #444444; fill-opacity: 0.10;' />
<circle cx='377.55' cy='33.76' r='2.13' style='stroke-width: 0.00; stroke: #444444; stroke-opacity: 0.10; fill: #444444; fill-opacity: 0.10;' />
<circle cx='375.24' cy='34.11' r='2.13' style='stroke-width: 0.00; stroke: #444444; stroke-opacity: 0.10; fill: #444444; fill-opacity: 0.10;' />
<circle cx='374.06' cy='36.77' r='2.13' style='stroke-width: 0.00; stroke: #444444; stroke-opacity: 0.10; fill: #444444; fill-opacity: 0.10;' />
<circle cx='379.60' cy='31.71' r='2.13' style='stroke-width: 0.00; stroke: #444444; stroke-opacity: 0.10; fill: #444444; fill-opacity: 0.10;' />
<circle cx='361.84' cy='30.50' r='2.13' style='stroke-width: 0.00; stroke: #444444; stroke-opacity: 0.10; fill: #444444; fill-opacity: 0.10;' />
<circle cx='378.72' cy='35.57' r='2.13' style='stroke-width: 0.00; stroke: #444444; stroke-opacity: 0.10; fill: #444444; fill-opacity: 0.10;' />
<circle cx='333.44' cy='42.59' r='2.13' style='stroke-width: 0.00; stroke: #444444; stroke-opacity: 0.10; fill: #444444; fill-opacity: 0.10;' />
<circle cx='364.97' cy='42.68' r='2.13' style='stroke-width: 0.00; stroke: #444444; stroke-opacity: 0.10; fill: #444444; fill-opacity: 0.10;' />
<circle cx='343.62' cy='44.06' r='2.13' style='stroke-width: 0.00; stroke: #444444; stroke-opacity: 0.10; fill: #444444; fill-opacity: 0.10;' />
<polygon points='346.36,193.87 359.45,197.79 372.53,193.87 359.45,189.95 346.36,193.87 ' style='stroke-width: 1.07; stroke: #514454; stroke-linecap: butt; fill: #514454;' />
<polygon points='347.49,167.74 359.86,171.66 372.24,167.74 359.86,163.82 347.49,167.74 ' style='stroke-width: 1.07; stroke: #514254; stroke-linecap: butt; fill: #514254;' />
<polygon points='342.47,141.60 358.37,145.52 374.27,141.60 358.37,137.68 342.47,141.60 ' style='stroke-width: 1.07; stroke: #524855; stroke-linecap: butt; fill: #524855;' />
<polygon points='341.19,115.46 358.88,119.38 376.57,115.46 358.88,111.54 341.19,115.46 ' style='stroke-width: 1.07; stroke: #524654; stroke-linecap: butt; fill: #524654;' />
<polygon points='359.40,89.33 368.50,93.25 377.60,89.33 368.50,85.41 359.40,89.33 ' style='stroke-width: 1.07; stroke: #4A2154; stroke-linecap: butt; fill: #4A2154;' />
<polygon points='356.62,63.19 370.22,67.11 383.82,63.19 370.22,59.27 356.62,63.19 ' style='stroke-width: 1.07; stroke: #491B54; stroke-linecap: butt; fill: #491B54;' />
<polygon points='346.15,37.06 362.93,40.98 379.72,37.06 362.93,33.14 346.15,37.06 ' style='stroke-width: 1.07; stroke: #4F3754; stroke-linecap: butt; fill: #4F3754;' />
<rect x='327.36' y='21.99' width='59.15' height='187.38' style='stroke-width: 0.78; stroke: #333333;' />
</g>
<g clip-path='url(#cpMC4wMHw1MTAuMjR8MC4wMHwyMzIuMTY=)'>
<text x='323.77' y='196.16' text-anchor='end' style='font-size: 6.40px;fill: #4D4D4D; font-family: "Arial";' textLength='53.67px' lengthAdjust='spacingAndGlyphs'>as little as possible</text>
<text x='323.77' y='170.03' text-anchor='end' style='font-size: 6.40px;fill: #4D4D4D; font-family: "Arial";' textLength='53.67px' lengthAdjust='spacingAndGlyphs'>as little as possible</text>
<text x='323.77' y='143.89' text-anchor='end' style='font-size: 6.40px;fill: #4D4D4D; font-family: "Arial";' textLength='53.67px' lengthAdjust='spacingAndGlyphs'>as little as possible</text>
<text x='323.77' y='117.75' text-anchor='end' style='font-size: 6.40px;fill: #4D4D4D; font-family: "Arial";' textLength='53.67px' lengthAdjust='spacingAndGlyphs'>as little as possible</text>
<text x='323.77' y='91.62' text-anchor='end' style='font-size: 6.40px;fill: #4D4D4D; font-family: "Arial";' textLength='53.67px' lengthAdjust='spacingAndGlyphs'>as little as possible</text>
<text x='323.77' y='65.48' text-anchor='end' style='font-size: 6.40px;fill: #4D4D4D; font-family: "Arial";' textLength='53.67px' lengthAdjust='spacingAndGlyphs'>as little as possible</text>
<text x='323.77' y='39.35' text-anchor='end' style='font-size: 6.40px;fill: #4D4D4D; font-family: "Arial";' textLength='53.67px' lengthAdjust='spacingAndGlyphs'>as little as possible</text>
<polyline points='325.37,193.87 327.36,193.87 ' style='stroke-width: 0.78; stroke: #333333; stroke-linecap: butt;' />
<polyline points='325.37,167.74 327.36,167.74 ' style='stroke-width: 0.78; stroke: #333333; stroke-linecap: butt;' />
<polyline points='325.37,141.60 327.36,141.60 ' style='stroke-width: 0.78; stroke: #333333; stroke-linecap: butt;' />
<polyline points='325.37,115.46 327.36,115.46 ' style='stroke-width: 0.78; stroke: #333333; stroke-linecap: butt;' />
<polyline points='325.37,89.33 327.36,89.33 ' style='stroke-width: 0.78; stroke: #333333; stroke-linecap: butt;' />
<polyline points='325.37,63.19 327.36,63.19 ' style='stroke-width: 0.78; stroke: #333333; stroke-linecap: butt;' />
<polyline points='325.37,37.06 327.36,37.06 ' style='stroke-width: 0.78; stroke: #333333; stroke-linecap: butt;' />
<polyline points='388.50,193.87 386.51,193.87 ' style='stroke-width: 0.78; stroke: #333333; stroke-linecap: butt;' />
<polyline points='388.50,167.74 386.51,167.74 ' style='stroke-width: 0.78; stroke: #333333; stroke-linecap: butt;' />
<polyline points='388.50,141.60 386.51,141.60 ' style='stroke-width: 0.78; stroke: #333333; stroke-linecap: butt;' />
<polyline points='388.50,115.46 386.51,115.46 ' style='stroke-width: 0.78; stroke: #333333; stroke-linecap: butt;' />
<polyline points='388.50,89.33 386.51,89.33 ' style='stroke-width: 0.78; stroke: #333333; stroke-linecap: butt;' />
<polyline points='388.50,63.19 386.51,63.19 ' style='stroke-width: 0.78; stroke: #333333; stroke-linecap: butt;' />
<polyline points='388.50,37.06 386.51,37.06 ' style='stroke-width: 0.78; stroke: #333333; stroke-linecap: butt;' />
<text x='390.10' y='196.16' style='font-size: 6.40px;fill: #4D4D4D; font-family: "Arial";' textLength='57.94px' lengthAdjust='spacingAndGlyphs'>as much as possible</text>
<text x='390.10' y='170.03' style='font-size: 6.40px;fill: #4D4D4D; font-family: "Arial";' textLength='57.94px' lengthAdjust='spacingAndGlyphs'>as much as possible</text>
<text x='390.10' y='143.89' style='font-size: 6.40px;fill: #4D4D4D; font-family: "Arial";' textLength='57.94px' lengthAdjust='spacingAndGlyphs'>as much as possible</text>
<text x='390.10' y='117.75' style='font-size: 6.40px;fill: #4D4D4D; font-family: "Arial";' textLength='57.94px' lengthAdjust='spacingAndGlyphs'>as much as possible</text>
<text x='390.10' y='91.62' style='font-size: 6.40px;fill: #4D4D4D; font-family: "Arial";' textLength='57.94px' lengthAdjust='spacingAndGlyphs'>as much as possible</text>
<text x='390.10' y='65.48' style='font-size: 6.40px;fill: #4D4D4D; font-family: "Arial";' textLength='57.94px' lengthAdjust='spacingAndGlyphs'>as much as possible</text>
<text x='390.10' y='39.35' style='font-size: 6.40px;fill: #4D4D4D; font-family: "Arial";' textLength='57.94px' lengthAdjust='spacingAndGlyphs'>as much as possible</text>
<polyline points='333.30,211.35 333.30,209.36 ' style='stroke-width: 0.78; stroke: #333333; stroke-linecap: butt;' />
<polyline points='340.56,211.35 340.56,209.36 ' style='stroke-width: 0.78; stroke: #333333; stroke-linecap: butt;' />
<polyline points='347.83,211.35 347.83,209.36 ' style='stroke-width: 0.78; stroke: #333333; stroke-linecap: butt;' />
<polyline points='355.09,211.35 355.09,209.36 ' style='stroke-width: 0.78; stroke: #333333; stroke-linecap: butt;' />
<polyline points='362.35,211.35 362.35,209.36 ' style='stroke-width: 0.78; stroke: #333333; stroke-linecap: butt;' />
<polyline points='369.62,211.35 369.62,209.36 ' style='stroke-width: 0.78; stroke: #333333; stroke-linecap: butt;' />
<polyline points='376.88,211.35 376.88,209.36 ' style='stroke-width: 0.78; stroke: #333333; stroke-linecap: butt;' />
<text x='333.30' y='217.53' text-anchor='middle' style='font-size: 6.40px;fill: #4D4D4D; font-family: "Arial";' textLength='5.69px' lengthAdjust='spacingAndGlyphs'>-3</text>
<text x='340.56' y='217.53' text-anchor='middle' style='font-size: 6.40px;fill: #4D4D4D; font-family: "Arial";' textLength='5.69px' lengthAdjust='spacingAndGlyphs'>-2</text>
<text x='347.83' y='217.53' text-anchor='middle' style='font-size: 6.40px;fill: #4D4D4D; font-family: "Arial";' textLength='5.69px' lengthAdjust='spacingAndGlyphs'>-1</text>
<text x='355.09' y='217.53' text-anchor='middle' style='font-size: 6.40px;fill: #4D4D4D; font-family: "Arial";' textLength='3.56px' lengthAdjust='spacingAndGlyphs'>0</text>
<text x='362.35' y='217.53' text-anchor='middle' style='font-size: 6.40px;fill: #4D4D4D; font-family: "Arial";' textLength='3.56px' lengthAdjust='spacingAndGlyphs'>1</text>
<text x='369.62' y='217.53' text-anchor='middle' style='font-size: 6.40px;fill: #4D4D4D; font-family: "Arial";' textLength='3.56px' lengthAdjust='spacingAndGlyphs'>2</text>
<text x='376.88' y='217.53' text-anchor='middle' style='font-size: 6.40px;fill: #4D4D4D; font-family: "Arial";' textLength='3.56px' lengthAdjust='spacingAndGlyphs'>3</text>
<text x='356.93' y='226.67' text-anchor='middle' style='font-size: 8.00px; font-family: "Arial";' textLength='84.07px' lengthAdjust='spacingAndGlyphs'>Scores and 99.99% CIs</text>
</g>
<defs>
  <clipPath id='cpMC4wMHwyNjYuMzl8MjEuOTl8MjA5LjM2'>
    <rect x='0.00' y='21.99' width='266.39' height='187.38' />
  </clipPath>
</defs>
<g clip-path='url(#cpMC4wMHwyNjYuMzl8MjEuOTl8MjA5LjM2)'>
</g>
<g clip-path='url(#cpMC4wMHw1MTAuMjR8MC4wMHwyMzIuMTY=)'>
<text x='3.59' y='187.72' style='font-size: 8.00px; font-family: "Arial";' textLength='254.87px' lengthAdjust='spacingAndGlyphs'>When it comes to keeping at least {distRec} distance from others, I want</text>
<text x='3.59' y='196.36' style='font-size: 8.00px; font-family: "Arial";' textLength='105.88px' lengthAdjust='spacingAndGlyphs'>to be like people in general …</text>
<text x='3.59' y='205.00' style='font-size: 8.00px; font-family: "Arial";' textLength='103.17px' lengthAdjust='spacingAndGlyphs'>[NrmDeIdLikeGeneral_clean]</text>
<text x='3.59' y='161.65' style='font-size: 8.00px; font-family: "Arial";' textLength='254.87px' lengthAdjust='spacingAndGlyphs'>When it comes to keeping at least {distRec} distance from others, I want</text>
<text x='3.59' y='170.29' style='font-size: 8.00px; font-family: "Arial";' textLength='88.97px' lengthAdjust='spacingAndGlyphs'>to be like other people …</text>
<text x='3.59' y='178.93' style='font-size: 8.00px; font-family: "Arial";' textLength='80.04px' lengthAdjust='spacingAndGlyphs'>[NrmDeIdOther_clean]</text>
<text x='3.59' y='135.58' style='font-size: 8.00px; font-family: "Arial";' textLength='254.87px' lengthAdjust='spacingAndGlyphs'>When it comes to keeping at least {distRec} distance from others, I want</text>
<text x='3.59' y='144.22' style='font-size: 8.00px; font-family: "Arial";' textLength='81.39px' lengthAdjust='spacingAndGlyphs'>to be like my friends …</text>
<text x='3.59' y='152.86' style='font-size: 8.00px; font-family: "Arial";' textLength='86.71px' lengthAdjust='spacingAndGlyphs'>[NrmDeIdFriends_clean]</text>
<text x='3.59' y='109.51' style='font-size: 8.00px; font-family: "Arial";' textLength='254.87px' lengthAdjust='spacingAndGlyphs'>When it comes to keeping at least {distRec} distance from others, I want</text>
<text x='3.59' y='118.15' style='font-size: 8.00px; font-family: "Arial";' textLength='145.46px' lengthAdjust='spacingAndGlyphs'>to be like people in my neighbourhood …</text>
<text x='3.59' y='126.79' style='font-size: 8.00px; font-family: "Arial";' textLength='100.06px' lengthAdjust='spacingAndGlyphs'>[NrmDeIdLikeNeighb_clean]</text>
<text x='3.59' y='83.43' style='font-size: 8.00px; font-family: "Arial";' textLength='254.87px' lengthAdjust='spacingAndGlyphs'>When it comes to keeping at least {distRec} distance from others, I want</text>
<text x='3.59' y='92.07' style='font-size: 8.00px; font-family: "Arial";' textLength='113.82px' lengthAdjust='spacingAndGlyphs'>to be like my family members …</text>
<text x='3.59' y='100.71' style='font-size: 8.00px; font-family: "Arial";' textLength='83.58px' lengthAdjust='spacingAndGlyphs'>[NrmDeIdFamily_clean]</text>
<text x='3.59' y='57.36' style='font-size: 8.00px; font-family: "Arial";' textLength='254.87px' lengthAdjust='spacingAndGlyphs'>When it comes to keeping at least {distRec} distance from others, I want</text>
<text x='3.59' y='66.00' style='font-size: 8.00px; font-family: "Arial";' textLength='98.73px' lengthAdjust='spacingAndGlyphs'>to be like my role models …</text>
<text x='3.59' y='74.64' style='font-size: 8.00px; font-family: "Arial";' textLength='76.48px' lengthAdjust='spacingAndGlyphs'>[NrmDeIdRole_clean]</text>
<text x='3.59' y='31.29' style='font-size: 8.00px; font-family: "Arial";' textLength='254.87px' lengthAdjust='spacingAndGlyphs'>When it comes to keeping at least {distRec} distance from others, I want</text>
<text x='3.59' y='39.93' style='font-size: 8.00px; font-family: "Arial";' textLength='79.61px' lengthAdjust='spacingAndGlyphs'>to be like my doctor …</text>
<text x='3.59' y='48.57' style='font-size: 8.00px; font-family: "Arial";' textLength='83.59px' lengthAdjust='spacingAndGlyphs'>[NrmDeIdDoctor_clean]</text>
</g>
<g clip-path='url(#cpMC4wMHwyNjYuMzl8MjEuOTl8MjA5LjM2)'>
</g>
<g clip-path='url(#cpMC4wMHw1MTAuMjR8MC4wMHwyMzIuMTY=)'>
</g>
<defs>
  <clipPath id='cpNDUxLjA4fDUxMC4yNHwxOC4wMHwyMzIuMTY='>
    <rect x='451.08' y='18.00' width='59.15' height='214.16' />
  </clipPath>
</defs>
<g clip-path='url(#cpNDUxLjA4fDUxMC4yNHwxOC4wMHwyMzIuMTY=)'>
<rect x='451.08' y='18.00' width='59.15' height='214.16' style='stroke-width: 0.78; stroke: #FFFFFF; fill: #FFFFFF;' />
</g>
<defs>
  <clipPath id='cpNDU1LjA3fDUwNi4yNXwyMS45OXwyMDkuMzY='>
    <rect x='455.07' y='21.99' width='51.18' height='187.38' />
  </clipPath>
</defs>
<g clip-path='url(#cpNDU1LjA3fDUwNi4yNXwyMS45OXwyMDkuMzY=)'>
<rect x='455.07' y='21.99' width='51.18' height='187.38' style='stroke-width: 0.78; stroke: none; fill: #FFFFFF;' />
<polyline points='463.21,209.36 463.21,21.99 ' style='stroke-width: 0.39; stroke: #EBEBEB; stroke-linecap: butt;' />
<polyline points='474.84,209.36 474.84,21.99 ' style='stroke-width: 0.39; stroke: #EBEBEB; stroke-linecap: butt;' />
<polyline points='486.48,209.36 486.48,21.99 ' style='stroke-width: 0.39; stroke: #EBEBEB; stroke-linecap: butt;' />
<polyline points='498.11,209.36 498.11,21.99 ' style='stroke-width: 0.39; stroke: #EBEBEB; stroke-linecap: butt;' />
<polyline points='457.39,209.36 457.39,21.99 ' style='stroke-width: 0.78; stroke: #EBEBEB; stroke-linecap: butt;' />
<polyline points='469.03,209.36 469.03,21.99 ' style='stroke-width: 0.78; stroke: #EBEBEB; stroke-linecap: butt;' />
<polyline points='480.66,209.36 480.66,21.99 ' style='stroke-width: 0.78; stroke: #EBEBEB; stroke-linecap: butt;' />
<polyline points='492.29,209.36 492.29,21.99 ' style='stroke-width: 0.78; stroke: #EBEBEB; stroke-linecap: butt;' />
<polyline points='503.92,209.36 503.92,21.99 ' style='stroke-width: 0.78; stroke: #EBEBEB; stroke-linecap: butt;' />
<line x1='469.03' y1='209.36' x2='469.03' y2='21.99' style='stroke-width: 1.07; stroke: #BEBEBE; stroke-linecap: butt;' />
<line x1='480.66' y1='209.36' x2='480.66' y2='21.99' style='stroke-width: 1.07; stroke: #BEBEBE; stroke-linecap: butt;' />
<line x1='492.29' y1='209.36' x2='492.29' y2='21.99' style='stroke-width: 1.07; stroke: #BEBEBE; stroke-linecap: butt;' />
<polygon points='467.24,196.79 473.13,200.85 480.35,196.79 473.13,192.73 467.24,196.79 ' style='stroke-width: 2.13; stroke-linecap: butt; fill: #446866; fill-opacity: 0.50;' />
<polygon points='467.68,169.75 474.24,173.81 482.13,169.75 474.24,165.69 467.68,169.75 ' style='stroke-width: 2.13; stroke-linecap: butt; fill: #466564; fill-opacity: 0.50;' />
<polygon points='468.43,142.71 475.92,146.77 484.59,142.71 475.92,138.66 468.43,142.71 ' style='stroke-width: 2.13; stroke-linecap: butt; fill: #4A6160; fill-opacity: 0.50;' />
<polygon points='474.48,115.67 484.49,119.73 493.23,115.67 484.49,111.62 474.48,115.67 ' style='stroke-width: 2.13; stroke-linecap: butt; fill: #524755; fill-opacity: 0.50;' />
<polygon points='479.24,88.64 486.69,92.69 493.02,88.64 486.69,84.58 479.24,88.64 ' style='stroke-width: 2.13; stroke-linecap: butt; fill: #503F54; fill-opacity: 0.50;' />
<polygon points='480.55,61.60 490.16,65.65 497.00,61.60 490.16,57.54 480.55,61.60 ' style='stroke-width: 2.13; stroke-linecap: butt; fill: #4E3354; fill-opacity: 0.50;' />
<polygon points='481.99,34.56 490.95,38.61 497.25,34.56 490.95,30.50 481.99,34.56 ' style='stroke-width: 2.13; stroke-linecap: butt; fill: #4D3054; fill-opacity: 0.50;' />
<rect x='455.07' y='21.99' width='51.18' height='187.38' style='stroke-width: 0.78; stroke: #333333;' />
</g>
<g clip-path='url(#cpNDUxLjA4fDUxMC4yNHwxOC4wMHwyMzIuMTY=)'>
</g>
<g clip-path='url(#cpMC4wMHw1MTAuMjR8MC4wMHwyMzIuMTY=)'>
</g>
<g clip-path='url(#cpNDUxLjA4fDUxMC4yNHwxOC4wMHwyMzIuMTY=)'>
</g>
<g clip-path='url(#cpMC4wMHw1MTAuMjR8MC4wMHwyMzIuMTY=)'>
</g>
<g clip-path='url(#cpNDUxLjA4fDUxMC4yNHwxOC4wMHwyMzIuMTY=)'>
</g>
<g clip-path='url(#cpMC4wMHw1MTAuMjR8MC4wMHwyMzIuMTY=)'>
</g>
<g clip-path='url(#cpNDUxLjA4fDUxMC4yNHwxOC4wMHwyMzIuMTY=)'>
</g>
<g clip-path='url(#cpMC4wMHw1MTAuMjR8MC4wMHwyMzIuMTY=)'>
</g>
<g clip-path='url(#cpNDUxLjA4fDUxMC4yNHwxOC4wMHwyMzIuMTY=)'>
</g>
<g clip-path='url(#cpMC4wMHw1MTAuMjR8MC4wMHwyMzIuMTY=)'>
</g>
<g clip-path='url(#cpNDUxLjA4fDUxMC4yNHwxOC4wMHwyMzIuMTY=)'>
</g>
<g clip-path='url(#cpMC4wMHw1MTAuMjR8MC4wMHwyMzIuMTY=)'>
</g>
<g clip-path='url(#cpNDUxLjA4fDUxMC4yNHwxOC4wMHwyMzIuMTY=)'>
</g>
<g clip-path='url(#cpMC4wMHw1MTAuMjR8MC4wMHwyMzIuMTY=)'>
</g>
<g clip-path='url(#cpNDUxLjA4fDUxMC4yNHwxOC4wMHwyMzIuMTY=)'>
</g>
<g clip-path='url(#cpMC4wMHw1MTAuMjR8MC4wMHwyMzIuMTY=)'>
<polyline points='457.39,211.35 457.39,209.36 ' style='stroke-width: 0.78; stroke: #333333; stroke-linecap: butt;' />
<polyline points='469.03,211.35 469.03,209.36 ' style='stroke-width: 0.78; stroke: #333333; stroke-linecap: butt;' />
<polyline points='480.66,211.35 480.66,209.36 ' style='stroke-width: 0.78; stroke: #333333; stroke-linecap: butt;' />
<polyline points='492.29,211.35 492.29,209.36 ' style='stroke-width: 0.78; stroke: #333333; stroke-linecap: butt;' />
<polyline points='503.92,211.35 503.92,209.36 ' style='stroke-width: 0.78; stroke: #333333; stroke-linecap: butt;' />
<text x='457.39' y='217.53' text-anchor='middle' style='font-size: 6.40px;fill: #4D4D4D; font-family: "Arial";' textLength='11.02px' lengthAdjust='spacingAndGlyphs'>-1.0</text>
<text x='469.03' y='217.53' text-anchor='middle' style='font-size: 6.40px;fill: #4D4D4D; font-family: "Arial";' textLength='11.02px' lengthAdjust='spacingAndGlyphs'>-0.5</text>
<text x='480.66' y='217.53' text-anchor='middle' style='font-size: 6.40px;fill: #4D4D4D; font-family: "Arial";' textLength='8.89px' lengthAdjust='spacingAndGlyphs'>0.0</text>
<text x='492.29' y='217.53' text-anchor='middle' style='font-size: 6.40px;fill: #4D4D4D; font-family: "Arial";' textLength='8.89px' lengthAdjust='spacingAndGlyphs'>0.5</text>
<text x='503.92' y='217.53' text-anchor='middle' style='font-size: 6.40px;fill: #4D4D4D; font-family: "Arial";' textLength='8.89px' lengthAdjust='spacingAndGlyphs'>1.0</text>
</g>
<g clip-path='url(#cpNDUxLjA4fDUxMC4yNHwxOC4wMHwyMzIuMTY=)'>
</g>
<g clip-path='url(#cpMC4wMHw1MTAuMjR8MC4wMHwyMzIuMTY=)'>
</g>
<g clip-path='url(#cpNDUxLjA4fDUxMC4yNHwxOC4wMHwyMzIuMTY=)'>
</g>
<g clip-path='url(#cpMC4wMHw1MTAuMjR8MC4wMHwyMzIuMTY=)'>
<text x='480.66' y='226.67' text-anchor='middle' style='font-size: 8.00px; font-family: "Arial";' textLength='85.41px' lengthAdjust='spacingAndGlyphs'>95% CIs of associations</text>
</g>
<g clip-path='url(#cpNDUxLjA4fDUxMC4yNHwxOC4wMHwyMzIuMTY=)'>
</g>
<g clip-path='url(#cpMC4wMHw1MTAuMjR8MC4wMHwyMzIuMTY=)'>
</g>
<g clip-path='url(#cpNDUxLjA4fDUxMC4yNHwxOC4wMHwyMzIuMTY=)'>
</g>
<g clip-path='url(#cpMC4wMHw1MTAuMjR8MC4wMHwyMzIuMTY=)'>
</g>
<g clip-path='url(#cpNDUxLjA4fDUxMC4yNHwxOC4wMHwyMzIuMTY=)'>
</g>
<g clip-path='url(#cpMC4wMHw1MTAuMjR8MC4wMHwyMzIuMTY=)'>
</g>
<g clip-path='url(#cpNDUxLjA4fDUxMC4yNHwxOC4wMHwyMzIuMTY=)'>
</g>
<g clip-path='url(#cpMC4wMHw1MTAuMjR8MC4wMHwyMzIuMTY=)'>
</g>
<g clip-path='url(#cpNDUxLjA4fDUxMC4yNHwxOC4wMHwyMzIuMTY=)'>
</g>
<g clip-path='url(#cpMC4wMHw1MTAuMjR8MC4wMHwyMzIuMTY=)'>
</g>
<g clip-path='url(#cpNDUxLjA4fDUxMC4yNHwxOC4wMHwyMzIuMTY=)'>
</g>
<g clip-path='url(#cpMC4wMHw1MTAuMjR8MC4wMHwyMzIuMTY=)'>
</g>
<g clip-path='url(#cpNDUxLjA4fDUxMC4yNHwxOC4wMHwyMzIuMTY=)'>
</g>
<g clip-path='url(#cpMC4wMHw1MTAuMjR8MC4wMHwyMzIuMTY=)'>
</g>
<g clip-path='url(#cpNDUxLjA4fDUxMC4yNHwxOC4wMHwyMzIuMTY=)'>
</g>
<g clip-path='url(#cpMC4wMHw1MTAuMjR8MC4wMHwyMzIuMTY=)'>
</g>
<g clip-path='url(#cpNDUxLjA4fDUxMC4yNHwxOC4wMHwyMzIuMTY=)'>
</g>
<g clip-path='url(#cpMC4wMHw1MTAuMjR8MC4wMHwyMzIuMTY=)'>
</g>
<g clip-path='url(#cpNDUxLjA4fDUxMC4yNHwxOC4wMHwyMzIuMTY=)'>
</g>
<g clip-path='url(#cpMC4wMHw1MTAuMjR8MC4wMHwyMzIuMTY=)'>
</g>
<g clip-path='url(#cpNDUxLjA4fDUxMC4yNHwxOC4wMHwyMzIuMTY=)'>
</g>
<g clip-path='url(#cpMC4wMHw1MTAuMjR8MC4wMHwyMzIuMTY=)'>
<text x='2.30' y='8.78' style='font-size: 9.60px; font-weight: bold; font-family: "Arial";' textLength='147.66px' lengthAdjust='spacingAndGlyphs'>Means and associations (r) with </text>
<text x='149.96' y='8.78' style='font-size: 9.60px; font-weight: bold; font-family: "Arial";' textLength='43.17px' lengthAdjust='spacingAndGlyphs'>proximity</text>
<text x='193.13' y='8.78' style='font-size: 9.60px; font-weight: bold; font-family: "Arial";' textLength='2.66px' lengthAdjust='spacingAndGlyphs'> </text>
</g>
</svg>
