<?xml version='1.0' encoding='UTF-8' ?>
<svg xmlns='http://www.w3.org/2000/svg' xmlns:xlink='http://www.w3.org/1999/xlink' class='svglite' width='510.24pt' height='232.16pt' viewBox='0 0 510.24 232.16'>
<defs>
  <style type='text/css'><![CDATA[
    .svglite line, .svglite polyline, .svglite polygon, .svglite path, .svglite rect, .svglite circle {
      fill: none;
      stroke: #000000;
      stroke-linecap: round;
      stroke-linejoin: round;
      stroke-miterlimit: 10.00;
    }
    .svglite text {
      white-space: pre;
    }
  ]]></style>
</defs>
<rect width='100%' height='100%' style='stroke: none; fill: none;'/>
<defs>
  <clipPath id='cpMC4wMHw1MTAuMjR8MC4wMHwyMzIuMTY='>
    <rect x='0.00' y='0.00' width='510.24' height='232.16' />
  </clipPath>
</defs>
<g clip-path='url(#cpMC4wMHw1MTAuMjR8MC4wMHwyMzIuMTY=)'>
</g>
<defs>
  <clipPath id='cpMjY1LjQ5fDQ0NS45OHwxOC4wMHwyMzIuMTY='>
    <rect x='265.49' y='18.00' width='180.50' height='214.16' />
  </clipPath>
</defs>
<g clip-path='url(#cpMjY1LjQ5fDQ0NS45OHwxOC4wMHwyMzIuMTY=)'>
<rect x='265.49' y='18.00' width='180.50' height='214.16' style='stroke-width: 0.78; stroke: #FFFFFF; fill: #FFFFFF;' />
</g>
<g clip-path='url(#cpMC4wMHw1MTAuMjR8MC4wMHwyMzIuMTY=)'>
</g>
<defs>
  <clipPath id='cpMzI3LjY2fDM5MS45MXwyMS45OXwyMDkuMzY='>
    <rect x='327.66' y='21.99' width='64.25' height='187.38' />
  </clipPath>
</defs>
<g clip-path='url(#cpMzI3LjY2fDM5MS45MXwyMS45OXwyMDkuMzY=)'>
<rect x='327.66' y='21.99' width='64.25' height='187.38' style='stroke-width: 0.78; stroke: none; fill: #FFFFFF;' />
<polyline points='329.66,209.36 329.66,21.99 ' style='stroke-width: 0.39; stroke: #EBEBEB; stroke-linecap: butt;' />
<polyline points='337.74,209.36 337.74,21.99 ' style='stroke-width: 0.39; stroke: #EBEBEB; stroke-linecap: butt;' />
<polyline points='345.83,209.36 345.83,21.99 ' style='stroke-width: 0.39; stroke: #EBEBEB; stroke-linecap: butt;' />
<polyline points='353.92,209.36 353.92,21.99 ' style='stroke-width: 0.39; stroke: #EBEBEB; stroke-linecap: butt;' />
<polyline points='362.01,209.36 362.01,21.99 ' style='stroke-width: 0.39; stroke: #EBEBEB; stroke-linecap: butt;' />
<polyline points='370.10,209.36 370.10,21.99 ' style='stroke-width: 0.39; stroke: #EBEBEB; stroke-linecap: butt;' />
<polyline points='378.19,209.36 378.19,21.99 ' style='stroke-width: 0.39; stroke: #EBEBEB; stroke-linecap: butt;' />
<polyline points='386.27,209.36 386.27,21.99 ' style='stroke-width: 0.39; stroke: #EBEBEB; stroke-linecap: butt;' />
<polyline points='390.32,209.36 390.32,21.99 ' style='stroke-width: 0.39; stroke: #EBEBEB; stroke-linecap: butt;' />
<polyline points='327.66,193.98 391.91,193.98 ' style='stroke-width: 0.78; stroke: #EBEBEB; stroke-linecap: butt;' />
<polyline points='327.66,168.01 391.91,168.01 ' style='stroke-width: 0.78; stroke: #EBEBEB; stroke-linecap: butt;' />
<polyline points='327.66,142.04 391.91,142.04 ' style='stroke-width: 0.78; stroke: #EBEBEB; stroke-linecap: butt;' />
<polyline points='327.66,116.08 391.91,116.08 ' style='stroke-width: 0.78; stroke: #EBEBEB; stroke-linecap: butt;' />
<polyline points='327.66,90.11 391.91,90.11 ' style='stroke-width: 0.78; stroke: #EBEBEB; stroke-linecap: butt;' />
<polyline points='327.66,64.14 391.91,64.14 ' style='stroke-width: 0.78; stroke: #EBEBEB; stroke-linecap: butt;' />
<polyline points='327.66,38.17 391.91,38.17 ' style='stroke-width: 0.78; stroke: #EBEBEB; stroke-linecap: butt;' />
<polyline points='333.70,209.36 333.70,21.99 ' style='stroke-width: 0.78; stroke: #EBEBEB; stroke-linecap: butt;' />
<polyline points='341.79,209.36 341.79,21.99 ' style='stroke-width: 0.78; stroke: #EBEBEB; stroke-linecap: butt;' />
<polyline points='349.88,209.36 349.88,21.99 ' style='stroke-width: 0.78; stroke: #EBEBEB; stroke-linecap: butt;' />
<polyline points='357.97,209.36 357.97,21.99 ' style='stroke-width: 0.78; stroke: #EBEBEB; stroke-linecap: butt;' />
<polyline points='366.05,209.36 366.05,21.99 ' style='stroke-width: 0.78; stroke: #EBEBEB; stroke-linecap: butt;' />
<polyline points='374.14,209.36 374.14,21.99 ' style='stroke-width: 0.78; stroke: #EBEBEB; stroke-linecap: butt;' />
<polyline points='382.23,209.36 382.23,21.99 ' style='stroke-width: 0.78; stroke: #EBEBEB; stroke-linecap: butt;' />
<circle cx='380.98' cy='188.33' r='2.13' style='stroke-width: 0.00; stroke: #444444; stroke-opacity: 0.10; fill: #444444; fill-opacity: 0.10;' />
<circle cx='372.68' cy='195.41' r='2.13' style='stroke-width: 0.00; stroke: #444444; stroke-opacity: 0.10; fill: #444444; fill-opacity: 0.10;' />
<circle cx='384.83' cy='196.43' r='2.13' style='stroke-width: 0.00; stroke: #444444; stroke-opacity: 0.10; fill: #444444; fill-opacity: 0.10;' />
<circle cx='374.04' cy='194.99' r='2.13' style='stroke-width: 0.00; stroke: #444444; stroke-opacity: 0.10; fill: #444444; fill-opacity: 0.10;' />
<circle cx='381.25' cy='197.37' r='2.13' style='stroke-width: 0.00; stroke: #444444; stroke-opacity: 0.10; fill: #444444; fill-opacity: 0.10;' />
<circle cx='383.28' cy='187.36' r='2.13' style='stroke-width: 0.00; stroke: #444444; stroke-opacity: 0.10; fill: #444444; fill-opacity: 0.10;' />
<circle cx='376.51' cy='190.47' r='2.13' style='stroke-width: 0.00; stroke: #444444; stroke-opacity: 0.10; fill: #444444; fill-opacity: 0.10;' />
<circle cx='348.18' cy='191.45' r='2.13' style='stroke-width: 0.00; stroke: #444444; stroke-opacity: 0.10; fill: #444444; fill-opacity: 0.10;' />
<circle cx='370.84' cy='190.08' r='2.13' style='stroke-width: 0.00; stroke: #444444; stroke-opacity: 0.10; fill: #444444; fill-opacity: 0.10;' />
<circle cx='382.97' cy='195.85' r='2.13' style='stroke-width: 0.00; stroke: #444444; stroke-opacity: 0.10; fill: #444444; fill-opacity: 0.10;' />
<circle cx='338.31' cy='199.47' r='2.13' style='stroke-width: 0.00; stroke: #444444; stroke-opacity: 0.10; fill: #444444; fill-opacity: 0.10;' />
<circle cx='381.77' cy='188.94' r='2.13' style='stroke-width: 0.00; stroke: #444444; stroke-opacity: 0.10; fill: #444444; fill-opacity: 0.10;' />
<circle cx='383.56' cy='196.62' r='2.13' style='stroke-width: 0.00; stroke: #444444; stroke-opacity: 0.10; fill: #444444; fill-opacity: 0.10;' />
<circle cx='363.91' cy='190.43' r='2.13' style='stroke-width: 0.00; stroke: #444444; stroke-opacity: 0.10; fill: #444444; fill-opacity: 0.10;' />
<circle cx='380.62' cy='194.67' r='2.13' style='stroke-width: 0.00; stroke: #444444; stroke-opacity: 0.10; fill: #444444; fill-opacity: 0.10;' />
<circle cx='347.60' cy='187.13' r='2.13' style='stroke-width: 0.00; stroke: #444444; stroke-opacity: 0.10; fill: #444444; fill-opacity: 0.10;' />
<circle cx='379.53' cy='191.97' r='2.13' style='stroke-width: 0.00; stroke: #444444; stroke-opacity: 0.10; fill: #444444; fill-opacity: 0.10;' />
<circle cx='356.05' cy='195.44' r='2.13' style='stroke-width: 0.00; stroke: #444444; stroke-opacity: 0.10; fill: #444444; fill-opacity: 0.10;' />
<circle cx='384.25' cy='198.41' r='2.13' style='stroke-width: 0.00; stroke: #444444; stroke-opacity: 0.10; fill: #444444; fill-opacity: 0.10;' />
<circle cx='382.16' cy='191.89' r='2.13' style='stroke-width: 0.00; stroke: #444444; stroke-opacity: 0.10; fill: #444444; fill-opacity: 0.10;' />
<circle cx='346.72' cy='198.28' r='2.13' style='stroke-width: 0.00; stroke: #444444; stroke-opacity: 0.10; fill: #444444; fill-opacity: 0.10;' />
<circle cx='370.62' cy='200.85' r='2.13' style='stroke-width: 0.00; stroke: #444444; stroke-opacity: 0.10; fill: #444444; fill-opacity: 0.10;' />
<circle cx='346.67' cy='194.16' r='2.13' style='stroke-width: 0.00; stroke: #444444; stroke-opacity: 0.10; fill: #444444; fill-opacity: 0.10;' />
<circle cx='331.77' cy='170.38' r='2.13' style='stroke-width: 0.00; stroke: #444444; stroke-opacity: 0.10; fill: #444444; fill-opacity: 0.10;' />
<circle cx='374.82' cy='160.71' r='2.13' style='stroke-width: 0.00; stroke: #444444; stroke-opacity: 0.10; fill: #444444; fill-opacity: 0.10;' />
<circle cx='384.25' cy='168.08' r='2.13' style='stroke-width: 0.00; stroke: #444444; stroke-opacity: 0.10; fill: #444444; fill-opacity: 0.10;' />
<circle cx='372.99' cy='168.69' r='2.13' style='stroke-width: 0.00; stroke: #444444; stroke-opacity: 0.10; fill: #444444; fill-opacity: 0.10;' />
<circle cx='380.15' cy='162.38' r='2.13' style='stroke-width: 0.00; stroke: #444444; stroke-opacity: 0.10; fill: #444444; fill-opacity: 0.10;' />
<circle cx='365.43' cy='172.75' r='2.13' style='stroke-width: 0.00; stroke: #444444; stroke-opacity: 0.10; fill: #444444; fill-opacity: 0.10;' />
<circle cx='380.12' cy='175.32' r='2.13' style='stroke-width: 0.00; stroke: #444444; stroke-opacity: 0.10; fill: #444444; fill-opacity: 0.10;' />
<circle cx='384.55' cy='162.20' r='2.13' style='stroke-width: 0.00; stroke: #444444; stroke-opacity: 0.10; fill: #444444; fill-opacity: 0.10;' />
<circle cx='382.54' cy='164.30' r='2.13' style='stroke-width: 0.00; stroke: #444444; stroke-opacity: 0.10; fill: #444444; fill-opacity: 0.10;' />
<circle cx='379.82' cy='173.18' r='2.13' style='stroke-width: 0.00; stroke: #444444; stroke-opacity: 0.10; fill: #444444; fill-opacity: 0.10;' />
<circle cx='378.91' cy='163.43' r='2.13' style='stroke-width: 0.00; stroke: #444444; stroke-opacity: 0.10; fill: #444444; fill-opacity: 0.10;' />
<circle cx='385.81' cy='172.88' r='2.13' style='stroke-width: 0.00; stroke: #444444; stroke-opacity: 0.10; fill: #444444; fill-opacity: 0.10;' />
<circle cx='383.62' cy='168.20' r='2.13' style='stroke-width: 0.00; stroke: #444444; stroke-opacity: 0.10; fill: #444444; fill-opacity: 0.10;' />
<circle cx='375.26' cy='165.08' r='2.13' style='stroke-width: 0.00; stroke: #444444; stroke-opacity: 0.10; fill: #444444; fill-opacity: 0.10;' />
<circle cx='382.29' cy='168.02' r='2.13' style='stroke-width: 0.00; stroke: #444444; stroke-opacity: 0.10; fill: #444444; fill-opacity: 0.10;' />
<circle cx='381.87' cy='172.35' r='2.13' style='stroke-width: 0.00; stroke: #444444; stroke-opacity: 0.10; fill: #444444; fill-opacity: 0.10;' />
<circle cx='379.94' cy='168.51' r='2.13' style='stroke-width: 0.00; stroke: #444444; stroke-opacity: 0.10; fill: #444444; fill-opacity: 0.10;' />
<circle cx='330.58' cy='169.61' r='2.13' style='stroke-width: 0.00; stroke: #444444; stroke-opacity: 0.10; fill: #444444; fill-opacity: 0.10;' />
<circle cx='379.37' cy='166.52' r='2.13' style='stroke-width: 0.00; stroke: #444444; stroke-opacity: 0.10; fill: #444444; fill-opacity: 0.10;' />
<circle cx='382.67' cy='174.52' r='2.13' style='stroke-width: 0.00; stroke: #444444; stroke-opacity: 0.10; fill: #444444; fill-opacity: 0.10;' />
<circle cx='385.79' cy='162.69' r='2.13' style='stroke-width: 0.00; stroke: #444444; stroke-opacity: 0.10; fill: #444444; fill-opacity: 0.10;' />
<circle cx='381.44' cy='166.98' r='2.13' style='stroke-width: 0.00; stroke: #444444; stroke-opacity: 0.10; fill: #444444; fill-opacity: 0.10;' />
<circle cx='371.78' cy='172.80' r='2.13' style='stroke-width: 0.00; stroke: #444444; stroke-opacity: 0.10; fill: #444444; fill-opacity: 0.10;' />
<circle cx='385.23' cy='170.34' r='2.13' style='stroke-width: 0.00; stroke: #444444; stroke-opacity: 0.10; fill: #444444; fill-opacity: 0.10;' />
<circle cx='381.68' cy='171.15' r='2.13' style='stroke-width: 0.00; stroke: #444444; stroke-opacity: 0.10; fill: #444444; fill-opacity: 0.10;' />
<circle cx='383.84' cy='143.74' r='2.13' style='stroke-width: 0.00; stroke: #444444; stroke-opacity: 0.10; fill: #444444; fill-opacity: 0.10;' />
<circle cx='382.40' cy='140.26' r='2.13' style='stroke-width: 0.00; stroke: #444444; stroke-opacity: 0.10; fill: #444444; fill-opacity: 0.10;' />
<circle cx='385.46' cy='139.94' r='2.13' style='stroke-width: 0.00; stroke: #444444; stroke-opacity: 0.10; fill: #444444; fill-opacity: 0.10;' />
<circle cx='385.30' cy='134.50' r='2.13' style='stroke-width: 0.00; stroke: #444444; stroke-opacity: 0.10; fill: #444444; fill-opacity: 0.10;' />
<circle cx='379.65' cy='139.29' r='2.13' style='stroke-width: 0.00; stroke: #444444; stroke-opacity: 0.10; fill: #444444; fill-opacity: 0.10;' />
<circle cx='330.74' cy='143.71' r='2.13' style='stroke-width: 0.00; stroke: #444444; stroke-opacity: 0.10; fill: #444444; fill-opacity: 0.10;' />
<circle cx='377.12' cy='147.01' r='2.13' style='stroke-width: 0.00; stroke: #444444; stroke-opacity: 0.10; fill: #444444; fill-opacity: 0.10;' />
<circle cx='381.63' cy='148.41' r='2.13' style='stroke-width: 0.00; stroke: #444444; stroke-opacity: 0.10; fill: #444444; fill-opacity: 0.10;' />
<circle cx='369.09' cy='148.45' r='2.13' style='stroke-width: 0.00; stroke: #444444; stroke-opacity: 0.10; fill: #444444; fill-opacity: 0.10;' />
<circle cx='364.42' cy='145.97' r='2.13' style='stroke-width: 0.00; stroke: #444444; stroke-opacity: 0.10; fill: #444444; fill-opacity: 0.10;' />
<circle cx='357.35' cy='143.69' r='2.13' style='stroke-width: 0.00; stroke: #444444; stroke-opacity: 0.10; fill: #444444; fill-opacity: 0.10;' />
<circle cx='378.87' cy='143.61' r='2.13' style='stroke-width: 0.00; stroke: #444444; stroke-opacity: 0.10; fill: #444444; fill-opacity: 0.10;' />
<circle cx='373.40' cy='137.18' r='2.13' style='stroke-width: 0.00; stroke: #444444; stroke-opacity: 0.10; fill: #444444; fill-opacity: 0.10;' />
<circle cx='366.91' cy='142.69' r='2.13' style='stroke-width: 0.00; stroke: #444444; stroke-opacity: 0.10; fill: #444444; fill-opacity: 0.10;' />
<circle cx='350.86' cy='143.07' r='2.13' style='stroke-width: 0.00; stroke: #444444; stroke-opacity: 0.10; fill: #444444; fill-opacity: 0.10;' />
<circle cx='385.53' cy='149.76' r='2.13' style='stroke-width: 0.00; stroke: #444444; stroke-opacity: 0.10; fill: #444444; fill-opacity: 0.10;' />
<circle cx='377.61' cy='139.11' r='2.13' style='stroke-width: 0.00; stroke: #444444; stroke-opacity: 0.10; fill: #444444; fill-opacity: 0.10;' />
<circle cx='360.85' cy='139.04' r='2.13' style='stroke-width: 0.00; stroke: #444444; stroke-opacity: 0.10; fill: #444444; fill-opacity: 0.10;' />
<circle cx='362.67' cy='139.39' r='2.13' style='stroke-width: 0.00; stroke: #444444; stroke-opacity: 0.10; fill: #444444; fill-opacity: 0.10;' />
<circle cx='372.14' cy='144.36' r='2.13' style='stroke-width: 0.00; stroke: #444444; stroke-opacity: 0.10; fill: #444444; fill-opacity: 0.10;' />
<circle cx='370.66' cy='139.03' r='2.13' style='stroke-width: 0.00; stroke: #444444; stroke-opacity: 0.10; fill: #444444; fill-opacity: 0.10;' />
<circle cx='379.24' cy='136.47' r='2.13' style='stroke-width: 0.00; stroke: #444444; stroke-opacity: 0.10; fill: #444444; fill-opacity: 0.10;' />
<circle cx='383.36' cy='142.16' r='2.13' style='stroke-width: 0.00; stroke: #444444; stroke-opacity: 0.10; fill: #444444; fill-opacity: 0.10;' />
<circle cx='380.79' cy='114.93' r='2.13' style='stroke-width: 0.00; stroke: #444444; stroke-opacity: 0.10; fill: #444444; fill-opacity: 0.10;' />
<circle cx='385.59' cy='111.34' r='2.13' style='stroke-width: 0.00; stroke: #444444; stroke-opacity: 0.10; fill: #444444; fill-opacity: 0.10;' />
<circle cx='385.75' cy='121.11' r='2.13' style='stroke-width: 0.00; stroke: #444444; stroke-opacity: 0.10; fill: #444444; fill-opacity: 0.10;' />
<circle cx='365.61' cy='115.54' r='2.13' style='stroke-width: 0.00; stroke: #444444; stroke-opacity: 0.10; fill: #444444; fill-opacity: 0.10;' />
<circle cx='384.75' cy='123.81' r='2.13' style='stroke-width: 0.00; stroke: #444444; stroke-opacity: 0.10; fill: #444444; fill-opacity: 0.10;' />
<circle cx='384.18' cy='116.47' r='2.13' style='stroke-width: 0.00; stroke: #444444; stroke-opacity: 0.10; fill: #444444; fill-opacity: 0.10;' />
<circle cx='383.06' cy='121.45' r='2.13' style='stroke-width: 0.00; stroke: #444444; stroke-opacity: 0.10; fill: #444444; fill-opacity: 0.10;' />
<circle cx='383.19' cy='115.01' r='2.13' style='stroke-width: 0.00; stroke: #444444; stroke-opacity: 0.10; fill: #444444; fill-opacity: 0.10;' />
<circle cx='363.42' cy='114.55' r='2.13' style='stroke-width: 0.00; stroke: #444444; stroke-opacity: 0.10; fill: #444444; fill-opacity: 0.10;' />
<circle cx='368.91' cy='116.27' r='2.13' style='stroke-width: 0.00; stroke: #444444; stroke-opacity: 0.10; fill: #444444; fill-opacity: 0.10;' />
<circle cx='370.55' cy='111.38' r='2.13' style='stroke-width: 0.00; stroke: #444444; stroke-opacity: 0.10; fill: #444444; fill-opacity: 0.10;' />
<circle cx='362.67' cy='111.49' r='2.13' style='stroke-width: 0.00; stroke: #444444; stroke-opacity: 0.10; fill: #444444; fill-opacity: 0.10;' />
<circle cx='380.01' cy='116.30' r='2.13' style='stroke-width: 0.00; stroke: #444444; stroke-opacity: 0.10; fill: #444444; fill-opacity: 0.10;' />
<circle cx='375.68' cy='111.20' r='2.13' style='stroke-width: 0.00; stroke: #444444; stroke-opacity: 0.10; fill: #444444; fill-opacity: 0.10;' />
<circle cx='384.28' cy='113.27' r='2.13' style='stroke-width: 0.00; stroke: #444444; stroke-opacity: 0.10; fill: #444444; fill-opacity: 0.10;' />
<circle cx='383.46' cy='118.33' r='2.13' style='stroke-width: 0.00; stroke: #444444; stroke-opacity: 0.10; fill: #444444; fill-opacity: 0.10;' />
<circle cx='381.51' cy='113.53' r='2.13' style='stroke-width: 0.00; stroke: #444444; stroke-opacity: 0.10; fill: #444444; fill-opacity: 0.10;' />
<circle cx='379.86' cy='109.70' r='2.13' style='stroke-width: 0.00; stroke: #444444; stroke-opacity: 0.10; fill: #444444; fill-opacity: 0.10;' />
<circle cx='383.73' cy='109.97' r='2.13' style='stroke-width: 0.00; stroke: #444444; stroke-opacity: 0.10; fill: #444444; fill-opacity: 0.10;' />
<circle cx='382.42' cy='110.31' r='2.13' style='stroke-width: 0.00; stroke: #444444; stroke-opacity: 0.10; fill: #444444; fill-opacity: 0.10;' />
<circle cx='381.56' cy='120.12' r='2.13' style='stroke-width: 0.00; stroke: #444444; stroke-opacity: 0.10; fill: #444444; fill-opacity: 0.10;' />
<circle cx='379.07' cy='120.53' r='2.13' style='stroke-width: 0.00; stroke: #444444; stroke-opacity: 0.10; fill: #444444; fill-opacity: 0.10;' />
<circle cx='377.61' cy='110.36' r='2.13' style='stroke-width: 0.00; stroke: #444444; stroke-opacity: 0.10; fill: #444444; fill-opacity: 0.10;' />
<circle cx='379.32' cy='122.23' r='2.13' style='stroke-width: 0.00; stroke: #444444; stroke-opacity: 0.10; fill: #444444; fill-opacity: 0.10;' />
<circle cx='381.38' cy='91.25' r='2.13' style='stroke-width: 0.00; stroke: #444444; stroke-opacity: 0.10; fill: #444444; fill-opacity: 0.10;' />
<circle cx='380.98' cy='92.20' r='2.13' style='stroke-width: 0.00; stroke: #444444; stroke-opacity: 0.10; fill: #444444; fill-opacity: 0.10;' />
<circle cx='379.04' cy='94.14' r='2.13' style='stroke-width: 0.00; stroke: #444444; stroke-opacity: 0.10; fill: #444444; fill-opacity: 0.10;' />
<circle cx='383.31' cy='94.25' r='2.13' style='stroke-width: 0.00; stroke: #444444; stroke-opacity: 0.10; fill: #444444; fill-opacity: 0.10;' />
<circle cx='382.95' cy='83.55' r='2.13' style='stroke-width: 0.00; stroke: #444444; stroke-opacity: 0.10; fill: #444444; fill-opacity: 0.10;' />
<circle cx='383.65' cy='89.30' r='2.13' style='stroke-width: 0.00; stroke: #444444; stroke-opacity: 0.10; fill: #444444; fill-opacity: 0.10;' />
<circle cx='379.00' cy='85.69' r='2.13' style='stroke-width: 0.00; stroke: #444444; stroke-opacity: 0.10; fill: #444444; fill-opacity: 0.10;' />
<circle cx='376.80' cy='85.89' r='2.13' style='stroke-width: 0.00; stroke: #444444; stroke-opacity: 0.10; fill: #444444; fill-opacity: 0.10;' />
<circle cx='381.08' cy='89.39' r='2.13' style='stroke-width: 0.00; stroke: #444444; stroke-opacity: 0.10; fill: #444444; fill-opacity: 0.10;' />
<circle cx='385.11' cy='93.98' r='2.13' style='stroke-width: 0.00; stroke: #444444; stroke-opacity: 0.10; fill: #444444; fill-opacity: 0.10;' />
<circle cx='382.14' cy='95.24' r='2.13' style='stroke-width: 0.00; stroke: #444444; stroke-opacity: 0.10; fill: #444444; fill-opacity: 0.10;' />
<circle cx='378.82' cy='85.94' r='2.13' style='stroke-width: 0.00; stroke: #444444; stroke-opacity: 0.10; fill: #444444; fill-opacity: 0.10;' />
<circle cx='383.92' cy='87.46' r='2.13' style='stroke-width: 0.00; stroke: #444444; stroke-opacity: 0.10; fill: #444444; fill-opacity: 0.10;' />
<circle cx='356.24' cy='83.82' r='2.13' style='stroke-width: 0.00; stroke: #444444; stroke-opacity: 0.10; fill: #444444; fill-opacity: 0.10;' />
<circle cx='379.79' cy='84.17' r='2.13' style='stroke-width: 0.00; stroke: #444444; stroke-opacity: 0.10; fill: #444444; fill-opacity: 0.10;' />
<circle cx='382.28' cy='91.45' r='2.13' style='stroke-width: 0.00; stroke: #444444; stroke-opacity: 0.10; fill: #444444; fill-opacity: 0.10;' />
<circle cx='380.94' cy='83.48' r='2.13' style='stroke-width: 0.00; stroke: #444444; stroke-opacity: 0.10; fill: #444444; fill-opacity: 0.10;' />
<circle cx='384.09' cy='94.56' r='2.13' style='stroke-width: 0.00; stroke: #444444; stroke-opacity: 0.10; fill: #444444; fill-opacity: 0.10;' />
<circle cx='365.79' cy='84.56' r='2.13' style='stroke-width: 0.00; stroke: #444444; stroke-opacity: 0.10; fill: #444444; fill-opacity: 0.10;' />
<circle cx='379.32' cy='92.05' r='2.13' style='stroke-width: 0.00; stroke: #444444; stroke-opacity: 0.10; fill: #444444; fill-opacity: 0.10;' />
<circle cx='377.33' cy='95.09' r='2.13' style='stroke-width: 0.00; stroke: #444444; stroke-opacity: 0.10; fill: #444444; fill-opacity: 0.10;' />
<circle cx='385.86' cy='90.02' r='2.13' style='stroke-width: 0.00; stroke: #444444; stroke-opacity: 0.10; fill: #444444; fill-opacity: 0.10;' />
<circle cx='380.53' cy='97.66' r='2.13' style='stroke-width: 0.00; stroke: #444444; stroke-opacity: 0.10; fill: #444444; fill-opacity: 0.10;' />
<circle cx='382.28' cy='95.26' r='2.13' style='stroke-width: 0.00; stroke: #444444; stroke-opacity: 0.10; fill: #444444; fill-opacity: 0.10;' />
<circle cx='370.97' cy='57.10' r='2.13' style='stroke-width: 0.00; stroke: #444444; stroke-opacity: 0.10; fill: #444444; fill-opacity: 0.10;' />
<circle cx='380.74' cy='60.89' r='2.13' style='stroke-width: 0.00; stroke: #444444; stroke-opacity: 0.10; fill: #444444; fill-opacity: 0.10;' />
<circle cx='379.35' cy='63.82' r='2.13' style='stroke-width: 0.00; stroke: #444444; stroke-opacity: 0.10; fill: #444444; fill-opacity: 0.10;' />
<circle cx='372.07' cy='63.06' r='2.13' style='stroke-width: 0.00; stroke: #444444; stroke-opacity: 0.10; fill: #444444; fill-opacity: 0.10;' />
<circle cx='364.32' cy='69.73' r='2.13' style='stroke-width: 0.00; stroke: #444444; stroke-opacity: 0.10; fill: #444444; fill-opacity: 0.10;' />
<circle cx='380.96' cy='66.46' r='2.13' style='stroke-width: 0.00; stroke: #444444; stroke-opacity: 0.10; fill: #444444; fill-opacity: 0.10;' />
<circle cx='379.42' cy='60.54' r='2.13' style='stroke-width: 0.00; stroke: #444444; stroke-opacity: 0.10; fill: #444444; fill-opacity: 0.10;' />
<circle cx='371.21' cy='60.38' r='2.13' style='stroke-width: 0.00; stroke: #444444; stroke-opacity: 0.10; fill: #444444; fill-opacity: 0.10;' />
<circle cx='374.06' cy='69.87' r='2.13' style='stroke-width: 0.00; stroke: #444444; stroke-opacity: 0.10; fill: #444444; fill-opacity: 0.10;' />
<circle cx='375.80' cy='61.63' r='2.13' style='stroke-width: 0.00; stroke: #444444; stroke-opacity: 0.10; fill: #444444; fill-opacity: 0.10;' />
<circle cx='379.96' cy='64.54' r='2.13' style='stroke-width: 0.00; stroke: #444444; stroke-opacity: 0.10; fill: #444444; fill-opacity: 0.10;' />
<circle cx='380.08' cy='67.88' r='2.13' style='stroke-width: 0.00; stroke: #444444; stroke-opacity: 0.10; fill: #444444; fill-opacity: 0.10;' />
<circle cx='383.68' cy='65.60' r='2.13' style='stroke-width: 0.00; stroke: #444444; stroke-opacity: 0.10; fill: #444444; fill-opacity: 0.10;' />
<circle cx='376.36' cy='59.24' r='2.13' style='stroke-width: 0.00; stroke: #444444; stroke-opacity: 0.10; fill: #444444; fill-opacity: 0.10;' />
<circle cx='380.84' cy='64.86' r='2.13' style='stroke-width: 0.00; stroke: #444444; stroke-opacity: 0.10; fill: #444444; fill-opacity: 0.10;' />
<circle cx='375.83' cy='62.30' r='2.13' style='stroke-width: 0.00; stroke: #444444; stroke-opacity: 0.10; fill: #444444; fill-opacity: 0.10;' />
<circle cx='347.57' cy='70.19' r='2.13' style='stroke-width: 0.00; stroke: #444444; stroke-opacity: 0.10; fill: #444444; fill-opacity: 0.10;' />
<circle cx='381.34' cy='68.63' r='2.13' style='stroke-width: 0.00; stroke: #444444; stroke-opacity: 0.10; fill: #444444; fill-opacity: 0.10;' />
<circle cx='383.88' cy='56.98' r='2.13' style='stroke-width: 0.00; stroke: #444444; stroke-opacity: 0.10; fill: #444444; fill-opacity: 0.10;' />
<circle cx='349.91' cy='66.91' r='2.13' style='stroke-width: 0.00; stroke: #444444; stroke-opacity: 0.10; fill: #444444; fill-opacity: 0.10;' />
<circle cx='347.12' cy='57.89' r='2.13' style='stroke-width: 0.00; stroke: #444444; stroke-opacity: 0.10; fill: #444444; fill-opacity: 0.10;' />
<circle cx='374.11' cy='66.57' r='2.13' style='stroke-width: 0.00; stroke: #444444; stroke-opacity: 0.10; fill: #444444; fill-opacity: 0.10;' />
<circle cx='379.67' cy='68.15' r='2.13' style='stroke-width: 0.00; stroke: #444444; stroke-opacity: 0.10; fill: #444444; fill-opacity: 0.10;' />
<circle cx='357.89' cy='71.05' r='2.13' style='stroke-width: 0.00; stroke: #444444; stroke-opacity: 0.10; fill: #444444; fill-opacity: 0.10;' />
<circle cx='383.14' cy='40.40' r='2.13' style='stroke-width: 0.00; stroke: #444444; stroke-opacity: 0.10; fill: #444444; fill-opacity: 0.10;' />
<circle cx='373.01' cy='31.20' r='2.13' style='stroke-width: 0.00; stroke: #444444; stroke-opacity: 0.10; fill: #444444; fill-opacity: 0.10;' />
<circle cx='356.54' cy='43.77' r='2.13' style='stroke-width: 0.00; stroke: #444444; stroke-opacity: 0.10; fill: #444444; fill-opacity: 0.10;' />
<circle cx='377.34' cy='43.59' r='2.13' style='stroke-width: 0.00; stroke: #444444; stroke-opacity: 0.10; fill: #444444; fill-opacity: 0.10;' />
<circle cx='383.83' cy='35.38' r='2.13' style='stroke-width: 0.00; stroke: #444444; stroke-opacity: 0.10; fill: #444444; fill-opacity: 0.10;' />
<circle cx='377.25' cy='36.72' r='2.13' style='stroke-width: 0.00; stroke: #444444; stroke-opacity: 0.10; fill: #444444; fill-opacity: 0.10;' />
<circle cx='380.09' cy='41.30' r='2.13' style='stroke-width: 0.00; stroke: #444444; stroke-opacity: 0.10; fill: #444444; fill-opacity: 0.10;' />
<circle cx='381.71' cy='38.55' r='2.13' style='stroke-width: 0.00; stroke: #444444; stroke-opacity: 0.10; fill: #444444; fill-opacity: 0.10;' />
<circle cx='384.58' cy='30.50' r='2.13' style='stroke-width: 0.00; stroke: #444444; stroke-opacity: 0.10; fill: #444444; fill-opacity: 0.10;' />
<circle cx='382.85' cy='44.89' r='2.13' style='stroke-width: 0.00; stroke: #444444; stroke-opacity: 0.10; fill: #444444; fill-opacity: 0.10;' />
<circle cx='383.86' cy='35.47' r='2.13' style='stroke-width: 0.00; stroke: #444444; stroke-opacity: 0.10; fill: #444444; fill-opacity: 0.10;' />
<circle cx='372.25' cy='35.09' r='2.13' style='stroke-width: 0.00; stroke: #444444; stroke-opacity: 0.10; fill: #444444; fill-opacity: 0.10;' />
<circle cx='371.09' cy='38.06' r='2.13' style='stroke-width: 0.00; stroke: #444444; stroke-opacity: 0.10; fill: #444444; fill-opacity: 0.10;' />
<circle cx='374.63' cy='36.18' r='2.13' style='stroke-width: 0.00; stroke: #444444; stroke-opacity: 0.10; fill: #444444; fill-opacity: 0.10;' />
<circle cx='381.53' cy='39.52' r='2.13' style='stroke-width: 0.00; stroke: #444444; stroke-opacity: 0.10; fill: #444444; fill-opacity: 0.10;' />
<circle cx='381.88' cy='39.76' r='2.13' style='stroke-width: 0.00; stroke: #444444; stroke-opacity: 0.10; fill: #444444; fill-opacity: 0.10;' />
<circle cx='356.70' cy='38.59' r='2.13' style='stroke-width: 0.00; stroke: #444444; stroke-opacity: 0.10; fill: #444444; fill-opacity: 0.10;' />
<circle cx='378.93' cy='39.47' r='2.13' style='stroke-width: 0.00; stroke: #444444; stroke-opacity: 0.10; fill: #444444; fill-opacity: 0.10;' />
<circle cx='380.95' cy='40.57' r='2.13' style='stroke-width: 0.00; stroke: #444444; stroke-opacity: 0.10; fill: #444444; fill-opacity: 0.10;' />
<circle cx='382.50' cy='32.52' r='2.13' style='stroke-width: 0.00; stroke: #444444; stroke-opacity: 0.10; fill: #444444; fill-opacity: 0.10;' />
<circle cx='385.55' cy='36.32' r='2.13' style='stroke-width: 0.00; stroke: #444444; stroke-opacity: 0.10; fill: #444444; fill-opacity: 0.10;' />
<circle cx='373.35' cy='31.03' r='2.13' style='stroke-width: 0.00; stroke: #444444; stroke-opacity: 0.10; fill: #444444; fill-opacity: 0.10;' />
<circle cx='358.81' cy='41.53' r='2.13' style='stroke-width: 0.00; stroke: #444444; stroke-opacity: 0.10; fill: #444444; fill-opacity: 0.10;' />
<polygon points='357.58,193.98 371.33,197.87 385.08,193.98 371.33,190.08 357.58,193.98 ' style='stroke-width: 1.07; stroke: #4B2754; stroke-linecap: butt; fill: #4B2754;' />
<polygon points='363.82,168.01 376.41,171.90 388.99,168.01 376.41,164.11 363.82,168.01 ' style='stroke-width: 1.07; stroke: #481554; stroke-linecap: butt; fill: #481554;' />
<polygon points='359.47,142.04 372.03,145.94 384.60,142.04 372.03,138.15 359.47,142.04 ' style='stroke-width: 1.07; stroke: #4B2454; stroke-linecap: butt; fill: #4B2454;' />
<polygon points='372.49,116.08 378.52,119.97 384.56,116.08 378.52,112.18 372.49,116.08 ' style='stroke-width: 1.07; stroke: #460E54; stroke-linecap: butt; fill: #460E54;' />
<polygon points='374.06,90.11 379.87,94.00 385.69,90.11 379.87,86.21 374.06,90.11 ' style='stroke-width: 1.07; stroke: #450954; stroke-linecap: butt; fill: #450954;' />
<polygon points='363.22,64.14 373.81,68.04 384.39,64.14 373.81,60.25 363.22,64.14 ' style='stroke-width: 1.07; stroke: #4A1E54; stroke-linecap: butt; fill: #4A1E54;' />
<polygon points='368.46,38.17 376.60,42.07 384.75,38.17 376.60,34.28 368.46,38.17 ' style='stroke-width: 1.07; stroke: #481454; stroke-linecap: butt; fill: #481454;' />
<rect x='327.66' y='21.99' width='64.25' height='187.38' style='stroke-width: 0.78; stroke: #333333;' />
</g>
<g clip-path='url(#cpMC4wMHw1MTAuMjR8MC4wMHwyMzIuMTY=)'>
<text x='324.07' y='196.27' text-anchor='end' style='font-size: 6.40px;fill: #4D4D4D; font-family: "Arial";' textLength='55.45px' lengthAdjust='spacingAndGlyphs'>strongly disapprove</text>
<text x='324.07' y='170.30' text-anchor='end' style='font-size: 6.40px;fill: #4D4D4D; font-family: "Arial";' textLength='55.45px' lengthAdjust='spacingAndGlyphs'>strongly disapprove</text>
<text x='324.07' y='144.33' text-anchor='end' style='font-size: 6.40px;fill: #4D4D4D; font-family: "Arial";' textLength='55.45px' lengthAdjust='spacingAndGlyphs'>strongly disapprove</text>
<text x='324.07' y='118.37' text-anchor='end' style='font-size: 6.40px;fill: #4D4D4D; font-family: "Arial";' textLength='55.45px' lengthAdjust='spacingAndGlyphs'>strongly disapprove</text>
<text x='324.07' y='92.40' text-anchor='end' style='font-size: 6.40px;fill: #4D4D4D; font-family: "Arial";' textLength='55.45px' lengthAdjust='spacingAndGlyphs'>strongly disapprove</text>
<text x='324.07' y='66.43' text-anchor='end' style='font-size: 6.40px;fill: #4D4D4D; font-family: "Arial";' textLength='55.45px' lengthAdjust='spacingAndGlyphs'>strongly disapprove</text>
<text x='324.07' y='40.46' text-anchor='end' style='font-size: 6.40px;fill: #4D4D4D; font-family: "Arial";' textLength='55.45px' lengthAdjust='spacingAndGlyphs'>strongly disapprove</text>
<polyline points='325.67,193.98 327.66,193.98 ' style='stroke-width: 0.78; stroke: #333333; stroke-linecap: butt;' />
<polyline points='325.67,168.01 327.66,168.01 ' style='stroke-width: 0.78; stroke: #333333; stroke-linecap: butt;' />
<polyline points='325.67,142.04 327.66,142.04 ' style='stroke-width: 0.78; stroke: #333333; stroke-linecap: butt;' />
<polyline points='325.67,116.08 327.66,116.08 ' style='stroke-width: 0.78; stroke: #333333; stroke-linecap: butt;' />
<polyline points='325.67,90.11 327.66,90.11 ' style='stroke-width: 0.78; stroke: #333333; stroke-linecap: butt;' />
<polyline points='325.67,64.14 327.66,64.14 ' style='stroke-width: 0.78; stroke: #333333; stroke-linecap: butt;' />
<polyline points='325.67,38.17 327.66,38.17 ' style='stroke-width: 0.78; stroke: #333333; stroke-linecap: butt;' />
<polyline points='393.90,193.98 391.91,193.98 ' style='stroke-width: 0.78; stroke: #333333; stroke-linecap: butt;' />
<polyline points='393.90,168.01 391.91,168.01 ' style='stroke-width: 0.78; stroke: #333333; stroke-linecap: butt;' />
<polyline points='393.90,142.04 391.91,142.04 ' style='stroke-width: 0.78; stroke: #333333; stroke-linecap: butt;' />
<polyline points='393.90,116.08 391.91,116.08 ' style='stroke-width: 0.78; stroke: #333333; stroke-linecap: butt;' />
<polyline points='393.90,90.11 391.91,90.11 ' style='stroke-width: 0.78; stroke: #333333; stroke-linecap: butt;' />
<polyline points='393.90,64.14 391.91,64.14 ' style='stroke-width: 0.78; stroke: #333333; stroke-linecap: butt;' />
<polyline points='393.90,38.17 391.91,38.17 ' style='stroke-width: 0.78; stroke: #333333; stroke-linecap: butt;' />
<text x='395.50' y='196.27' style='font-size: 6.40px;fill: #4D4D4D; font-family: "Arial";' textLength='47.28px' lengthAdjust='spacingAndGlyphs'>strongly approve</text>
<text x='395.50' y='170.30' style='font-size: 6.40px;fill: #4D4D4D; font-family: "Arial";' textLength='47.28px' lengthAdjust='spacingAndGlyphs'>strongly approve</text>
<text x='395.50' y='144.33' style='font-size: 6.40px;fill: #4D4D4D; font-family: "Arial";' textLength='47.28px' lengthAdjust='spacingAndGlyphs'>strongly approve</text>
<text x='395.50' y='118.37' style='font-size: 6.40px;fill: #4D4D4D; font-family: "Arial";' textLength='47.28px' lengthAdjust='spacingAndGlyphs'>strongly approve</text>
<text x='395.50' y='92.40' style='font-size: 6.40px;fill: #4D4D4D; font-family: "Arial";' textLength='47.28px' lengthAdjust='spacingAndGlyphs'>strongly approve</text>
<text x='395.50' y='66.43' style='font-size: 6.40px;fill: #4D4D4D; font-family: "Arial";' textLength='47.28px' lengthAdjust='spacingAndGlyphs'>strongly approve</text>
<text x='395.50' y='40.46' style='font-size: 6.40px;fill: #4D4D4D; font-family: "Arial";' textLength='47.28px' lengthAdjust='spacingAndGlyphs'>strongly approve</text>
<polyline points='333.70,211.35 333.70,209.36 ' style='stroke-width: 0.78; stroke: #333333; stroke-linecap: butt;' />
<polyline points='341.79,211.35 341.79,209.36 ' style='stroke-width: 0.78; stroke: #333333; stroke-linecap: butt;' />
<polyline points='349.88,211.35 349.88,209.36 ' style='stroke-width: 0.78; stroke: #333333; stroke-linecap: butt;' />
<polyline points='357.97,211.35 357.97,209.36 ' style='stroke-width: 0.78; stroke: #333333; stroke-linecap: butt;' />
<polyline points='366.05,211.35 366.05,209.36 ' style='stroke-width: 0.78; stroke: #333333; stroke-linecap: butt;' />
<polyline points='374.14,211.35 374.14,209.36 ' style='stroke-width: 0.78; stroke: #333333; stroke-linecap: butt;' />
<polyline points='382.23,211.35 382.23,209.36 ' style='stroke-width: 0.78; stroke: #333333; stroke-linecap: butt;' />
<text x='333.70' y='217.53' text-anchor='middle' style='font-size: 6.40px;fill: #4D4D4D; font-family: "Arial";' textLength='5.69px' lengthAdjust='spacingAndGlyphs'>-3</text>
<text x='341.79' y='217.53' text-anchor='middle' style='font-size: 6.40px;fill: #4D4D4D; font-family: "Arial";' textLength='5.69px' lengthAdjust='spacingAndGlyphs'>-2</text>
<text x='349.88' y='217.53' text-anchor='middle' style='font-size: 6.40px;fill: #4D4D4D; font-family: "Arial";' textLength='5.69px' lengthAdjust='spacingAndGlyphs'>-1</text>
<text x='357.97' y='217.53' text-anchor='middle' style='font-size: 6.40px;fill: #4D4D4D; font-family: "Arial";' textLength='3.56px' lengthAdjust='spacingAndGlyphs'>0</text>
<text x='366.05' y='217.53' text-anchor='middle' style='font-size: 6.40px;fill: #4D4D4D; font-family: "Arial";' textLength='3.56px' lengthAdjust='spacingAndGlyphs'>1</text>
<text x='374.14' y='217.53' text-anchor='middle' style='font-size: 6.40px;fill: #4D4D4D; font-family: "Arial";' textLength='3.56px' lengthAdjust='spacingAndGlyphs'>2</text>
<text x='382.23' y='217.53' text-anchor='middle' style='font-size: 6.40px;fill: #4D4D4D; font-family: "Arial";' textLength='3.56px' lengthAdjust='spacingAndGlyphs'>3</text>
<text x='359.78' y='226.67' text-anchor='middle' style='font-size: 8.00px; font-family: "Arial";' textLength='84.07px' lengthAdjust='spacingAndGlyphs'>Scores and 99.99% CIs</text>
</g>
<defs>
  <clipPath id='cpMC4wMHwyNjUuNDl8MjEuOTl8MjA5LjM2'>
    <rect x='0.00' y='21.99' width='265.49' height='187.38' />
  </clipPath>
</defs>
<g clip-path='url(#cpMC4wMHwyNjUuNDl8MjEuOTl8MjA5LjM2)'>
</g>
<g clip-path='url(#cpMC4wMHw1MTAuMjR8MC4wMHwyMzIuMTY=)'>
<text x='3.59' y='188.69' style='font-size: 8.00px; font-family: "Arial";' textLength='249.54px' lengthAdjust='spacingAndGlyphs'>If I were to keep at least {distRec} distance from others, my colleagues</text>
<text x='3.59' y='197.33' style='font-size: 8.00px; font-family: "Arial";' textLength='29.80px' lengthAdjust='spacingAndGlyphs'>would ...</text>
<text x='3.59' y='205.97' style='font-size: 8.00px; font-family: "Arial";' textLength='99.62px' lengthAdjust='spacingAndGlyphs'>[NrmInApColleagues_clean]</text>
<text x='3.59' y='162.62' style='font-size: 8.00px; font-family: "Arial";' textLength='255.30px' lengthAdjust='spacingAndGlyphs'>If I were to keep at least {distRec} distance from others, my family would</text>
<text x='3.59' y='171.26' style='font-size: 8.00px; font-family: "Arial";' textLength='6.67px' lengthAdjust='spacingAndGlyphs'>...</text>
<text x='3.59' y='179.90' style='font-size: 8.00px; font-family: "Arial";' textLength='83.15px' lengthAdjust='spacingAndGlyphs'>[NrmInApFamily_clean]</text>
<text x='3.59' y='136.55' style='font-size: 8.00px; font-family: "Arial";' textLength='230.87px' lengthAdjust='spacingAndGlyphs'>If I were to keep at least {distRec} distance from others, people in</text>
<text x='3.59' y='145.19' style='font-size: 8.00px; font-family: "Arial";' textLength='58.72px' lengthAdjust='spacingAndGlyphs'>general would ...</text>
<text x='3.59' y='153.83' style='font-size: 8.00px; font-family: "Arial";' textLength='88.05px' lengthAdjust='spacingAndGlyphs'>[NrmInApGeneral_clean]</text>
<text x='3.59' y='110.48' style='font-size: 8.00px; font-family: "Arial";' textLength='235.30px' lengthAdjust='spacingAndGlyphs'>If I were to keep at least {distRec} distance from others, my friends</text>
<text x='3.59' y='119.12' style='font-size: 8.00px; font-family: "Arial";' textLength='29.80px' lengthAdjust='spacingAndGlyphs'>would ...</text>
<text x='3.59' y='127.76' style='font-size: 8.00px; font-family: "Arial";' textLength='86.27px' lengthAdjust='spacingAndGlyphs'>[NrmInApFriends_clean]</text>
<text x='3.59' y='84.41' style='font-size: 8.00px; font-family: "Arial";' textLength='243.76px' lengthAdjust='spacingAndGlyphs'>If I were to keep at least {distRec} distance from others, people in my</text>
<text x='3.59' y='93.05' style='font-size: 8.00px; font-family: "Arial";' textLength='68.95px' lengthAdjust='spacingAndGlyphs'>household would ...</text>
<text x='3.59' y='101.69' style='font-size: 8.00px; font-family: "Arial";' textLength='97.84px' lengthAdjust='spacingAndGlyphs'>[NrmInApHousehold_clean]</text>
<text x='3.59' y='58.34' style='font-size: 8.00px; font-family: "Arial";' textLength='243.76px' lengthAdjust='spacingAndGlyphs'>If I were to keep at least {distRec} distance from others, people in my</text>
<text x='3.59' y='66.98' style='font-size: 8.00px; font-family: "Arial";' textLength='85.41px' lengthAdjust='spacingAndGlyphs'>neighbourhood would ...</text>
<text x='3.59' y='75.62' style='font-size: 8.00px; font-family: "Arial";' textLength='96.50px' lengthAdjust='spacingAndGlyphs'>[NrmInApNeighbrhd_clean]</text>
<text x='3.59' y='32.27' style='font-size: 8.00px; font-family: "Arial";' textLength='249.98px' lengthAdjust='spacingAndGlyphs'>If I were to keep at least {distRec} distance from others, people like me</text>
<text x='3.59' y='40.91' style='font-size: 8.00px; font-family: "Arial";' textLength='29.80px' lengthAdjust='spacingAndGlyphs'>would ...</text>
<text x='3.59' y='49.55' style='font-size: 8.00px; font-family: "Arial";' textLength='85.38px' lengthAdjust='spacingAndGlyphs'>[NrmInApLikeMe_clean]</text>
</g>
<g clip-path='url(#cpMC4wMHwyNjUuNDl8MjEuOTl8MjA5LjM2)'>
</g>
<g clip-path='url(#cpMC4wMHw1MTAuMjR8MC4wMHwyMzIuMTY=)'>
</g>
<defs>
  <clipPath id='cpNDQ1Ljk4fDUxMC4yNHwxOC4wMHwyMzIuMTY='>
    <rect x='445.98' y='18.00' width='64.25' height='214.16' />
  </clipPath>
</defs>
<g clip-path='url(#cpNDQ1Ljk4fDUxMC4yNHwxOC4wMHwyMzIuMTY=)'>
<rect x='445.98' y='18.00' width='64.25' height='214.16' style='stroke-width: 0.78; stroke: #FFFFFF; fill: #FFFFFF;' />
</g>
<defs>
  <clipPath id='cpNDQ5Ljk3fDUwNi4yNXwyMS45OXwyMDkuMzY='>
    <rect x='449.97' y='21.99' width='56.28' height='187.38' />
  </clipPath>
</defs>
<g clip-path='url(#cpNDQ5Ljk3fDUwNi4yNXwyMS45OXwyMDkuMzY=)'>
<rect x='449.97' y='21.99' width='56.28' height='187.38' style='stroke-width: 0.78; stroke: none; fill: #FFFFFF;' />
<polyline points='458.92,209.36 458.92,21.99 ' style='stroke-width: 0.39; stroke: #EBEBEB; stroke-linecap: butt;' />
<polyline points='471.71,209.36 471.71,21.99 ' style='stroke-width: 0.39; stroke: #EBEBEB; stroke-linecap: butt;' />
<polyline points='484.51,209.36 484.51,21.99 ' style='stroke-width: 0.39; stroke: #EBEBEB; stroke-linecap: butt;' />
<polyline points='497.30,209.36 497.30,21.99 ' style='stroke-width: 0.39; stroke: #EBEBEB; stroke-linecap: butt;' />
<polyline points='452.53,209.36 452.53,21.99 ' style='stroke-width: 0.78; stroke: #EBEBEB; stroke-linecap: butt;' />
<polyline points='465.32,209.36 465.32,21.99 ' style='stroke-width: 0.78; stroke: #EBEBEB; stroke-linecap: butt;' />
<polyline points='478.11,209.36 478.11,21.99 ' style='stroke-width: 0.78; stroke: #EBEBEB; stroke-linecap: butt;' />
<polyline points='490.90,209.36 490.90,21.99 ' style='stroke-width: 0.78; stroke: #EBEBEB; stroke-linecap: butt;' />
<polyline points='503.69,209.36 503.69,21.99 ' style='stroke-width: 0.78; stroke: #EBEBEB; stroke-linecap: butt;' />
<line x1='465.32' y1='209.36' x2='465.32' y2='21.99' style='stroke-width: 1.07; stroke: #BEBEBE; stroke-linecap: butt;' />
<line x1='478.11' y1='209.36' x2='478.11' y2='21.99' style='stroke-width: 1.07; stroke: #BEBEBE; stroke-linecap: butt;' />
<line x1='490.90' y1='209.36' x2='490.90' y2='21.99' style='stroke-width: 1.07; stroke: #BEBEBE; stroke-linecap: butt;' />
<polygon points='464.80,196.79 474.58,200.85 485.55,196.79 474.58,192.73 464.80,196.79 ' style='stroke-width: 2.13; stroke-linecap: butt; fill: #4E5D5C; fill-opacity: 0.50;' />
<polygon points='465.42,169.75 474.89,173.81 485.36,169.75 474.89,165.69 465.42,169.75 ' style='stroke-width: 2.13; stroke-linecap: butt; fill: #4E5C5C; fill-opacity: 0.50;' />
<polygon points='467.31,142.71 477.80,146.77 488.39,142.71 477.80,138.66 467.31,142.71 ' style='stroke-width: 2.13; stroke-linecap: butt; fill: #545555; fill-opacity: 0.50;' />
<polygon points='470.26,115.67 480.93,119.73 490.69,115.67 480.93,111.62 470.26,115.67 ' style='stroke-width: 2.13; stroke-linecap: butt; fill: #534B55; fill-opacity: 0.50;' />
<polygon points='475.09,88.64 485.78,92.69 494.16,88.64 485.78,84.58 475.09,88.64 ' style='stroke-width: 2.13; stroke-linecap: butt; fill: #503C54; fill-opacity: 0.50;' />
<polygon points='476.28,61.60 486.85,65.65 494.86,61.60 486.85,57.54 476.28,61.60 ' style='stroke-width: 2.13; stroke-linecap: butt; fill: #4F3854; fill-opacity: 0.50;' />
<polygon points='476.23,34.56 487.05,38.61 495.14,34.56 487.05,30.50 476.23,34.56 ' style='stroke-width: 2.13; stroke-linecap: butt; fill: #4F3754; fill-opacity: 0.50;' />
<rect x='449.97' y='21.99' width='56.28' height='187.38' style='stroke-width: 0.78; stroke: #333333;' />
</g>
<g clip-path='url(#cpNDQ1Ljk4fDUxMC4yNHwxOC4wMHwyMzIuMTY=)'>
</g>
<g clip-path='url(#cpMC4wMHw1MTAuMjR8MC4wMHwyMzIuMTY=)'>
</g>
<g clip-path='url(#cpNDQ1Ljk4fDUxMC4yNHwxOC4wMHwyMzIuMTY=)'>
</g>
<g clip-path='url(#cpMC4wMHw1MTAuMjR8MC4wMHwyMzIuMTY=)'>
</g>
<g clip-path='url(#cpNDQ1Ljk4fDUxMC4yNHwxOC4wMHwyMzIuMTY=)'>
</g>
<g clip-path='url(#cpMC4wMHw1MTAuMjR8MC4wMHwyMzIuMTY=)'>
</g>
<g clip-path='url(#cpNDQ1Ljk4fDUxMC4yNHwxOC4wMHwyMzIuMTY=)'>
</g>
<g clip-path='url(#cpMC4wMHw1MTAuMjR8MC4wMHwyMzIuMTY=)'>
</g>
<g clip-path='url(#cpNDQ1Ljk4fDUxMC4yNHwxOC4wMHwyMzIuMTY=)'>
</g>
<g clip-path='url(#cpMC4wMHw1MTAuMjR8MC4wMHwyMzIuMTY=)'>
</g>
<g clip-path='url(#cpNDQ1Ljk4fDUxMC4yNHwxOC4wMHwyMzIuMTY=)'>
</g>
<g clip-path='url(#cpMC4wMHw1MTAuMjR8MC4wMHwyMzIuMTY=)'>
</g>
<g clip-path='url(#cpNDQ1Ljk4fDUxMC4yNHwxOC4wMHwyMzIuMTY=)'>
</g>
<g clip-path='url(#cpMC4wMHw1MTAuMjR8MC4wMHwyMzIuMTY=)'>
</g>
<g clip-path='url(#cpNDQ1Ljk4fDUxMC4yNHwxOC4wMHwyMzIuMTY=)'>
</g>
<g clip-path='url(#cpMC4wMHw1MTAuMjR8MC4wMHwyMzIuMTY=)'>
<polyline points='452.53,211.35 452.53,209.36 ' style='stroke-width: 0.78; stroke: #333333; stroke-linecap: butt;' />
<polyline points='465.32,211.35 465.32,209.36 ' style='stroke-width: 0.78; stroke: #333333; stroke-linecap: butt;' />
<polyline points='478.11,211.35 478.11,209.36 ' style='stroke-width: 0.78; stroke: #333333; stroke-linecap: butt;' />
<polyline points='490.90,211.35 490.90,209.36 ' style='stroke-width: 0.78; stroke: #333333; stroke-linecap: butt;' />
<polyline points='503.69,211.35 503.69,209.36 ' style='stroke-width: 0.78; stroke: #333333; stroke-linecap: butt;' />
<text x='452.53' y='217.53' text-anchor='middle' style='font-size: 6.40px;fill: #4D4D4D; font-family: "Arial";' textLength='11.02px' lengthAdjust='spacingAndGlyphs'>-1.0</text>
<text x='465.32' y='217.53' text-anchor='middle' style='font-size: 6.40px;fill: #4D4D4D; font-family: "Arial";' textLength='11.02px' lengthAdjust='spacingAndGlyphs'>-0.5</text>
<text x='478.11' y='217.53' text-anchor='middle' style='font-size: 6.40px;fill: #4D4D4D; font-family: "Arial";' textLength='8.89px' lengthAdjust='spacingAndGlyphs'>0.0</text>
<text x='490.90' y='217.53' text-anchor='middle' style='font-size: 6.40px;fill: #4D4D4D; font-family: "Arial";' textLength='8.89px' lengthAdjust='spacingAndGlyphs'>0.5</text>
<text x='503.69' y='217.53' text-anchor='middle' style='font-size: 6.40px;fill: #4D4D4D; font-family: "Arial";' textLength='8.89px' lengthAdjust='spacingAndGlyphs'>1.0</text>
</g>
<g clip-path='url(#cpNDQ1Ljk4fDUxMC4yNHwxOC4wMHwyMzIuMTY=)'>
</g>
<g clip-path='url(#cpMC4wMHw1MTAuMjR8MC4wMHwyMzIuMTY=)'>
</g>
<g clip-path='url(#cpNDQ1Ljk4fDUxMC4yNHwxOC4wMHwyMzIuMTY=)'>
</g>
<g clip-path='url(#cpMC4wMHw1MTAuMjR8MC4wMHwyMzIuMTY=)'>
<text x='478.11' y='226.67' text-anchor='middle' style='font-size: 8.00px; font-family: "Arial";' textLength='85.41px' lengthAdjust='spacingAndGlyphs'>95% CIs of associations</text>
</g>
<g clip-path='url(#cpNDQ1Ljk4fDUxMC4yNHwxOC4wMHwyMzIuMTY=)'>
</g>
<g clip-path='url(#cpMC4wMHw1MTAuMjR8MC4wMHwyMzIuMTY=)'>
</g>
<g clip-path='url(#cpNDQ1Ljk4fDUxMC4yNHwxOC4wMHwyMzIuMTY=)'>
</g>
<g clip-path='url(#cpMC4wMHw1MTAuMjR8MC4wMHwyMzIuMTY=)'>
</g>
<g clip-path='url(#cpNDQ1Ljk4fDUxMC4yNHwxOC4wMHwyMzIuMTY=)'>
</g>
<g clip-path='url(#cpMC4wMHw1MTAuMjR8MC4wMHwyMzIuMTY=)'>
</g>
<g clip-path='url(#cpNDQ1Ljk4fDUxMC4yNHwxOC4wMHwyMzIuMTY=)'>
</g>
<g clip-path='url(#cpMC4wMHw1MTAuMjR8MC4wMHwyMzIuMTY=)'>
</g>
<g clip-path='url(#cpNDQ1Ljk4fDUxMC4yNHwxOC4wMHwyMzIuMTY=)'>
</g>
<g clip-path='url(#cpMC4wMHw1MTAuMjR8MC4wMHwyMzIuMTY=)'>
</g>
<g clip-path='url(#cpNDQ1Ljk4fDUxMC4yNHwxOC4wMHwyMzIuMTY=)'>
</g>
<g clip-path='url(#cpMC4wMHw1MTAuMjR8MC4wMHwyMzIuMTY=)'>
</g>
<g clip-path='url(#cpNDQ1Ljk4fDUxMC4yNHwxOC4wMHwyMzIuMTY=)'>
</g>
<g clip-path='url(#cpMC4wMHw1MTAuMjR8MC4wMHwyMzIuMTY=)'>
</g>
<g clip-path='url(#cpNDQ1Ljk4fDUxMC4yNHwxOC4wMHwyMzIuMTY=)'>
</g>
<g clip-path='url(#cpMC4wMHw1MTAuMjR8MC4wMHwyMzIuMTY=)'>
</g>
<g clip-path='url(#cpNDQ1Ljk4fDUxMC4yNHwxOC4wMHwyMzIuMTY=)'>
</g>
<g clip-path='url(#cpMC4wMHw1MTAuMjR8MC4wMHwyMzIuMTY=)'>
</g>
<g clip-path='url(#cpNDQ1Ljk4fDUxMC4yNHwxOC4wMHwyMzIuMTY=)'>
</g>
<g clip-path='url(#cpMC4wMHw1MTAuMjR8MC4wMHwyMzIuMTY=)'>
</g>
<g clip-path='url(#cpNDQ1Ljk4fDUxMC4yNHwxOC4wMHwyMzIuMTY=)'>
</g>
<g clip-path='url(#cpMC4wMHw1MTAuMjR8MC4wMHwyMzIuMTY=)'>
<text x='2.30' y='8.78' style='font-size: 9.60px; font-weight: bold; font-family: "Arial";' textLength='147.66px' lengthAdjust='spacingAndGlyphs'>Means and associations (r) with </text>
<text x='149.96' y='8.78' style='font-size: 9.60px; font-weight: bold; font-family: "Arial";' textLength='43.17px' lengthAdjust='spacingAndGlyphs'>proximity</text>
<text x='193.13' y='8.78' style='font-size: 9.60px; font-weight: bold; font-family: "Arial";' textLength='2.66px' lengthAdjust='spacingAndGlyphs'> </text>
</g>
</svg>
