<?xml version='1.0' encoding='UTF-8' ?>
<svg xmlns='http://www.w3.org/2000/svg' xmlns:xlink='http://www.w3.org/1999/xlink' class='svglite' width='510.24pt' height='202.39pt' viewBox='0 0 510.24 202.39'>
<defs>
  <style type='text/css'><![CDATA[
    .svglite line, .svglite polyline, .svglite polygon, .svglite path, .svglite rect, .svglite circle {
      fill: none;
      stroke: #000000;
      stroke-linecap: round;
      stroke-linejoin: round;
      stroke-miterlimit: 10.00;
    }
    .svglite text {
      white-space: pre;
    }
  ]]></style>
</defs>
<rect width='100%' height='100%' style='stroke: none; fill: none;'/>
<defs>
  <clipPath id='cpMC4wMHw1MTAuMjR8MC4wMHwyMDIuMzk='>
    <rect x='0.00' y='0.00' width='510.24' height='202.39' />
  </clipPath>
</defs>
<g clip-path='url(#cpMC4wMHw1MTAuMjR8MC4wMHwyMDIuMzk=)'>
</g>
<defs>
  <clipPath id='cpMjY2LjM5fDQ1MS4wOHwxOC4wMHwyMDIuMzk='>
    <rect x='266.39' y='18.00' width='184.70' height='184.39' />
  </clipPath>
</defs>
<g clip-path='url(#cpMjY2LjM5fDQ1MS4wOHwxOC4wMHwyMDIuMzk=)'>
<rect x='266.39' y='18.00' width='184.70' height='184.39' style='stroke-width: 0.78; stroke: #FFFFFF; fill: #FFFFFF;' />
</g>
<g clip-path='url(#cpMC4wMHw1MTAuMjR8MC4wMHwyMDIuMzk=)'>
</g>
<defs>
  <clipPath id='cpMzI3LjM2fDM4Ni41MXwyMS45OXwxNzkuNjA='>
    <rect x='327.36' y='21.99' width='59.15' height='157.61' />
  </clipPath>
</defs>
<g clip-path='url(#cpMzI3LjM2fDM4Ni41MXwyMS45OXwxNzkuNjA=)'>
<rect x='327.36' y='21.99' width='59.15' height='157.61' style='stroke-width: 0.78; stroke: none; fill: #FFFFFF;' />
<polyline points='328.11,179.60 328.11,21.99 ' style='stroke-width: 0.39; stroke: #EBEBEB; stroke-linecap: butt;' />
<polyline points='336.11,179.60 336.11,21.99 ' style='stroke-width: 0.39; stroke: #EBEBEB; stroke-linecap: butt;' />
<polyline points='344.11,179.60 344.11,21.99 ' style='stroke-width: 0.39; stroke: #EBEBEB; stroke-linecap: butt;' />
<polyline points='352.12,179.60 352.12,21.99 ' style='stroke-width: 0.39; stroke: #EBEBEB; stroke-linecap: butt;' />
<polyline points='360.12,179.60 360.12,21.99 ' style='stroke-width: 0.39; stroke: #EBEBEB; stroke-linecap: butt;' />
<polyline points='368.13,179.60 368.13,21.99 ' style='stroke-width: 0.39; stroke: #EBEBEB; stroke-linecap: butt;' />
<polyline points='376.13,179.60 376.13,21.99 ' style='stroke-width: 0.39; stroke: #EBEBEB; stroke-linecap: butt;' />
<polyline points='384.13,179.60 384.13,21.99 ' style='stroke-width: 0.39; stroke: #EBEBEB; stroke-linecap: butt;' />
<polyline points='327.36,165.32 386.51,165.32 ' style='stroke-width: 0.78; stroke: #EBEBEB; stroke-linecap: butt;' />
<polyline points='327.36,139.43 386.51,139.43 ' style='stroke-width: 0.78; stroke: #EBEBEB; stroke-linecap: butt;' />
<polyline points='327.36,113.53 386.51,113.53 ' style='stroke-width: 0.78; stroke: #EBEBEB; stroke-linecap: butt;' />
<polyline points='327.36,87.64 386.51,87.64 ' style='stroke-width: 0.78; stroke: #EBEBEB; stroke-linecap: butt;' />
<polyline points='327.36,61.74 386.51,61.74 ' style='stroke-width: 0.78; stroke: #EBEBEB; stroke-linecap: butt;' />
<polyline points='327.36,35.85 386.51,35.85 ' style='stroke-width: 0.78; stroke: #EBEBEB; stroke-linecap: butt;' />
<polyline points='332.11,179.60 332.11,21.99 ' style='stroke-width: 0.78; stroke: #EBEBEB; stroke-linecap: butt;' />
<polyline points='340.11,179.60 340.11,21.99 ' style='stroke-width: 0.78; stroke: #EBEBEB; stroke-linecap: butt;' />
<polyline points='348.12,179.60 348.12,21.99 ' style='stroke-width: 0.78; stroke: #EBEBEB; stroke-linecap: butt;' />
<polyline points='356.12,179.60 356.12,21.99 ' style='stroke-width: 0.78; stroke: #EBEBEB; stroke-linecap: butt;' />
<polyline points='364.12,179.60 364.12,21.99 ' style='stroke-width: 0.78; stroke: #EBEBEB; stroke-linecap: butt;' />
<polyline points='372.13,179.60 372.13,21.99 ' style='stroke-width: 0.78; stroke: #EBEBEB; stroke-linecap: butt;' />
<polyline points='380.13,179.60 380.13,21.99 ' style='stroke-width: 0.78; stroke: #EBEBEB; stroke-linecap: butt;' />
<circle cx='352.90' cy='170.23' r='2.13' style='stroke-width: 0.00; stroke: #444444; stroke-opacity: 0.10; fill: #444444; fill-opacity: 0.10;' />
<circle cx='342.18' cy='170.85' r='2.13' style='stroke-width: 0.00; stroke: #444444; stroke-opacity: 0.10; fill: #444444; fill-opacity: 0.10;' />
<circle cx='346.06' cy='165.09' r='2.13' style='stroke-width: 0.00; stroke: #444444; stroke-opacity: 0.10; fill: #444444; fill-opacity: 0.10;' />
<circle cx='368.54' cy='166.99' r='2.13' style='stroke-width: 0.00; stroke: #444444; stroke-opacity: 0.10; fill: #444444; fill-opacity: 0.10;' />
<circle cx='342.84' cy='161.95' r='2.13' style='stroke-width: 0.00; stroke: #444444; stroke-opacity: 0.10; fill: #444444; fill-opacity: 0.10;' />
<circle cx='355.23' cy='163.02' r='2.13' style='stroke-width: 0.00; stroke: #444444; stroke-opacity: 0.10; fill: #444444; fill-opacity: 0.10;' />
<circle cx='332.78' cy='171.11' r='2.13' style='stroke-width: 0.00; stroke: #444444; stroke-opacity: 0.10; fill: #444444; fill-opacity: 0.10;' />
<circle cx='331.86' cy='159.84' r='2.13' style='stroke-width: 0.00; stroke: #444444; stroke-opacity: 0.10; fill: #444444; fill-opacity: 0.10;' />
<circle cx='360.65' cy='170.23' r='2.13' style='stroke-width: 0.00; stroke: #444444; stroke-opacity: 0.10; fill: #444444; fill-opacity: 0.10;' />
<circle cx='365.50' cy='163.74' r='2.13' style='stroke-width: 0.00; stroke: #444444; stroke-opacity: 0.10; fill: #444444; fill-opacity: 0.10;' />
<circle cx='334.27' cy='160.20' r='2.13' style='stroke-width: 0.00; stroke: #444444; stroke-opacity: 0.10; fill: #444444; fill-opacity: 0.10;' />
<circle cx='363.91' cy='168.31' r='2.13' style='stroke-width: 0.00; stroke: #444444; stroke-opacity: 0.10; fill: #444444; fill-opacity: 0.10;' />
<circle cx='373.40' cy='163.48' r='2.13' style='stroke-width: 0.00; stroke: #444444; stroke-opacity: 0.10; fill: #444444; fill-opacity: 0.10;' />
<circle cx='330.41' cy='157.85' r='2.13' style='stroke-width: 0.00; stroke: #444444; stroke-opacity: 0.10; fill: #444444; fill-opacity: 0.10;' />
<circle cx='377.62' cy='164.83' r='2.13' style='stroke-width: 0.00; stroke: #444444; stroke-opacity: 0.10; fill: #444444; fill-opacity: 0.10;' />
<circle cx='377.64' cy='172.43' r='2.13' style='stroke-width: 0.00; stroke: #444444; stroke-opacity: 0.10; fill: #444444; fill-opacity: 0.10;' />
<circle cx='369.70' cy='168.32' r='2.13' style='stroke-width: 0.00; stroke: #444444; stroke-opacity: 0.10; fill: #444444; fill-opacity: 0.10;' />
<circle cx='374.01' cy='165.86' r='2.13' style='stroke-width: 0.00; stroke: #444444; stroke-opacity: 0.10; fill: #444444; fill-opacity: 0.10;' />
<circle cx='366.10' cy='169.61' r='2.13' style='stroke-width: 0.00; stroke: #444444; stroke-opacity: 0.10; fill: #444444; fill-opacity: 0.10;' />
<circle cx='354.65' cy='165.56' r='2.13' style='stroke-width: 0.00; stroke: #444444; stroke-opacity: 0.10; fill: #444444; fill-opacity: 0.10;' />
<circle cx='332.17' cy='168.23' r='2.13' style='stroke-width: 0.00; stroke: #444444; stroke-opacity: 0.10; fill: #444444; fill-opacity: 0.10;' />
<circle cx='356.23' cy='145.10' r='2.13' style='stroke-width: 0.00; stroke: #444444; stroke-opacity: 0.10; fill: #444444; fill-opacity: 0.10;' />
<circle cx='353.25' cy='132.73' r='2.13' style='stroke-width: 0.00; stroke: #444444; stroke-opacity: 0.10; fill: #444444; fill-opacity: 0.10;' />
<circle cx='335.10' cy='146.34' r='2.13' style='stroke-width: 0.00; stroke: #444444; stroke-opacity: 0.10; fill: #444444; fill-opacity: 0.10;' />
<circle cx='331.16' cy='141.79' r='2.13' style='stroke-width: 0.00; stroke: #444444; stroke-opacity: 0.10; fill: #444444; fill-opacity: 0.10;' />
<circle cx='380.85' cy='144.91' r='2.13' style='stroke-width: 0.00; stroke: #444444; stroke-opacity: 0.10; fill: #444444; fill-opacity: 0.10;' />
<circle cx='331.73' cy='132.06' r='2.13' style='stroke-width: 0.00; stroke: #444444; stroke-opacity: 0.10; fill: #444444; fill-opacity: 0.10;' />
<circle cx='382.44' cy='133.96' r='2.13' style='stroke-width: 0.00; stroke: #444444; stroke-opacity: 0.10; fill: #444444; fill-opacity: 0.10;' />
<circle cx='383.30' cy='143.02' r='2.13' style='stroke-width: 0.00; stroke: #444444; stroke-opacity: 0.10; fill: #444444; fill-opacity: 0.10;' />
<circle cx='367.60' cy='145.91' r='2.13' style='stroke-width: 0.00; stroke: #444444; stroke-opacity: 0.10; fill: #444444; fill-opacity: 0.10;' />
<circle cx='331.07' cy='137.96' r='2.13' style='stroke-width: 0.00; stroke: #444444; stroke-opacity: 0.10; fill: #444444; fill-opacity: 0.10;' />
<circle cx='341.64' cy='138.03' r='2.13' style='stroke-width: 0.00; stroke: #444444; stroke-opacity: 0.10; fill: #444444; fill-opacity: 0.10;' />
<circle cx='366.28' cy='133.30' r='2.13' style='stroke-width: 0.00; stroke: #444444; stroke-opacity: 0.10; fill: #444444; fill-opacity: 0.10;' />
<circle cx='333.84' cy='132.34' r='2.13' style='stroke-width: 0.00; stroke: #444444; stroke-opacity: 0.10; fill: #444444; fill-opacity: 0.10;' />
<circle cx='330.05' cy='145.89' r='2.13' style='stroke-width: 0.00; stroke: #444444; stroke-opacity: 0.10; fill: #444444; fill-opacity: 0.10;' />
<circle cx='378.16' cy='133.40' r='2.13' style='stroke-width: 0.00; stroke: #444444; stroke-opacity: 0.10; fill: #444444; fill-opacity: 0.10;' />
<circle cx='334.47' cy='134.95' r='2.13' style='stroke-width: 0.00; stroke: #444444; stroke-opacity: 0.10; fill: #444444; fill-opacity: 0.10;' />
<circle cx='358.07' cy='132.64' r='2.13' style='stroke-width: 0.00; stroke: #444444; stroke-opacity: 0.10; fill: #444444; fill-opacity: 0.10;' />
<circle cx='366.47' cy='135.66' r='2.13' style='stroke-width: 0.00; stroke: #444444; stroke-opacity: 0.10; fill: #444444; fill-opacity: 0.10;' />
<circle cx='358.24' cy='142.71' r='2.13' style='stroke-width: 0.00; stroke: #444444; stroke-opacity: 0.10; fill: #444444; fill-opacity: 0.10;' />
<circle cx='374.27' cy='135.06' r='2.13' style='stroke-width: 0.00; stroke: #444444; stroke-opacity: 0.10; fill: #444444; fill-opacity: 0.10;' />
<circle cx='382.67' cy='132.38' r='2.13' style='stroke-width: 0.00; stroke: #444444; stroke-opacity: 0.10; fill: #444444; fill-opacity: 0.10;' />
<circle cx='335.43' cy='143.61' r='2.13' style='stroke-width: 0.00; stroke: #444444; stroke-opacity: 0.10; fill: #444444; fill-opacity: 0.10;' />
<circle cx='380.76' cy='146.66' r='2.13' style='stroke-width: 0.00; stroke: #444444; stroke-opacity: 0.10; fill: #444444; fill-opacity: 0.10;' />
<circle cx='377.00' cy='136.62' r='2.13' style='stroke-width: 0.00; stroke: #444444; stroke-opacity: 0.10; fill: #444444; fill-opacity: 0.10;' />
<circle cx='366.21' cy='109.12' r='2.13' style='stroke-width: 0.00; stroke: #444444; stroke-opacity: 0.10; fill: #444444; fill-opacity: 0.10;' />
<circle cx='352.79' cy='111.70' r='2.13' style='stroke-width: 0.00; stroke: #444444; stroke-opacity: 0.10; fill: #444444; fill-opacity: 0.10;' />
<circle cx='368.58' cy='112.39' r='2.13' style='stroke-width: 0.00; stroke: #444444; stroke-opacity: 0.10; fill: #444444; fill-opacity: 0.10;' />
<circle cx='356.66' cy='111.10' r='2.13' style='stroke-width: 0.00; stroke: #444444; stroke-opacity: 0.10; fill: #444444; fill-opacity: 0.10;' />
<circle cx='335.03' cy='107.91' r='2.13' style='stroke-width: 0.00; stroke: #444444; stroke-opacity: 0.10; fill: #444444; fill-opacity: 0.10;' />
<circle cx='331.93' cy='119.07' r='2.13' style='stroke-width: 0.00; stroke: #444444; stroke-opacity: 0.10; fill: #444444; fill-opacity: 0.10;' />
<circle cx='353.97' cy='115.50' r='2.13' style='stroke-width: 0.00; stroke: #444444; stroke-opacity: 0.10; fill: #444444; fill-opacity: 0.10;' />
<circle cx='338.04' cy='106.98' r='2.13' style='stroke-width: 0.00; stroke: #444444; stroke-opacity: 0.10; fill: #444444; fill-opacity: 0.10;' />
<circle cx='353.01' cy='111.58' r='2.13' style='stroke-width: 0.00; stroke: #444444; stroke-opacity: 0.10; fill: #444444; fill-opacity: 0.10;' />
<circle cx='333.94' cy='115.82' r='2.13' style='stroke-width: 0.00; stroke: #444444; stroke-opacity: 0.10; fill: #444444; fill-opacity: 0.10;' />
<circle cx='334.91' cy='118.84' r='2.13' style='stroke-width: 0.00; stroke: #444444; stroke-opacity: 0.10; fill: #444444; fill-opacity: 0.10;' />
<circle cx='365.26' cy='113.08' r='2.13' style='stroke-width: 0.00; stroke: #444444; stroke-opacity: 0.10; fill: #444444; fill-opacity: 0.10;' />
<circle cx='382.05' cy='113.31' r='2.13' style='stroke-width: 0.00; stroke: #444444; stroke-opacity: 0.10; fill: #444444; fill-opacity: 0.10;' />
<circle cx='330.21' cy='113.26' r='2.13' style='stroke-width: 0.00; stroke: #444444; stroke-opacity: 0.10; fill: #444444; fill-opacity: 0.10;' />
<circle cx='373.91' cy='119.19' r='2.13' style='stroke-width: 0.00; stroke: #444444; stroke-opacity: 0.10; fill: #444444; fill-opacity: 0.10;' />
<circle cx='331.87' cy='106.33' r='2.13' style='stroke-width: 0.00; stroke: #444444; stroke-opacity: 0.10; fill: #444444; fill-opacity: 0.10;' />
<circle cx='358.74' cy='110.08' r='2.13' style='stroke-width: 0.00; stroke: #444444; stroke-opacity: 0.10; fill: #444444; fill-opacity: 0.10;' />
<circle cx='382.13' cy='108.44' r='2.13' style='stroke-width: 0.00; stroke: #444444; stroke-opacity: 0.10; fill: #444444; fill-opacity: 0.10;' />
<circle cx='355.23' cy='120.43' r='2.13' style='stroke-width: 0.00; stroke: #444444; stroke-opacity: 0.10; fill: #444444; fill-opacity: 0.10;' />
<circle cx='360.95' cy='117.27' r='2.13' style='stroke-width: 0.00; stroke: #444444; stroke-opacity: 0.10; fill: #444444; fill-opacity: 0.10;' />
<circle cx='372.27' cy='87.23' r='2.13' style='stroke-width: 0.00; stroke: #444444; stroke-opacity: 0.10; fill: #444444; fill-opacity: 0.10;' />
<circle cx='356.75' cy='90.91' r='2.13' style='stroke-width: 0.00; stroke: #444444; stroke-opacity: 0.10; fill: #444444; fill-opacity: 0.10;' />
<circle cx='357.69' cy='91.75' r='2.13' style='stroke-width: 0.00; stroke: #444444; stroke-opacity: 0.10; fill: #444444; fill-opacity: 0.10;' />
<circle cx='364.20' cy='84.52' r='2.13' style='stroke-width: 0.00; stroke: #444444; stroke-opacity: 0.10; fill: #444444; fill-opacity: 0.10;' />
<circle cx='361.04' cy='91.51' r='2.13' style='stroke-width: 0.00; stroke: #444444; stroke-opacity: 0.10; fill: #444444; fill-opacity: 0.10;' />
<circle cx='361.76' cy='89.60' r='2.13' style='stroke-width: 0.00; stroke: #444444; stroke-opacity: 0.10; fill: #444444; fill-opacity: 0.10;' />
<circle cx='373.10' cy='93.81' r='2.13' style='stroke-width: 0.00; stroke: #444444; stroke-opacity: 0.10; fill: #444444; fill-opacity: 0.10;' />
<circle cx='382.67' cy='91.37' r='2.13' style='stroke-width: 0.00; stroke: #444444; stroke-opacity: 0.10; fill: #444444; fill-opacity: 0.10;' />
<circle cx='379.07' cy='93.64' r='2.13' style='stroke-width: 0.00; stroke: #444444; stroke-opacity: 0.10; fill: #444444; fill-opacity: 0.10;' />
<circle cx='369.88' cy='86.40' r='2.13' style='stroke-width: 0.00; stroke: #444444; stroke-opacity: 0.10; fill: #444444; fill-opacity: 0.10;' />
<circle cx='356.13' cy='83.24' r='2.13' style='stroke-width: 0.00; stroke: #444444; stroke-opacity: 0.10; fill: #444444; fill-opacity: 0.10;' />
<circle cx='355.98' cy='93.54' r='2.13' style='stroke-width: 0.00; stroke: #444444; stroke-opacity: 0.10; fill: #444444; fill-opacity: 0.10;' />
<circle cx='381.40' cy='94.39' r='2.13' style='stroke-width: 0.00; stroke: #444444; stroke-opacity: 0.10; fill: #444444; fill-opacity: 0.10;' />
<circle cx='379.48' cy='89.79' r='2.13' style='stroke-width: 0.00; stroke: #444444; stroke-opacity: 0.10; fill: #444444; fill-opacity: 0.10;' />
<circle cx='335.18' cy='92.64' r='2.13' style='stroke-width: 0.00; stroke: #444444; stroke-opacity: 0.10; fill: #444444; fill-opacity: 0.10;' />
<circle cx='373.08' cy='85.43' r='2.13' style='stroke-width: 0.00; stroke: #444444; stroke-opacity: 0.10; fill: #444444; fill-opacity: 0.10;' />
<circle cx='366.73' cy='92.98' r='2.13' style='stroke-width: 0.00; stroke: #444444; stroke-opacity: 0.10; fill: #444444; fill-opacity: 0.10;' />
<circle cx='379.76' cy='85.86' r='2.13' style='stroke-width: 0.00; stroke: #444444; stroke-opacity: 0.10; fill: #444444; fill-opacity: 0.10;' />
<circle cx='380.48' cy='83.14' r='2.13' style='stroke-width: 0.00; stroke: #444444; stroke-opacity: 0.10; fill: #444444; fill-opacity: 0.10;' />
<circle cx='369.07' cy='87.78' r='2.13' style='stroke-width: 0.00; stroke: #444444; stroke-opacity: 0.10; fill: #444444; fill-opacity: 0.10;' />
<circle cx='370.54' cy='88.89' r='2.13' style='stroke-width: 0.00; stroke: #444444; stroke-opacity: 0.10; fill: #444444; fill-opacity: 0.10;' />
<circle cx='380.57' cy='91.25' r='2.13' style='stroke-width: 0.00; stroke: #444444; stroke-opacity: 0.10; fill: #444444; fill-opacity: 0.10;' />
<circle cx='359.08' cy='87.20' r='2.13' style='stroke-width: 0.00; stroke: #444444; stroke-opacity: 0.10; fill: #444444; fill-opacity: 0.10;' />
<circle cx='331.65' cy='86.03' r='2.13' style='stroke-width: 0.00; stroke: #444444; stroke-opacity: 0.10; fill: #444444; fill-opacity: 0.10;' />
<circle cx='377.53' cy='94.76' r='2.13' style='stroke-width: 0.00; stroke: #444444; stroke-opacity: 0.10; fill: #444444; fill-opacity: 0.10;' />
<circle cx='356.63' cy='87.19' r='2.13' style='stroke-width: 0.00; stroke: #444444; stroke-opacity: 0.10; fill: #444444; fill-opacity: 0.10;' />
<circle cx='359.03' cy='81.33' r='2.13' style='stroke-width: 0.00; stroke: #444444; stroke-opacity: 0.10; fill: #444444; fill-opacity: 0.10;' />
<circle cx='378.80' cy='65.38' r='2.13' style='stroke-width: 0.00; stroke: #444444; stroke-opacity: 0.10; fill: #444444; fill-opacity: 0.10;' />
<circle cx='377.92' cy='61.53' r='2.13' style='stroke-width: 0.00; stroke: #444444; stroke-opacity: 0.10; fill: #444444; fill-opacity: 0.10;' />
<circle cx='380.48' cy='68.23' r='2.13' style='stroke-width: 0.00; stroke: #444444; stroke-opacity: 0.10; fill: #444444; fill-opacity: 0.10;' />
<circle cx='382.80' cy='61.99' r='2.13' style='stroke-width: 0.00; stroke: #444444; stroke-opacity: 0.10; fill: #444444; fill-opacity: 0.10;' />
<circle cx='377.88' cy='61.88' r='2.13' style='stroke-width: 0.00; stroke: #444444; stroke-opacity: 0.10; fill: #444444; fill-opacity: 0.10;' />
<circle cx='372.55' cy='60.19' r='2.13' style='stroke-width: 0.00; stroke: #444444; stroke-opacity: 0.10; fill: #444444; fill-opacity: 0.10;' />
<circle cx='381.02' cy='57.70' r='2.13' style='stroke-width: 0.00; stroke: #444444; stroke-opacity: 0.10; fill: #444444; fill-opacity: 0.10;' />
<circle cx='377.30' cy='66.71' r='2.13' style='stroke-width: 0.00; stroke: #444444; stroke-opacity: 0.10; fill: #444444; fill-opacity: 0.10;' />
<circle cx='383.48' cy='65.66' r='2.13' style='stroke-width: 0.00; stroke: #444444; stroke-opacity: 0.10; fill: #444444; fill-opacity: 0.10;' />
<circle cx='371.76' cy='68.39' r='2.13' style='stroke-width: 0.00; stroke: #444444; stroke-opacity: 0.10; fill: #444444; fill-opacity: 0.10;' />
<circle cx='378.94' cy='62.50' r='2.13' style='stroke-width: 0.00; stroke: #444444; stroke-opacity: 0.10; fill: #444444; fill-opacity: 0.10;' />
<circle cx='379.14' cy='67.84' r='2.13' style='stroke-width: 0.00; stroke: #444444; stroke-opacity: 0.10; fill: #444444; fill-opacity: 0.10;' />
<circle cx='383.70' cy='61.99' r='2.13' style='stroke-width: 0.00; stroke: #444444; stroke-opacity: 0.10; fill: #444444; fill-opacity: 0.10;' />
<circle cx='354.59' cy='63.78' r='2.13' style='stroke-width: 0.00; stroke: #444444; stroke-opacity: 0.10; fill: #444444; fill-opacity: 0.10;' />
<circle cx='372.63' cy='68.27' r='2.13' style='stroke-width: 0.00; stroke: #444444; stroke-opacity: 0.10; fill: #444444; fill-opacity: 0.10;' />
<circle cx='370.71' cy='60.33' r='2.13' style='stroke-width: 0.00; stroke: #444444; stroke-opacity: 0.10; fill: #444444; fill-opacity: 0.10;' />
<circle cx='361.92' cy='67.77' r='2.13' style='stroke-width: 0.00; stroke: #444444; stroke-opacity: 0.10; fill: #444444; fill-opacity: 0.10;' />
<circle cx='377.50' cy='63.80' r='2.13' style='stroke-width: 0.00; stroke: #444444; stroke-opacity: 0.10; fill: #444444; fill-opacity: 0.10;' />
<circle cx='378.13' cy='58.94' r='2.13' style='stroke-width: 0.00; stroke: #444444; stroke-opacity: 0.10; fill: #444444; fill-opacity: 0.10;' />
<circle cx='358.10' cy='65.98' r='2.13' style='stroke-width: 0.00; stroke: #444444; stroke-opacity: 0.10; fill: #444444; fill-opacity: 0.10;' />
<circle cx='383.62' cy='65.54' r='2.13' style='stroke-width: 0.00; stroke: #444444; stroke-opacity: 0.10; fill: #444444; fill-opacity: 0.10;' />
<circle cx='380.68' cy='39.86' r='2.13' style='stroke-width: 0.00; stroke: #444444; stroke-opacity: 0.10; fill: #444444; fill-opacity: 0.10;' />
<circle cx='361.67' cy='41.72' r='2.13' style='stroke-width: 0.00; stroke: #444444; stroke-opacity: 0.10; fill: #444444; fill-opacity: 0.10;' />
<circle cx='365.51' cy='35.77' r='2.13' style='stroke-width: 0.00; stroke: #444444; stroke-opacity: 0.10; fill: #444444; fill-opacity: 0.10;' />
<circle cx='365.11' cy='31.27' r='2.13' style='stroke-width: 0.00; stroke: #444444; stroke-opacity: 0.10; fill: #444444; fill-opacity: 0.10;' />
<circle cx='379.02' cy='38.63' r='2.13' style='stroke-width: 0.00; stroke: #444444; stroke-opacity: 0.10; fill: #444444; fill-opacity: 0.10;' />
<circle cx='382.29' cy='30.62' r='2.13' style='stroke-width: 0.00; stroke: #444444; stroke-opacity: 0.10; fill: #444444; fill-opacity: 0.10;' />
<circle cx='383.47' cy='41.96' r='2.13' style='stroke-width: 0.00; stroke: #444444; stroke-opacity: 0.10; fill: #444444; fill-opacity: 0.10;' />
<circle cx='333.96' cy='36.62' r='2.13' style='stroke-width: 0.00; stroke: #444444; stroke-opacity: 0.10; fill: #444444; fill-opacity: 0.10;' />
<circle cx='361.16' cy='29.96' r='2.13' style='stroke-width: 0.00; stroke: #444444; stroke-opacity: 0.10; fill: #444444; fill-opacity: 0.10;' />
<circle cx='377.78' cy='41.37' r='2.13' style='stroke-width: 0.00; stroke: #444444; stroke-opacity: 0.10; fill: #444444; fill-opacity: 0.10;' />
<circle cx='382.24' cy='29.56' r='2.13' style='stroke-width: 0.00; stroke: #444444; stroke-opacity: 0.10; fill: #444444; fill-opacity: 0.10;' />
<circle cx='356.84' cy='29.15' r='2.13' style='stroke-width: 0.00; stroke: #444444; stroke-opacity: 0.10; fill: #444444; fill-opacity: 0.10;' />
<circle cx='383.13' cy='34.16' r='2.13' style='stroke-width: 0.00; stroke: #444444; stroke-opacity: 0.10; fill: #444444; fill-opacity: 0.10;' />
<circle cx='379.86' cy='40.77' r='2.13' style='stroke-width: 0.00; stroke: #444444; stroke-opacity: 0.10; fill: #444444; fill-opacity: 0.10;' />
<circle cx='380.54' cy='30.21' r='2.13' style='stroke-width: 0.00; stroke: #444444; stroke-opacity: 0.10; fill: #444444; fill-opacity: 0.10;' />
<circle cx='376.89' cy='36.64' r='2.13' style='stroke-width: 0.00; stroke: #444444; stroke-opacity: 0.10; fill: #444444; fill-opacity: 0.10;' />
<circle cx='383.28' cy='40.70' r='2.13' style='stroke-width: 0.00; stroke: #444444; stroke-opacity: 0.10; fill: #444444; fill-opacity: 0.10;' />
<circle cx='354.29' cy='38.61' r='2.13' style='stroke-width: 0.00; stroke: #444444; stroke-opacity: 0.10; fill: #444444; fill-opacity: 0.10;' />
<circle cx='376.58' cy='29.34' r='2.13' style='stroke-width: 0.00; stroke: #444444; stroke-opacity: 0.10; fill: #444444; fill-opacity: 0.10;' />
<circle cx='380.45' cy='29.75' r='2.13' style='stroke-width: 0.00; stroke: #444444; stroke-opacity: 0.10; fill: #444444; fill-opacity: 0.10;' />
<circle cx='381.06' cy='37.63' r='2.13' style='stroke-width: 0.00; stroke: #444444; stroke-opacity: 0.10; fill: #444444; fill-opacity: 0.10;' />
<circle cx='377.24' cy='38.00' r='2.13' style='stroke-width: 0.00; stroke: #444444; stroke-opacity: 0.10; fill: #444444; fill-opacity: 0.10;' />
<circle cx='372.03' cy='37.12' r='2.13' style='stroke-width: 0.00; stroke: #444444; stroke-opacity: 0.10; fill: #444444; fill-opacity: 0.10;' />
<circle cx='381.78' cy='40.77' r='2.13' style='stroke-width: 0.00; stroke: #444444; stroke-opacity: 0.10; fill: #444444; fill-opacity: 0.10;' />
<circle cx='360.92' cy='31.23' r='2.13' style='stroke-width: 0.00; stroke: #444444; stroke-opacity: 0.10; fill: #444444; fill-opacity: 0.10;' />
<circle cx='339.73' cy='33.38' r='2.13' style='stroke-width: 0.00; stroke: #444444; stroke-opacity: 0.10; fill: #444444; fill-opacity: 0.10;' />
<circle cx='364.20' cy='42.00' r='2.13' style='stroke-width: 0.00; stroke: #444444; stroke-opacity: 0.10; fill: #444444; fill-opacity: 0.10;' />
<polygon points='337.26,165.32 355.36,169.21 373.46,165.32 355.36,161.44 337.26,165.32 ' style='stroke-width: 1.07; stroke: #535756; stroke-linecap: butt; fill: #535756;' />
<polygon points='336.80,139.43 356.12,143.31 375.44,139.43 356.12,135.54 336.80,139.43 ' style='stroke-width: 1.07; stroke: #555555; stroke-linecap: butt; fill: #555555;' />
<polygon points='334.83,113.53 353.32,117.42 371.81,113.53 353.32,109.65 334.83,113.53 ' style='stroke-width: 1.07; stroke: #4F5C5B; stroke-linecap: butt; fill: #4F5C5B;' />
<polygon points='354.18,87.64 366.20,91.52 378.21,87.64 366.20,83.75 354.18,87.64 ' style='stroke-width: 1.07; stroke: #4E3254; stroke-linecap: butt; fill: #4E3254;' />
<polygon points='367.29,61.74 375.56,65.63 383.82,61.74 375.56,57.86 367.29,61.74 ' style='stroke-width: 1.07; stroke: #471154; stroke-linecap: butt; fill: #471154;' />
<polygon points='359.59,35.85 371.24,39.73 382.89,35.85 371.24,31.96 359.59,35.85 ' style='stroke-width: 1.07; stroke: #4A2054; stroke-linecap: butt; fill: #4A2054;' />
<rect x='327.36' y='21.99' width='59.15' height='157.61' style='stroke-width: 0.78; stroke: #333333;' />
</g>
<g clip-path='url(#cpMC4wMHw1MTAuMjR8MC4wMHwyMDIuMzk=)'>
<text x='323.77' y='167.61' text-anchor='end' style='font-size: 6.40px;fill: #4D4D4D; font-family: "Arial";' textLength='53.67px' lengthAdjust='spacingAndGlyphs'>as little as possible</text>
<text x='323.77' y='141.72' text-anchor='end' style='font-size: 6.40px;fill: #4D4D4D; font-family: "Arial";' textLength='53.67px' lengthAdjust='spacingAndGlyphs'>as little as possible</text>
<text x='323.77' y='115.82' text-anchor='end' style='font-size: 6.40px;fill: #4D4D4D; font-family: "Arial";' textLength='53.67px' lengthAdjust='spacingAndGlyphs'>as little as possible</text>
<text x='323.77' y='89.93' text-anchor='end' style='font-size: 6.40px;fill: #4D4D4D; font-family: "Arial";' textLength='53.67px' lengthAdjust='spacingAndGlyphs'>as little as possible</text>
<text x='323.77' y='64.03' text-anchor='end' style='font-size: 6.40px;fill: #4D4D4D; font-family: "Arial";' textLength='53.67px' lengthAdjust='spacingAndGlyphs'>as little as possible</text>
<text x='323.77' y='38.14' text-anchor='end' style='font-size: 6.40px;fill: #4D4D4D; font-family: "Arial";' textLength='53.67px' lengthAdjust='spacingAndGlyphs'>as little as possible</text>
<polyline points='325.37,165.32 327.36,165.32 ' style='stroke-width: 0.78; stroke: #333333; stroke-linecap: butt;' />
<polyline points='325.37,139.43 327.36,139.43 ' style='stroke-width: 0.78; stroke: #333333; stroke-linecap: butt;' />
<polyline points='325.37,113.53 327.36,113.53 ' style='stroke-width: 0.78; stroke: #333333; stroke-linecap: butt;' />
<polyline points='325.37,87.64 327.36,87.64 ' style='stroke-width: 0.78; stroke: #333333; stroke-linecap: butt;' />
<polyline points='325.37,61.74 327.36,61.74 ' style='stroke-width: 0.78; stroke: #333333; stroke-linecap: butt;' />
<polyline points='325.37,35.85 327.36,35.85 ' style='stroke-width: 0.78; stroke: #333333; stroke-linecap: butt;' />
<polyline points='388.50,165.32 386.51,165.32 ' style='stroke-width: 0.78; stroke: #333333; stroke-linecap: butt;' />
<polyline points='388.50,139.43 386.51,139.43 ' style='stroke-width: 0.78; stroke: #333333; stroke-linecap: butt;' />
<polyline points='388.50,113.53 386.51,113.53 ' style='stroke-width: 0.78; stroke: #333333; stroke-linecap: butt;' />
<polyline points='388.50,87.64 386.51,87.64 ' style='stroke-width: 0.78; stroke: #333333; stroke-linecap: butt;' />
<polyline points='388.50,61.74 386.51,61.74 ' style='stroke-width: 0.78; stroke: #333333; stroke-linecap: butt;' />
<polyline points='388.50,35.85 386.51,35.85 ' style='stroke-width: 0.78; stroke: #333333; stroke-linecap: butt;' />
<text x='390.10' y='167.61' style='font-size: 6.40px;fill: #4D4D4D; font-family: "Arial";' textLength='57.94px' lengthAdjust='spacingAndGlyphs'>as much as possible</text>
<text x='390.10' y='141.72' style='font-size: 6.40px;fill: #4D4D4D; font-family: "Arial";' textLength='57.94px' lengthAdjust='spacingAndGlyphs'>as much as possible</text>
<text x='390.10' y='115.82' style='font-size: 6.40px;fill: #4D4D4D; font-family: "Arial";' textLength='57.94px' lengthAdjust='spacingAndGlyphs'>as much as possible</text>
<text x='390.10' y='89.93' style='font-size: 6.40px;fill: #4D4D4D; font-family: "Arial";' textLength='57.94px' lengthAdjust='spacingAndGlyphs'>as much as possible</text>
<text x='390.10' y='64.03' style='font-size: 6.40px;fill: #4D4D4D; font-family: "Arial";' textLength='57.94px' lengthAdjust='spacingAndGlyphs'>as much as possible</text>
<text x='390.10' y='38.14' style='font-size: 6.40px;fill: #4D4D4D; font-family: "Arial";' textLength='57.94px' lengthAdjust='spacingAndGlyphs'>as much as possible</text>
<polyline points='332.11,181.59 332.11,179.60 ' style='stroke-width: 0.78; stroke: #333333; stroke-linecap: butt;' />
<polyline points='340.11,181.59 340.11,179.60 ' style='stroke-width: 0.78; stroke: #333333; stroke-linecap: butt;' />
<polyline points='348.12,181.59 348.12,179.60 ' style='stroke-width: 0.78; stroke: #333333; stroke-linecap: butt;' />
<polyline points='356.12,181.59 356.12,179.60 ' style='stroke-width: 0.78; stroke: #333333; stroke-linecap: butt;' />
<polyline points='364.12,181.59 364.12,179.60 ' style='stroke-width: 0.78; stroke: #333333; stroke-linecap: butt;' />
<polyline points='372.13,181.59 372.13,179.60 ' style='stroke-width: 0.78; stroke: #333333; stroke-linecap: butt;' />
<polyline points='380.13,181.59 380.13,179.60 ' style='stroke-width: 0.78; stroke: #333333; stroke-linecap: butt;' />
<text x='332.11' y='187.76' text-anchor='middle' style='font-size: 6.40px;fill: #4D4D4D; font-family: "Arial";' textLength='5.69px' lengthAdjust='spacingAndGlyphs'>-3</text>
<text x='340.11' y='187.76' text-anchor='middle' style='font-size: 6.40px;fill: #4D4D4D; font-family: "Arial";' textLength='5.69px' lengthAdjust='spacingAndGlyphs'>-2</text>
<text x='348.12' y='187.76' text-anchor='middle' style='font-size: 6.40px;fill: #4D4D4D; font-family: "Arial";' textLength='5.69px' lengthAdjust='spacingAndGlyphs'>-1</text>
<text x='356.12' y='187.76' text-anchor='middle' style='font-size: 6.40px;fill: #4D4D4D; font-family: "Arial";' textLength='3.56px' lengthAdjust='spacingAndGlyphs'>0</text>
<text x='364.12' y='187.76' text-anchor='middle' style='font-size: 6.40px;fill: #4D4D4D; font-family: "Arial";' textLength='3.56px' lengthAdjust='spacingAndGlyphs'>1</text>
<text x='372.13' y='187.76' text-anchor='middle' style='font-size: 6.40px;fill: #4D4D4D; font-family: "Arial";' textLength='3.56px' lengthAdjust='spacingAndGlyphs'>2</text>
<text x='380.13' y='187.76' text-anchor='middle' style='font-size: 6.40px;fill: #4D4D4D; font-family: "Arial";' textLength='3.56px' lengthAdjust='spacingAndGlyphs'>3</text>
<text x='356.93' y='196.91' text-anchor='middle' style='font-size: 8.00px; font-family: "Arial";' textLength='84.07px' lengthAdjust='spacingAndGlyphs'>Scores and 99.99% CIs</text>
</g>
<defs>
  <clipPath id='cpMC4wMHwyNjYuMzl8MjEuOTl8MTc5LjYw'>
    <rect x='0.00' y='21.99' width='266.39' height='157.61' />
  </clipPath>
</defs>
<g clip-path='url(#cpMC4wMHwyNjYuMzl8MjEuOTl8MTc5LjYw)'>
</g>
<g clip-path='url(#cpMC4wMHw1MTAuMjR8MC4wMHwyMDIuMzk=)'>
<text x='3.59' y='160.71' style='font-size: 8.00px; font-family: "Arial";' textLength='254.87px' lengthAdjust='spacingAndGlyphs'>When it comes to keeping at least {distRec} distance from others, I want</text>
<text x='3.59' y='169.35' style='font-size: 8.00px; font-family: "Arial";' textLength='88.97px' lengthAdjust='spacingAndGlyphs'>to be like other people …</text>
<text x='3.59' y='177.99' style='font-size: 8.00px; font-family: "Arial";' textLength='80.04px' lengthAdjust='spacingAndGlyphs'>[NrmDeIdOther_clean]</text>
<text x='3.59' y='134.51' style='font-size: 8.00px; font-family: "Arial";' textLength='254.87px' lengthAdjust='spacingAndGlyphs'>When it comes to keeping at least {distRec} distance from others, I want</text>
<text x='3.59' y='143.15' style='font-size: 8.00px; font-family: "Arial";' textLength='79.61px' lengthAdjust='spacingAndGlyphs'>to be like my doctor …</text>
<text x='3.59' y='151.79' style='font-size: 8.00px; font-family: "Arial";' textLength='83.59px' lengthAdjust='spacingAndGlyphs'>[NrmDeIdDoctor_clean]</text>
<text x='3.59' y='108.31' style='font-size: 8.00px; font-family: "Arial";' textLength='254.87px' lengthAdjust='spacingAndGlyphs'>When it comes to keeping at least {distRec} distance from others, I want</text>
<text x='3.59' y='116.95' style='font-size: 8.00px; font-family: "Arial";' textLength='145.46px' lengthAdjust='spacingAndGlyphs'>to be like people in my neighbourhood …</text>
<text x='3.59' y='125.59' style='font-size: 8.00px; font-family: "Arial";' textLength='100.06px' lengthAdjust='spacingAndGlyphs'>[NrmDeIdLikeNeighb_clean]</text>
<text x='3.59' y='82.12' style='font-size: 8.00px; font-family: "Arial";' textLength='254.87px' lengthAdjust='spacingAndGlyphs'>When it comes to keeping at least {distRec} distance from others, I want</text>
<text x='3.59' y='90.76' style='font-size: 8.00px; font-family: "Arial";' textLength='113.82px' lengthAdjust='spacingAndGlyphs'>to be like my family members …</text>
<text x='3.59' y='99.40' style='font-size: 8.00px; font-family: "Arial";' textLength='83.58px' lengthAdjust='spacingAndGlyphs'>[NrmDeIdFamily_clean]</text>
<text x='3.59' y='55.92' style='font-size: 8.00px; font-family: "Arial";' textLength='254.87px' lengthAdjust='spacingAndGlyphs'>When it comes to keeping at least {distRec} distance from others, I want</text>
<text x='3.59' y='64.56' style='font-size: 8.00px; font-family: "Arial";' textLength='96.08px' lengthAdjust='spacingAndGlyphs'>to be like people like me …</text>
<text x='3.59' y='73.20' style='font-size: 8.00px; font-family: "Arial";' textLength='88.21px' lengthAdjust='spacingAndGlyphs'>[NrmDeIdLikeYou_clean]</text>
<text x='3.59' y='29.72' style='font-size: 8.00px; font-family: "Arial";' textLength='254.87px' lengthAdjust='spacingAndGlyphs'>When it comes to keeping at least {distRec} distance from others, I want</text>
<text x='3.59' y='38.36' style='font-size: 8.00px; font-family: "Arial";' textLength='98.73px' lengthAdjust='spacingAndGlyphs'>to be like my role models …</text>
<text x='3.59' y='47.00' style='font-size: 8.00px; font-family: "Arial";' textLength='76.48px' lengthAdjust='spacingAndGlyphs'>[NrmDeIdRole_clean]</text>
</g>
<g clip-path='url(#cpMC4wMHwyNjYuMzl8MjEuOTl8MTc5LjYw)'>
</g>
<g clip-path='url(#cpMC4wMHw1MTAuMjR8MC4wMHwyMDIuMzk=)'>
</g>
<defs>
  <clipPath id='cpNDUxLjA4fDUxMC4yNHwxOC4wMHwyMDIuMzk='>
    <rect x='451.08' y='18.00' width='59.15' height='184.39' />
  </clipPath>
</defs>
<g clip-path='url(#cpNDUxLjA4fDUxMC4yNHwxOC4wMHwyMDIuMzk=)'>
<rect x='451.08' y='18.00' width='59.15' height='184.39' style='stroke-width: 0.78; stroke: #FFFFFF; fill: #FFFFFF;' />
</g>
<defs>
  <clipPath id='cpNDU1LjA3fDUwNi4yNXwyMS45OXwxNzkuNjA='>
    <rect x='455.07' y='21.99' width='51.18' height='157.61' />
  </clipPath>
</defs>
<g clip-path='url(#cpNDU1LjA3fDUwNi4yNXwyMS45OXwxNzkuNjA=)'>
<rect x='455.07' y='21.99' width='51.18' height='157.61' style='stroke-width: 0.78; stroke: none; fill: #FFFFFF;' />
<polyline points='463.21,179.60 463.21,21.99 ' style='stroke-width: 0.39; stroke: #EBEBEB; stroke-linecap: butt;' />
<polyline points='474.84,179.60 474.84,21.99 ' style='stroke-width: 0.39; stroke: #EBEBEB; stroke-linecap: butt;' />
<polyline points='486.48,179.60 486.48,21.99 ' style='stroke-width: 0.39; stroke: #EBEBEB; stroke-linecap: butt;' />
<polyline points='498.11,179.60 498.11,21.99 ' style='stroke-width: 0.39; stroke: #EBEBEB; stroke-linecap: butt;' />
<polyline points='457.39,179.60 457.39,21.99 ' style='stroke-width: 0.78; stroke: #EBEBEB; stroke-linecap: butt;' />
<polyline points='469.03,179.60 469.03,21.99 ' style='stroke-width: 0.78; stroke: #EBEBEB; stroke-linecap: butt;' />
<polyline points='480.66,179.60 480.66,21.99 ' style='stroke-width: 0.78; stroke: #EBEBEB; stroke-linecap: butt;' />
<polyline points='492.29,179.60 492.29,21.99 ' style='stroke-width: 0.78; stroke: #EBEBEB; stroke-linecap: butt;' />
<polyline points='503.92,179.60 503.92,21.99 ' style='stroke-width: 0.78; stroke: #EBEBEB; stroke-linecap: butt;' />
<line x1='469.03' y1='179.60' x2='469.03' y2='21.99' style='stroke-width: 1.07; stroke: #BEBEBE; stroke-linecap: butt;' />
<line x1='480.66' y1='179.60' x2='480.66' y2='21.99' style='stroke-width: 1.07; stroke: #BEBEBE; stroke-linecap: butt;' />
<line x1='492.29' y1='179.60' x2='492.29' y2='21.99' style='stroke-width: 1.07; stroke: #BEBEBE; stroke-linecap: butt;' />
<polygon points='466.21,168.38 474.63,172.43 485.18,168.38 474.63,164.32 466.21,168.38 ' style='stroke-width: 2.13; stroke-linecap: butt; fill: #476463; fill-opacity: 0.50;' />
<polygon points='469.21,141.34 478.08,145.40 487.79,141.34 478.08,137.29 469.21,141.34 ' style='stroke-width: 2.13; stroke-linecap: butt; fill: #4F5B5B; fill-opacity: 0.50;' />
<polygon points='469.22,114.31 479.20,118.36 489.74,114.31 479.20,110.25 469.22,114.31 ' style='stroke-width: 2.13; stroke-linecap: butt; fill: #515858; fill-opacity: 0.50;' />
<polygon points='476.10,87.27 485.29,91.33 493.18,87.27 485.29,83.22 476.10,87.27 ' style='stroke-width: 2.13; stroke-linecap: butt; fill: #514454; fill-opacity: 0.50;' />
<polygon points='479.22,60.24 489.50,64.29 496.88,60.24 489.50,56.18 479.22,60.24 ' style='stroke-width: 2.13; stroke-linecap: butt; fill: #4E3554; fill-opacity: 0.50;' />
<polygon points='480.86,33.20 489.67,37.26 496.22,33.20 489.67,29.15 480.86,33.20 ' style='stroke-width: 2.13; stroke-linecap: butt; fill: #4E3454; fill-opacity: 0.50;' />
<rect x='455.07' y='21.99' width='51.18' height='157.61' style='stroke-width: 0.78; stroke: #333333;' />
</g>
<g clip-path='url(#cpNDUxLjA4fDUxMC4yNHwxOC4wMHwyMDIuMzk=)'>
</g>
<g clip-path='url(#cpMC4wMHw1MTAuMjR8MC4wMHwyMDIuMzk=)'>
</g>
<g clip-path='url(#cpNDUxLjA4fDUxMC4yNHwxOC4wMHwyMDIuMzk=)'>
</g>
<g clip-path='url(#cpMC4wMHw1MTAuMjR8MC4wMHwyMDIuMzk=)'>
</g>
<g clip-path='url(#cpNDUxLjA4fDUxMC4yNHwxOC4wMHwyMDIuMzk=)'>
</g>
<g clip-path='url(#cpMC4wMHw1MTAuMjR8MC4wMHwyMDIuMzk=)'>
</g>
<g clip-path='url(#cpNDUxLjA4fDUxMC4yNHwxOC4wMHwyMDIuMzk=)'>
</g>
<g clip-path='url(#cpMC4wMHw1MTAuMjR8MC4wMHwyMDIuMzk=)'>
</g>
<g clip-path='url(#cpNDUxLjA4fDUxMC4yNHwxOC4wMHwyMDIuMzk=)'>
</g>
<g clip-path='url(#cpMC4wMHw1MTAuMjR8MC4wMHwyMDIuMzk=)'>
</g>
<g clip-path='url(#cpNDUxLjA4fDUxMC4yNHwxOC4wMHwyMDIuMzk=)'>
</g>
<g clip-path='url(#cpMC4wMHw1MTAuMjR8MC4wMHwyMDIuMzk=)'>
</g>
<g clip-path='url(#cpNDUxLjA4fDUxMC4yNHwxOC4wMHwyMDIuMzk=)'>
</g>
<g clip-path='url(#cpMC4wMHw1MTAuMjR8MC4wMHwyMDIuMzk=)'>
</g>
<g clip-path='url(#cpNDUxLjA4fDUxMC4yNHwxOC4wMHwyMDIuMzk=)'>
</g>
<g clip-path='url(#cpMC4wMHw1MTAuMjR8MC4wMHwyMDIuMzk=)'>
<polyline points='457.39,181.59 457.39,179.60 ' style='stroke-width: 0.78; stroke: #333333; stroke-linecap: butt;' />
<polyline points='469.03,181.59 469.03,179.60 ' style='stroke-width: 0.78; stroke: #333333; stroke-linecap: butt;' />
<polyline points='480.66,181.59 480.66,179.60 ' style='stroke-width: 0.78; stroke: #333333; stroke-linecap: butt;' />
<polyline points='492.29,181.59 492.29,179.60 ' style='stroke-width: 0.78; stroke: #333333; stroke-linecap: butt;' />
<polyline points='503.92,181.59 503.92,179.60 ' style='stroke-width: 0.78; stroke: #333333; stroke-linecap: butt;' />
<text x='457.39' y='187.76' text-anchor='middle' style='font-size: 6.40px;fill: #4D4D4D; font-family: "Arial";' textLength='11.02px' lengthAdjust='spacingAndGlyphs'>-1.0</text>
<text x='469.03' y='187.76' text-anchor='middle' style='font-size: 6.40px;fill: #4D4D4D; font-family: "Arial";' textLength='11.02px' lengthAdjust='spacingAndGlyphs'>-0.5</text>
<text x='480.66' y='187.76' text-anchor='middle' style='font-size: 6.40px;fill: #4D4D4D; font-family: "Arial";' textLength='8.89px' lengthAdjust='spacingAndGlyphs'>0.0</text>
<text x='492.29' y='187.76' text-anchor='middle' style='font-size: 6.40px;fill: #4D4D4D; font-family: "Arial";' textLength='8.89px' lengthAdjust='spacingAndGlyphs'>0.5</text>
<text x='503.92' y='187.76' text-anchor='middle' style='font-size: 6.40px;fill: #4D4D4D; font-family: "Arial";' textLength='8.89px' lengthAdjust='spacingAndGlyphs'>1.0</text>
</g>
<g clip-path='url(#cpNDUxLjA4fDUxMC4yNHwxOC4wMHwyMDIuMzk=)'>
</g>
<g clip-path='url(#cpMC4wMHw1MTAuMjR8MC4wMHwyMDIuMzk=)'>
</g>
<g clip-path='url(#cpNDUxLjA4fDUxMC4yNHwxOC4wMHwyMDIuMzk=)'>
</g>
<g clip-path='url(#cpMC4wMHw1MTAuMjR8MC4wMHwyMDIuMzk=)'>
<text x='480.66' y='196.91' text-anchor='middle' style='font-size: 8.00px; font-family: "Arial";' textLength='85.41px' lengthAdjust='spacingAndGlyphs'>95% CIs of associations</text>
</g>
<g clip-path='url(#cpNDUxLjA4fDUxMC4yNHwxOC4wMHwyMDIuMzk=)'>
</g>
<g clip-path='url(#cpMC4wMHw1MTAuMjR8MC4wMHwyMDIuMzk=)'>
</g>
<g clip-path='url(#cpNDUxLjA4fDUxMC4yNHwxOC4wMHwyMDIuMzk=)'>
</g>
<g clip-path='url(#cpMC4wMHw1MTAuMjR8MC4wMHwyMDIuMzk=)'>
</g>
<g clip-path='url(#cpNDUxLjA4fDUxMC4yNHwxOC4wMHwyMDIuMzk=)'>
</g>
<g clip-path='url(#cpMC4wMHw1MTAuMjR8MC4wMHwyMDIuMzk=)'>
</g>
<g clip-path='url(#cpNDUxLjA4fDUxMC4yNHwxOC4wMHwyMDIuMzk=)'>
</g>
<g clip-path='url(#cpMC4wMHw1MTAuMjR8MC4wMHwyMDIuMzk=)'>
</g>
<g clip-path='url(#cpNDUxLjA4fDUxMC4yNHwxOC4wMHwyMDIuMzk=)'>
</g>
<g clip-path='url(#cpMC4wMHw1MTAuMjR8MC4wMHwyMDIuMzk=)'>
</g>
<g clip-path='url(#cpNDUxLjA4fDUxMC4yNHwxOC4wMHwyMDIuMzk=)'>
</g>
<g clip-path='url(#cpMC4wMHw1MTAuMjR8MC4wMHwyMDIuMzk=)'>
</g>
<g clip-path='url(#cpNDUxLjA4fDUxMC4yNHwxOC4wMHwyMDIuMzk=)'>
</g>
<g clip-path='url(#cpMC4wMHw1MTAuMjR8MC4wMHwyMDIuMzk=)'>
</g>
<g clip-path='url(#cpNDUxLjA4fDUxMC4yNHwxOC4wMHwyMDIuMzk=)'>
</g>
<g clip-path='url(#cpMC4wMHw1MTAuMjR8MC4wMHwyMDIuMzk=)'>
</g>
<g clip-path='url(#cpNDUxLjA4fDUxMC4yNHwxOC4wMHwyMDIuMzk=)'>
</g>
<g clip-path='url(#cpMC4wMHw1MTAuMjR8MC4wMHwyMDIuMzk=)'>
</g>
<g clip-path='url(#cpNDUxLjA4fDUxMC4yNHwxOC4wMHwyMDIuMzk=)'>
</g>
<g clip-path='url(#cpMC4wMHw1MTAuMjR8MC4wMHwyMDIuMzk=)'>
</g>
<g clip-path='url(#cpNDUxLjA4fDUxMC4yNHwxOC4wMHwyMDIuMzk=)'>
</g>
<g clip-path='url(#cpMC4wMHw1MTAuMjR8MC4wMHwyMDIuMzk=)'>
<text x='2.30' y='8.78' style='font-size: 9.60px; font-weight: bold; font-family: "Arial";' textLength='147.66px' lengthAdjust='spacingAndGlyphs'>Means and associations (r) with </text>
<text x='149.96' y='8.78' style='font-size: 9.60px; font-weight: bold; font-family: "Arial";' textLength='43.17px' lengthAdjust='spacingAndGlyphs'>proximity</text>
<text x='193.13' y='8.78' style='font-size: 9.60px; font-weight: bold; font-family: "Arial";' textLength='2.66px' lengthAdjust='spacingAndGlyphs'> </text>
</g>
</svg>
