<?xml version='1.0' encoding='UTF-8' ?>
<svg xmlns='http://www.w3.org/2000/svg' xmlns:xlink='http://www.w3.org/1999/xlink' class='svglite' width='510.24pt' height='68.46pt' viewBox='0 0 510.24 68.46'>
<defs>
  <style type='text/css'><![CDATA[
    .svglite line, .svglite polyline, .svglite polygon, .svglite path, .svglite rect, .svglite circle {
      fill: none;
      stroke: #000000;
      stroke-linecap: round;
      stroke-linejoin: round;
      stroke-miterlimit: 10.00;
    }
    .svglite text {
      white-space: pre;
    }
  ]]></style>
</defs>
<rect width='100%' height='100%' style='stroke: none; fill: none;'/>
<defs>
  <clipPath id='cpMC4wMHw1MTAuMjR8MC4wMHw2OC40Ng=='>
    <rect x='0.00' y='0.00' width='510.24' height='68.46' />
  </clipPath>
</defs>
<g clip-path='url(#cpMC4wMHw1MTAuMjR8MC4wMHw2OC40Ng==)'>
</g>
<defs>
  <clipPath id='cpMjYyLjQ5fDQyNC44M3wxOC4wMHw2OC40Ng=='>
    <rect x='262.49' y='18.00' width='162.35' height='50.46' />
  </clipPath>
</defs>
<g clip-path='url(#cpMjYyLjQ5fDQyNC44M3wxOC4wMHw2OC40Ng==)'>
<rect x='262.49' y='18.00' width='162.35' height='50.46' style='stroke-width: 0.78; stroke: #FFFFFF; fill: #FFFFFF;' />
</g>
<g clip-path='url(#cpMC4wMHw1MTAuMjR8MC4wMHw2OC40Ng==)'>
</g>
<defs>
  <clipPath id='cpMzAyLjc2fDM4OC4xNnwyMS45OXw0NS42Ng=='>
    <rect x='302.76' y='21.99' width='85.40' height='23.68' />
  </clipPath>
</defs>
<g clip-path='url(#cpMzAyLjc2fDM4OC4xNnwyMS45OXw0NS42Ng==)'>
<rect x='302.76' y='21.99' width='85.40' height='23.68' style='stroke-width: 0.78; stroke: none; fill: #FFFFFF;' />
<polyline points='304.80,45.66 304.80,21.99 ' style='stroke-width: 0.39; stroke: #EBEBEB; stroke-linecap: butt;' />
<polyline points='322.41,45.66 322.41,21.99 ' style='stroke-width: 0.39; stroke: #EBEBEB; stroke-linecap: butt;' />
<polyline points='340.03,45.66 340.03,21.99 ' style='stroke-width: 0.39; stroke: #EBEBEB; stroke-linecap: butt;' />
<polyline points='357.65,45.66 357.65,21.99 ' style='stroke-width: 0.39; stroke: #EBEBEB; stroke-linecap: butt;' />
<polyline points='375.26,45.66 375.26,21.99 ' style='stroke-width: 0.39; stroke: #EBEBEB; stroke-linecap: butt;' />
<polyline points='302.76,33.97 388.16,33.97 ' style='stroke-width: 0.78; stroke: #EBEBEB; stroke-linecap: butt;' />
<polyline points='313.60,45.66 313.60,21.99 ' style='stroke-width: 0.78; stroke: #EBEBEB; stroke-linecap: butt;' />
<polyline points='331.22,45.66 331.22,21.99 ' style='stroke-width: 0.78; stroke: #EBEBEB; stroke-linecap: butt;' />
<polyline points='348.84,45.66 348.84,21.99 ' style='stroke-width: 0.78; stroke: #EBEBEB; stroke-linecap: butt;' />
<polyline points='366.45,45.66 366.45,21.99 ' style='stroke-width: 0.78; stroke: #EBEBEB; stroke-linecap: butt;' />
<polyline points='384.07,45.66 384.07,21.99 ' style='stroke-width: 0.78; stroke: #EBEBEB; stroke-linecap: butt;' />
<circle cx='333.77' cy='35.19' r='2.13' style='stroke-width: 0.00; stroke: #444444; stroke-opacity: 0.10; fill: #444444; fill-opacity: 0.10;' />
<circle cx='344.56' cy='25.80' r='2.13' style='stroke-width: 0.00; stroke: #444444; stroke-opacity: 0.10; fill: #444444; fill-opacity: 0.10;' />
<circle cx='342.56' cy='27.36' r='2.13' style='stroke-width: 0.00; stroke: #444444; stroke-opacity: 0.10; fill: #444444; fill-opacity: 0.10;' />
<circle cx='313.90' cy='43.07' r='2.13' style='stroke-width: 0.00; stroke: #444444; stroke-opacity: 0.10; fill: #444444; fill-opacity: 0.10;' />
<circle cx='335.97' cy='39.64' r='2.13' style='stroke-width: 0.00; stroke: #444444; stroke-opacity: 0.10; fill: #444444; fill-opacity: 0.10;' />
<circle cx='322.47' cy='43.21' r='2.13' style='stroke-width: 0.00; stroke: #444444; stroke-opacity: 0.10; fill: #444444; fill-opacity: 0.10;' />
<circle cx='324.56' cy='43.37' r='2.13' style='stroke-width: 0.00; stroke: #444444; stroke-opacity: 0.10; fill: #444444; fill-opacity: 0.10;' />
<circle cx='335.42' cy='40.30' r='2.13' style='stroke-width: 0.00; stroke: #444444; stroke-opacity: 0.10; fill: #444444; fill-opacity: 0.10;' />
<circle cx='325.53' cy='34.64' r='2.13' style='stroke-width: 0.00; stroke: #444444; stroke-opacity: 0.10; fill: #444444; fill-opacity: 0.10;' />
<circle cx='323.33' cy='38.39' r='2.13' style='stroke-width: 0.00; stroke: #444444; stroke-opacity: 0.10; fill: #444444; fill-opacity: 0.10;' />
<circle cx='325.41' cy='38.80' r='2.13' style='stroke-width: 0.00; stroke: #444444; stroke-opacity: 0.10; fill: #444444; fill-opacity: 0.10;' />
<circle cx='318.50' cy='26.07' r='2.13' style='stroke-width: 0.00; stroke: #444444; stroke-opacity: 0.10; fill: #444444; fill-opacity: 0.10;' />
<circle cx='312.07' cy='42.67' r='2.13' style='stroke-width: 0.00; stroke: #444444; stroke-opacity: 0.10; fill: #444444; fill-opacity: 0.10;' />
<circle cx='319.78' cy='40.10' r='2.13' style='stroke-width: 0.00; stroke: #444444; stroke-opacity: 0.10; fill: #444444; fill-opacity: 0.10;' />
<circle cx='332.33' cy='24.53' r='2.13' style='stroke-width: 0.00; stroke: #444444; stroke-opacity: 0.10; fill: #444444; fill-opacity: 0.10;' />
<circle cx='313.26' cy='35.14' r='2.13' style='stroke-width: 0.00; stroke: #444444; stroke-opacity: 0.10; fill: #444444; fill-opacity: 0.10;' />
<circle cx='337.32' cy='25.00' r='2.13' style='stroke-width: 0.00; stroke: #444444; stroke-opacity: 0.10; fill: #444444; fill-opacity: 0.10;' />
<circle cx='322.28' cy='27.73' r='2.13' style='stroke-width: 0.00; stroke: #444444; stroke-opacity: 0.10; fill: #444444; fill-opacity: 0.10;' />
<circle cx='318.99' cy='30.48' r='2.13' style='stroke-width: 0.00; stroke: #444444; stroke-opacity: 0.10; fill: #444444; fill-opacity: 0.10;' />
<circle cx='349.85' cy='42.53' r='2.13' style='stroke-width: 0.00; stroke: #444444; stroke-opacity: 0.10; fill: #444444; fill-opacity: 0.10;' />
<circle cx='323.08' cy='33.05' r='2.13' style='stroke-width: 0.00; stroke: #444444; stroke-opacity: 0.10; fill: #444444; fill-opacity: 0.10;' />
<circle cx='318.89' cy='43.55' r='2.13' style='stroke-width: 0.00; stroke: #444444; stroke-opacity: 0.10; fill: #444444; fill-opacity: 0.10;' />
<circle cx='315.19' cy='40.71' r='2.13' style='stroke-width: 0.00; stroke: #444444; stroke-opacity: 0.10; fill: #444444; fill-opacity: 0.10;' />
<circle cx='352.64' cy='41.62' r='2.13' style='stroke-width: 0.00; stroke: #444444; stroke-opacity: 0.10; fill: #444444; fill-opacity: 0.10;' />
<circle cx='330.30' cy='37.38' r='2.13' style='stroke-width: 0.00; stroke: #444444; stroke-opacity: 0.10; fill: #444444; fill-opacity: 0.10;' />
<circle cx='329.75' cy='26.45' r='2.13' style='stroke-width: 0.00; stroke: #444444; stroke-opacity: 0.10; fill: #444444; fill-opacity: 0.10;' />
<circle cx='318.95' cy='28.50' r='2.13' style='stroke-width: 0.00; stroke: #444444; stroke-opacity: 0.10; fill: #444444; fill-opacity: 0.10;' />
<circle cx='342.91' cy='40.85' r='2.13' style='stroke-width: 0.00; stroke: #444444; stroke-opacity: 0.10; fill: #444444; fill-opacity: 0.10;' />
<circle cx='319.24' cy='43.12' r='2.13' style='stroke-width: 0.00; stroke: #444444; stroke-opacity: 0.10; fill: #444444; fill-opacity: 0.10;' />
<circle cx='329.29' cy='23.51' r='2.13' style='stroke-width: 0.00; stroke: #444444; stroke-opacity: 0.10; fill: #444444; fill-opacity: 0.10;' />
<circle cx='316.08' cy='39.27' r='2.13' style='stroke-width: 0.00; stroke: #444444; stroke-opacity: 0.10; fill: #444444; fill-opacity: 0.10;' />
<circle cx='329.47' cy='39.14' r='2.13' style='stroke-width: 0.00; stroke: #444444; stroke-opacity: 0.10; fill: #444444; fill-opacity: 0.10;' />
<circle cx='309.78' cy='38.43' r='2.13' style='stroke-width: 0.00; stroke: #444444; stroke-opacity: 0.10; fill: #444444; fill-opacity: 0.10;' />
<circle cx='327.94' cy='26.06' r='2.13' style='stroke-width: 0.00; stroke: #444444; stroke-opacity: 0.10; fill: #444444; fill-opacity: 0.10;' />
<circle cx='319.97' cy='44.59' r='2.13' style='stroke-width: 0.00; stroke: #444444; stroke-opacity: 0.10; fill: #444444; fill-opacity: 0.10;' />
<circle cx='326.72' cy='28.36' r='2.13' style='stroke-width: 0.00; stroke: #444444; stroke-opacity: 0.10; fill: #444444; fill-opacity: 0.10;' />
<circle cx='319.80' cy='29.05' r='2.13' style='stroke-width: 0.00; stroke: #444444; stroke-opacity: 0.10; fill: #444444; fill-opacity: 0.10;' />
<circle cx='327.88' cy='29.42' r='2.13' style='stroke-width: 0.00; stroke: #444444; stroke-opacity: 0.10; fill: #444444; fill-opacity: 0.10;' />
<circle cx='332.56' cy='34.67' r='2.13' style='stroke-width: 0.00; stroke: #444444; stroke-opacity: 0.10; fill: #444444; fill-opacity: 0.10;' />
<circle cx='320.48' cy='43.86' r='2.13' style='stroke-width: 0.00; stroke: #444444; stroke-opacity: 0.10; fill: #444444; fill-opacity: 0.10;' />
<circle cx='353.43' cy='39.84' r='2.13' style='stroke-width: 0.00; stroke: #444444; stroke-opacity: 0.10; fill: #444444; fill-opacity: 0.10;' />
<circle cx='323.61' cy='24.91' r='2.13' style='stroke-width: 0.00; stroke: #444444; stroke-opacity: 0.10; fill: #444444; fill-opacity: 0.10;' />
<circle cx='323.51' cy='34.34' r='2.13' style='stroke-width: 0.00; stroke: #444444; stroke-opacity: 0.10; fill: #444444; fill-opacity: 0.10;' />
<circle cx='335.09' cy='35.91' r='2.13' style='stroke-width: 0.00; stroke: #444444; stroke-opacity: 0.10; fill: #444444; fill-opacity: 0.10;' />
<circle cx='312.10' cy='31.48' r='2.13' style='stroke-width: 0.00; stroke: #444444; stroke-opacity: 0.10; fill: #444444; fill-opacity: 0.10;' />
<circle cx='384.28' cy='33.78' r='2.13' style='stroke-width: 0.00; stroke: #444444; stroke-opacity: 0.10; fill: #444444; fill-opacity: 0.10;' />
<circle cx='318.32' cy='25.77' r='2.13' style='stroke-width: 0.00; stroke: #444444; stroke-opacity: 0.10; fill: #444444; fill-opacity: 0.10;' />
<circle cx='318.84' cy='28.73' r='2.13' style='stroke-width: 0.00; stroke: #444444; stroke-opacity: 0.10; fill: #444444; fill-opacity: 0.10;' />
<circle cx='326.67' cy='24.53' r='2.13' style='stroke-width: 0.00; stroke: #444444; stroke-opacity: 0.10; fill: #444444; fill-opacity: 0.10;' />
<circle cx='354.02' cy='36.65' r='2.13' style='stroke-width: 0.00; stroke: #444444; stroke-opacity: 0.10; fill: #444444; fill-opacity: 0.10;' />
<circle cx='321.15' cy='35.49' r='2.13' style='stroke-width: 0.00; stroke: #444444; stroke-opacity: 0.10; fill: #444444; fill-opacity: 0.10;' />
<circle cx='325.28' cy='40.41' r='2.13' style='stroke-width: 0.00; stroke: #444444; stroke-opacity: 0.10; fill: #444444; fill-opacity: 0.10;' />
<circle cx='309.83' cy='29.11' r='2.13' style='stroke-width: 0.00; stroke: #444444; stroke-opacity: 0.10; fill: #444444; fill-opacity: 0.10;' />
<circle cx='311.76' cy='35.14' r='2.13' style='stroke-width: 0.00; stroke: #444444; stroke-opacity: 0.10; fill: #444444; fill-opacity: 0.10;' />
<circle cx='316.20' cy='30.05' r='2.13' style='stroke-width: 0.00; stroke: #444444; stroke-opacity: 0.10; fill: #444444; fill-opacity: 0.10;' />
<circle cx='313.96' cy='29.91' r='2.13' style='stroke-width: 0.00; stroke: #444444; stroke-opacity: 0.10; fill: #444444; fill-opacity: 0.10;' />
<circle cx='308.39' cy='42.56' r='2.13' style='stroke-width: 0.00; stroke: #444444; stroke-opacity: 0.10; fill: #444444; fill-opacity: 0.10;' />
<circle cx='350.18' cy='26.28' r='2.13' style='stroke-width: 0.00; stroke: #444444; stroke-opacity: 0.10; fill: #444444; fill-opacity: 0.10;' />
<circle cx='347.59' cy='28.37' r='2.13' style='stroke-width: 0.00; stroke: #444444; stroke-opacity: 0.10; fill: #444444; fill-opacity: 0.10;' />
<circle cx='315.52' cy='38.96' r='2.13' style='stroke-width: 0.00; stroke: #444444; stroke-opacity: 0.10; fill: #444444; fill-opacity: 0.10;' />
<circle cx='309.95' cy='36.31' r='2.13' style='stroke-width: 0.00; stroke: #444444; stroke-opacity: 0.10; fill: #444444; fill-opacity: 0.10;' />
<circle cx='313.36' cy='43.48' r='2.13' style='stroke-width: 0.00; stroke: #444444; stroke-opacity: 0.10; fill: #444444; fill-opacity: 0.10;' />
<circle cx='317.46' cy='23.74' r='2.13' style='stroke-width: 0.00; stroke: #444444; stroke-opacity: 0.10; fill: #444444; fill-opacity: 0.10;' />
<circle cx='313.53' cy='24.55' r='2.13' style='stroke-width: 0.00; stroke: #444444; stroke-opacity: 0.10; fill: #444444; fill-opacity: 0.10;' />
<circle cx='329.03' cy='33.67' r='2.13' style='stroke-width: 0.00; stroke: #444444; stroke-opacity: 0.10; fill: #444444; fill-opacity: 0.10;' />
<circle cx='317.26' cy='24.43' r='2.13' style='stroke-width: 0.00; stroke: #444444; stroke-opacity: 0.10; fill: #444444; fill-opacity: 0.10;' />
<circle cx='307.82' cy='36.53' r='2.13' style='stroke-width: 0.00; stroke: #444444; stroke-opacity: 0.10; fill: #444444; fill-opacity: 0.10;' />
<circle cx='336.47' cy='42.57' r='2.13' style='stroke-width: 0.00; stroke: #444444; stroke-opacity: 0.10; fill: #444444; fill-opacity: 0.10;' />
<circle cx='325.21' cy='35.92' r='2.13' style='stroke-width: 0.00; stroke: #444444; stroke-opacity: 0.10; fill: #444444; fill-opacity: 0.10;' />
<circle cx='334.61' cy='24.90' r='2.13' style='stroke-width: 0.00; stroke: #444444; stroke-opacity: 0.10; fill: #444444; fill-opacity: 0.10;' />
<circle cx='313.22' cy='25.29' r='2.13' style='stroke-width: 0.00; stroke: #444444; stroke-opacity: 0.10; fill: #444444; fill-opacity: 0.10;' />
<circle cx='307.66' cy='36.03' r='2.13' style='stroke-width: 0.00; stroke: #444444; stroke-opacity: 0.10; fill: #444444; fill-opacity: 0.10;' />
<circle cx='322.26' cy='41.93' r='2.13' style='stroke-width: 0.00; stroke: #444444; stroke-opacity: 0.10; fill: #444444; fill-opacity: 0.10;' />
<circle cx='332.95' cy='42.86' r='2.13' style='stroke-width: 0.00; stroke: #444444; stroke-opacity: 0.10; fill: #444444; fill-opacity: 0.10;' />
<circle cx='339.01' cy='28.17' r='2.13' style='stroke-width: 0.00; stroke: #444444; stroke-opacity: 0.10; fill: #444444; fill-opacity: 0.10;' />
<circle cx='340.11' cy='32.59' r='2.13' style='stroke-width: 0.00; stroke: #444444; stroke-opacity: 0.10; fill: #444444; fill-opacity: 0.10;' />
<circle cx='311.25' cy='39.39' r='2.13' style='stroke-width: 0.00; stroke: #444444; stroke-opacity: 0.10; fill: #444444; fill-opacity: 0.10;' />
<circle cx='313.94' cy='28.15' r='2.13' style='stroke-width: 0.00; stroke: #444444; stroke-opacity: 0.10; fill: #444444; fill-opacity: 0.10;' />
<circle cx='315.14' cy='42.81' r='2.13' style='stroke-width: 0.00; stroke: #444444; stroke-opacity: 0.10; fill: #444444; fill-opacity: 0.10;' />
<circle cx='317.01' cy='25.21' r='2.13' style='stroke-width: 0.00; stroke: #444444; stroke-opacity: 0.10; fill: #444444; fill-opacity: 0.10;' />
<circle cx='313.81' cy='27.45' r='2.13' style='stroke-width: 0.00; stroke: #444444; stroke-opacity: 0.10; fill: #444444; fill-opacity: 0.10;' />
<circle cx='315.66' cy='32.45' r='2.13' style='stroke-width: 0.00; stroke: #444444; stroke-opacity: 0.10; fill: #444444; fill-opacity: 0.10;' />
<circle cx='317.37' cy='36.36' r='2.13' style='stroke-width: 0.00; stroke: #444444; stroke-opacity: 0.10; fill: #444444; fill-opacity: 0.10;' />
<circle cx='324.05' cy='39.44' r='2.13' style='stroke-width: 0.00; stroke: #444444; stroke-opacity: 0.10; fill: #444444; fill-opacity: 0.10;' />
<circle cx='314.80' cy='32.18' r='2.13' style='stroke-width: 0.00; stroke: #444444; stroke-opacity: 0.10; fill: #444444; fill-opacity: 0.10;' />
<circle cx='362.01' cy='40.61' r='2.13' style='stroke-width: 0.00; stroke: #444444; stroke-opacity: 0.10; fill: #444444; fill-opacity: 0.10;' />
<circle cx='352.24' cy='44.37' r='2.13' style='stroke-width: 0.00; stroke: #444444; stroke-opacity: 0.10; fill: #444444; fill-opacity: 0.10;' />
<circle cx='324.48' cy='32.73' r='2.13' style='stroke-width: 0.00; stroke: #444444; stroke-opacity: 0.10; fill: #444444; fill-opacity: 0.10;' />
<circle cx='331.12' cy='35.30' r='2.13' style='stroke-width: 0.00; stroke: #444444; stroke-opacity: 0.10; fill: #444444; fill-opacity: 0.10;' />
<circle cx='320.49' cy='25.02' r='2.13' style='stroke-width: 0.00; stroke: #444444; stroke-opacity: 0.10; fill: #444444; fill-opacity: 0.10;' />
<circle cx='339.07' cy='43.47' r='2.13' style='stroke-width: 0.00; stroke: #444444; stroke-opacity: 0.10; fill: #444444; fill-opacity: 0.10;' />
<circle cx='337.62' cy='35.59' r='2.13' style='stroke-width: 0.00; stroke: #444444; stroke-opacity: 0.10; fill: #444444; fill-opacity: 0.10;' />
<circle cx='319.53' cy='33.14' r='2.13' style='stroke-width: 0.00; stroke: #444444; stroke-opacity: 0.10; fill: #444444; fill-opacity: 0.10;' />
<circle cx='315.13' cy='40.79' r='2.13' style='stroke-width: 0.00; stroke: #444444; stroke-opacity: 0.10; fill: #444444; fill-opacity: 0.10;' />
<circle cx='318.89' cy='31.12' r='2.13' style='stroke-width: 0.00; stroke: #444444; stroke-opacity: 0.10; fill: #444444; fill-opacity: 0.10;' />
<circle cx='333.59' cy='40.75' r='2.13' style='stroke-width: 0.00; stroke: #444444; stroke-opacity: 0.10; fill: #444444; fill-opacity: 0.10;' />
<circle cx='353.30' cy='31.04' r='2.13' style='stroke-width: 0.00; stroke: #444444; stroke-opacity: 0.10; fill: #444444; fill-opacity: 0.10;' />
<circle cx='340.60' cy='32.97' r='2.13' style='stroke-width: 0.00; stroke: #444444; stroke-opacity: 0.10; fill: #444444; fill-opacity: 0.10;' />
<circle cx='324.00' cy='25.14' r='2.13' style='stroke-width: 0.00; stroke: #444444; stroke-opacity: 0.10; fill: #444444; fill-opacity: 0.10;' />
<circle cx='319.57' cy='34.38' r='2.13' style='stroke-width: 0.00; stroke: #444444; stroke-opacity: 0.10; fill: #444444; fill-opacity: 0.10;' />
<circle cx='326.79' cy='32.69' r='2.13' style='stroke-width: 0.00; stroke: #444444; stroke-opacity: 0.10; fill: #444444; fill-opacity: 0.10;' />
<circle cx='315.62' cy='38.00' r='2.13' style='stroke-width: 0.00; stroke: #444444; stroke-opacity: 0.10; fill: #444444; fill-opacity: 0.10;' />
<circle cx='352.37' cy='41.25' r='2.13' style='stroke-width: 0.00; stroke: #444444; stroke-opacity: 0.10; fill: #444444; fill-opacity: 0.10;' />
<circle cx='314.31' cy='38.95' r='2.13' style='stroke-width: 0.00; stroke: #444444; stroke-opacity: 0.10; fill: #444444; fill-opacity: 0.10;' />
<circle cx='311.25' cy='36.81' r='2.13' style='stroke-width: 0.00; stroke: #444444; stroke-opacity: 0.10; fill: #444444; fill-opacity: 0.10;' />
<circle cx='317.53' cy='43.58' r='2.13' style='stroke-width: 0.00; stroke: #444444; stroke-opacity: 0.10; fill: #444444; fill-opacity: 0.10;' />
<circle cx='324.03' cy='42.51' r='2.13' style='stroke-width: 0.00; stroke: #444444; stroke-opacity: 0.10; fill: #444444; fill-opacity: 0.10;' />
<circle cx='318.41' cy='23.06' r='2.13' style='stroke-width: 0.00; stroke: #444444; stroke-opacity: 0.10; fill: #444444; fill-opacity: 0.10;' />
<circle cx='315.54' cy='23.67' r='2.13' style='stroke-width: 0.00; stroke: #444444; stroke-opacity: 0.10; fill: #444444; fill-opacity: 0.10;' />
<circle cx='325.05' cy='38.82' r='2.13' style='stroke-width: 0.00; stroke: #444444; stroke-opacity: 0.10; fill: #444444; fill-opacity: 0.10;' />
<circle cx='323.36' cy='32.00' r='2.13' style='stroke-width: 0.00; stroke: #444444; stroke-opacity: 0.10; fill: #444444; fill-opacity: 0.10;' />
<circle cx='328.39' cy='23.18' r='2.13' style='stroke-width: 0.00; stroke: #444444; stroke-opacity: 0.10; fill: #444444; fill-opacity: 0.10;' />
<circle cx='323.98' cy='42.58' r='2.13' style='stroke-width: 0.00; stroke: #444444; stroke-opacity: 0.10; fill: #444444; fill-opacity: 0.10;' />
<circle cx='306.64' cy='27.52' r='2.13' style='stroke-width: 0.00; stroke: #444444; stroke-opacity: 0.10; fill: #444444; fill-opacity: 0.10;' />
<circle cx='312.27' cy='42.05' r='2.13' style='stroke-width: 0.00; stroke: #444444; stroke-opacity: 0.10; fill: #444444; fill-opacity: 0.10;' />
<circle cx='338.89' cy='32.73' r='2.13' style='stroke-width: 0.00; stroke: #444444; stroke-opacity: 0.10; fill: #444444; fill-opacity: 0.10;' />
<circle cx='350.72' cy='40.97' r='2.13' style='stroke-width: 0.00; stroke: #444444; stroke-opacity: 0.10; fill: #444444; fill-opacity: 0.10;' />
<circle cx='329.76' cy='43.23' r='2.13' style='stroke-width: 0.00; stroke: #444444; stroke-opacity: 0.10; fill: #444444; fill-opacity: 0.10;' />
<circle cx='311.27' cy='29.67' r='2.13' style='stroke-width: 0.00; stroke: #444444; stroke-opacity: 0.10; fill: #444444; fill-opacity: 0.10;' />
<circle cx='317.84' cy='25.67' r='2.13' style='stroke-width: 0.00; stroke: #444444; stroke-opacity: 0.10; fill: #444444; fill-opacity: 0.10;' />
<circle cx='308.75' cy='35.35' r='2.13' style='stroke-width: 0.00; stroke: #444444; stroke-opacity: 0.10; fill: #444444; fill-opacity: 0.10;' />
<circle cx='320.85' cy='36.06' r='2.13' style='stroke-width: 0.00; stroke: #444444; stroke-opacity: 0.10; fill: #444444; fill-opacity: 0.10;' />
<circle cx='308.90' cy='39.20' r='2.13' style='stroke-width: 0.00; stroke: #444444; stroke-opacity: 0.10; fill: #444444; fill-opacity: 0.10;' />
<circle cx='323.33' cy='28.47' r='2.13' style='stroke-width: 0.00; stroke: #444444; stroke-opacity: 0.10; fill: #444444; fill-opacity: 0.10;' />
<circle cx='317.29' cy='38.80' r='2.13' style='stroke-width: 0.00; stroke: #444444; stroke-opacity: 0.10; fill: #444444; fill-opacity: 0.10;' />
<circle cx='325.46' cy='33.23' r='2.13' style='stroke-width: 0.00; stroke: #444444; stroke-opacity: 0.10; fill: #444444; fill-opacity: 0.10;' />
<circle cx='317.38' cy='30.28' r='2.13' style='stroke-width: 0.00; stroke: #444444; stroke-opacity: 0.10; fill: #444444; fill-opacity: 0.10;' />
<circle cx='340.20' cy='23.57' r='2.13' style='stroke-width: 0.00; stroke: #444444; stroke-opacity: 0.10; fill: #444444; fill-opacity: 0.10;' />
<circle cx='322.14' cy='26.82' r='2.13' style='stroke-width: 0.00; stroke: #444444; stroke-opacity: 0.10; fill: #444444; fill-opacity: 0.10;' />
<circle cx='339.27' cy='40.87' r='2.13' style='stroke-width: 0.00; stroke: #444444; stroke-opacity: 0.10; fill: #444444; fill-opacity: 0.10;' />
<circle cx='329.95' cy='32.14' r='2.13' style='stroke-width: 0.00; stroke: #444444; stroke-opacity: 0.10; fill: #444444; fill-opacity: 0.10;' />
<circle cx='314.96' cy='41.89' r='2.13' style='stroke-width: 0.00; stroke: #444444; stroke-opacity: 0.10; fill: #444444; fill-opacity: 0.10;' />
<circle cx='321.99' cy='36.12' r='2.13' style='stroke-width: 0.00; stroke: #444444; stroke-opacity: 0.10; fill: #444444; fill-opacity: 0.10;' />
<circle cx='324.66' cy='29.06' r='2.13' style='stroke-width: 0.00; stroke: #444444; stroke-opacity: 0.10; fill: #444444; fill-opacity: 0.10;' />
<circle cx='323.79' cy='24.36' r='2.13' style='stroke-width: 0.00; stroke: #444444; stroke-opacity: 0.10; fill: #444444; fill-opacity: 0.10;' />
<circle cx='315.99' cy='23.33' r='2.13' style='stroke-width: 0.00; stroke: #444444; stroke-opacity: 0.10; fill: #444444; fill-opacity: 0.10;' />
<circle cx='309.39' cy='25.37' r='2.13' style='stroke-width: 0.00; stroke: #444444; stroke-opacity: 0.10; fill: #444444; fill-opacity: 0.10;' />
<polygon points='321.15,33.97 325.48,39.49 329.80,33.97 325.48,28.44 321.15,33.97 ' style='stroke-width: 1.07; stroke: #534955; stroke-linecap: butt; fill: #534955;' />
<rect x='302.76' y='21.99' width='85.40' height='23.68' style='stroke-width: 0.78; stroke: #333333;' />
</g>
<g clip-path='url(#cpMC4wMHw1MTAuMjR8MC4wMHw2OC40Ng==)'>
<text x='299.17' y='36.26' text-anchor='end' style='font-size: 6.40px;fill: #4D4D4D; font-family: "Arial";' textLength='33.41px' lengthAdjust='spacingAndGlyphs'>very normal</text>
<polyline points='300.77,33.97 302.76,33.97 ' style='stroke-width: 0.78; stroke: #333333; stroke-linecap: butt;' />
<polyline points='390.15,33.97 388.16,33.97 ' style='stroke-width: 0.78; stroke: #333333; stroke-linecap: butt;' />
<text x='391.75' y='36.26' style='font-size: 6.40px;fill: #4D4D4D; font-family: "Arial";' textLength='29.14px' lengthAdjust='spacingAndGlyphs'>very weird</text>
<polyline points='313.60,47.65 313.60,45.66 ' style='stroke-width: 0.78; stroke: #333333; stroke-linecap: butt;' />
<polyline points='331.22,47.65 331.22,45.66 ' style='stroke-width: 0.78; stroke: #333333; stroke-linecap: butt;' />
<polyline points='348.84,47.65 348.84,45.66 ' style='stroke-width: 0.78; stroke: #333333; stroke-linecap: butt;' />
<polyline points='366.45,47.65 366.45,45.66 ' style='stroke-width: 0.78; stroke: #333333; stroke-linecap: butt;' />
<polyline points='384.07,47.65 384.07,45.66 ' style='stroke-width: 0.78; stroke: #333333; stroke-linecap: butt;' />
<text x='313.60' y='53.83' text-anchor='middle' style='font-size: 6.40px;fill: #4D4D4D; font-family: "Arial";' textLength='3.56px' lengthAdjust='spacingAndGlyphs'>1</text>
<text x='331.22' y='53.83' text-anchor='middle' style='font-size: 6.40px;fill: #4D4D4D; font-family: "Arial";' textLength='3.56px' lengthAdjust='spacingAndGlyphs'>2</text>
<text x='348.84' y='53.83' text-anchor='middle' style='font-size: 6.40px;fill: #4D4D4D; font-family: "Arial";' textLength='3.56px' lengthAdjust='spacingAndGlyphs'>3</text>
<text x='366.45' y='53.83' text-anchor='middle' style='font-size: 6.40px;fill: #4D4D4D; font-family: "Arial";' textLength='3.56px' lengthAdjust='spacingAndGlyphs'>4</text>
<text x='384.07' y='53.83' text-anchor='middle' style='font-size: 6.40px;fill: #4D4D4D; font-family: "Arial";' textLength='3.56px' lengthAdjust='spacingAndGlyphs'>5</text>
<text x='345.46' y='62.97' text-anchor='middle' style='font-size: 8.00px; font-family: "Arial";' textLength='84.07px' lengthAdjust='spacingAndGlyphs'>Scores and 99.99% CIs</text>
</g>
<defs>
  <clipPath id='cpMC4wMHwyNjIuNDl8MjEuOTl8NDUuNjY='>
    <rect x='0.00' y='21.99' width='262.49' height='23.68' />
  </clipPath>
</defs>
<g clip-path='url(#cpMC4wMHwyNjIuNDl8MjEuOTl8NDUuNjY=)'>
</g>
<g clip-path='url(#cpMC4wMHw1MTAuMjR8MC4wMHw2OC40Ng==)'>
<text x='3.59' y='28.12' style='font-size: 8.00px; font-family: "Arial";' textLength='251.89px' lengthAdjust='spacingAndGlyphs'>AttExExWeird * AttExEvWeird [Keeping at least {distRec} distance from</text>
<text x='3.59' y='36.76' style='font-size: 8.00px; font-family: "Arial";' textLength='88.94px' lengthAdjust='spacingAndGlyphs'>others makes me feel …]</text>
<text x='3.59' y='45.40' style='font-size: 8.00px; font-family: "Arial";' textLength='48.77px' lengthAdjust='spacingAndGlyphs'>[AttEx_Weird]</text>
</g>
<g clip-path='url(#cpMC4wMHwyNjIuNDl8MjEuOTl8NDUuNjY=)'>
</g>
<g clip-path='url(#cpMC4wMHw1MTAuMjR8MC4wMHw2OC40Ng==)'>
</g>
<defs>
  <clipPath id='cpNDI0LjgzfDUxMC4yNHwxOC4wMHw2OC40Ng=='>
    <rect x='424.83' y='18.00' width='85.40' height='50.46' />
  </clipPath>
</defs>
<g clip-path='url(#cpNDI0LjgzfDUxMC4yNHwxOC4wMHw2OC40Ng==)'>
<rect x='424.83' y='18.00' width='85.40' height='50.46' style='stroke-width: 0.78; stroke: #FFFFFF; fill: #FFFFFF;' />
</g>
<defs>
  <clipPath id='cpNDI4LjgyfDUwNi4yNXwyMS45OXw0NS42Ng=='>
    <rect x='428.82' y='21.99' width='77.43' height='23.68' />
  </clipPath>
</defs>
<g clip-path='url(#cpNDI4LjgyfDUwNi4yNXwyMS45OXw0NS42Ng==)'>
<rect x='428.82' y='21.99' width='77.43' height='23.68' style='stroke-width: 0.78; stroke: none; fill: #FFFFFF;' />
<polyline points='441.14,45.66 441.14,21.99 ' style='stroke-width: 0.39; stroke: #EBEBEB; stroke-linecap: butt;' />
<polyline points='458.74,45.66 458.74,21.99 ' style='stroke-width: 0.39; stroke: #EBEBEB; stroke-linecap: butt;' />
<polyline points='476.33,45.66 476.33,21.99 ' style='stroke-width: 0.39; stroke: #EBEBEB; stroke-linecap: butt;' />
<polyline points='493.93,45.66 493.93,21.99 ' style='stroke-width: 0.39; stroke: #EBEBEB; stroke-linecap: butt;' />
<polyline points='432.34,45.66 432.34,21.99 ' style='stroke-width: 0.78; stroke: #EBEBEB; stroke-linecap: butt;' />
<polyline points='449.94,45.66 449.94,21.99 ' style='stroke-width: 0.78; stroke: #EBEBEB; stroke-linecap: butt;' />
<polyline points='467.53,45.66 467.53,21.99 ' style='stroke-width: 0.78; stroke: #EBEBEB; stroke-linecap: butt;' />
<polyline points='485.13,45.66 485.13,21.99 ' style='stroke-width: 0.78; stroke: #EBEBEB; stroke-linecap: butt;' />
<polyline points='502.73,45.66 502.73,21.99 ' style='stroke-width: 0.78; stroke: #EBEBEB; stroke-linecap: butt;' />
<line x1='449.94' y1='45.66' x2='449.94' y2='21.99' style='stroke-width: 1.07; stroke: #BEBEBE; stroke-linecap: butt;' />
<line x1='467.53' y1='45.66' x2='467.53' y2='21.99' style='stroke-width: 1.07; stroke: #BEBEBE; stroke-linecap: butt;' />
<line x1='485.13' y1='45.66' x2='485.13' y2='21.99' style='stroke-width: 1.07; stroke: #BEBEBE; stroke-linecap: butt;' />
<polygon points='455.09,33.82 460.58,44.59 466.45,33.82 460.58,23.06 455.09,33.82 ' style='stroke-width: 2.13; stroke-linecap: butt; fill: #4A605F; fill-opacity: 0.50;' />
<rect x='428.82' y='21.99' width='77.43' height='23.68' style='stroke-width: 0.78; stroke: #333333;' />
</g>
<g clip-path='url(#cpNDI0LjgzfDUxMC4yNHwxOC4wMHw2OC40Ng==)'>
</g>
<g clip-path='url(#cpMC4wMHw1MTAuMjR8MC4wMHw2OC40Ng==)'>
</g>
<g clip-path='url(#cpNDI0LjgzfDUxMC4yNHwxOC4wMHw2OC40Ng==)'>
</g>
<g clip-path='url(#cpMC4wMHw1MTAuMjR8MC4wMHw2OC40Ng==)'>
</g>
<g clip-path='url(#cpNDI0LjgzfDUxMC4yNHwxOC4wMHw2OC40Ng==)'>
</g>
<g clip-path='url(#cpMC4wMHw1MTAuMjR8MC4wMHw2OC40Ng==)'>
</g>
<g clip-path='url(#cpNDI0LjgzfDUxMC4yNHwxOC4wMHw2OC40Ng==)'>
</g>
<g clip-path='url(#cpMC4wMHw1MTAuMjR8MC4wMHw2OC40Ng==)'>
</g>
<g clip-path='url(#cpNDI0LjgzfDUxMC4yNHwxOC4wMHw2OC40Ng==)'>
</g>
<g clip-path='url(#cpMC4wMHw1MTAuMjR8MC4wMHw2OC40Ng==)'>
</g>
<g clip-path='url(#cpNDI0LjgzfDUxMC4yNHwxOC4wMHw2OC40Ng==)'>
</g>
<g clip-path='url(#cpMC4wMHw1MTAuMjR8MC4wMHw2OC40Ng==)'>
</g>
<g clip-path='url(#cpNDI0LjgzfDUxMC4yNHwxOC4wMHw2OC40Ng==)'>
</g>
<g clip-path='url(#cpMC4wMHw1MTAuMjR8MC4wMHw2OC40Ng==)'>
</g>
<g clip-path='url(#cpNDI0LjgzfDUxMC4yNHwxOC4wMHw2OC40Ng==)'>
</g>
<g clip-path='url(#cpMC4wMHw1MTAuMjR8MC4wMHw2OC40Ng==)'>
<polyline points='432.34,47.65 432.34,45.66 ' style='stroke-width: 0.78; stroke: #333333; stroke-linecap: butt;' />
<polyline points='449.94,47.65 449.94,45.66 ' style='stroke-width: 0.78; stroke: #333333; stroke-linecap: butt;' />
<polyline points='467.53,47.65 467.53,45.66 ' style='stroke-width: 0.78; stroke: #333333; stroke-linecap: butt;' />
<polyline points='485.13,47.65 485.13,45.66 ' style='stroke-width: 0.78; stroke: #333333; stroke-linecap: butt;' />
<polyline points='502.73,47.65 502.73,45.66 ' style='stroke-width: 0.78; stroke: #333333; stroke-linecap: butt;' />
<text x='432.34' y='53.83' text-anchor='middle' style='font-size: 6.40px;fill: #4D4D4D; font-family: "Arial";' textLength='11.02px' lengthAdjust='spacingAndGlyphs'>-1.0</text>
<text x='449.94' y='53.83' text-anchor='middle' style='font-size: 6.40px;fill: #4D4D4D; font-family: "Arial";' textLength='11.02px' lengthAdjust='spacingAndGlyphs'>-0.5</text>
<text x='467.53' y='53.83' text-anchor='middle' style='font-size: 6.40px;fill: #4D4D4D; font-family: "Arial";' textLength='8.89px' lengthAdjust='spacingAndGlyphs'>0.0</text>
<text x='485.13' y='53.83' text-anchor='middle' style='font-size: 6.40px;fill: #4D4D4D; font-family: "Arial";' textLength='8.89px' lengthAdjust='spacingAndGlyphs'>0.5</text>
<text x='502.73' y='53.83' text-anchor='middle' style='font-size: 6.40px;fill: #4D4D4D; font-family: "Arial";' textLength='8.89px' lengthAdjust='spacingAndGlyphs'>1.0</text>
</g>
<g clip-path='url(#cpNDI0LjgzfDUxMC4yNHwxOC4wMHw2OC40Ng==)'>
</g>
<g clip-path='url(#cpMC4wMHw1MTAuMjR8MC4wMHw2OC40Ng==)'>
</g>
<g clip-path='url(#cpNDI0LjgzfDUxMC4yNHwxOC4wMHw2OC40Ng==)'>
</g>
<g clip-path='url(#cpMC4wMHw1MTAuMjR8MC4wMHw2OC40Ng==)'>
<text x='467.53' y='62.97' text-anchor='middle' style='font-size: 8.00px; font-family: "Arial";' textLength='85.41px' lengthAdjust='spacingAndGlyphs'>95% CIs of associations</text>
</g>
<g clip-path='url(#cpNDI0LjgzfDUxMC4yNHwxOC4wMHw2OC40Ng==)'>
</g>
<g clip-path='url(#cpMC4wMHw1MTAuMjR8MC4wMHw2OC40Ng==)'>
</g>
<g clip-path='url(#cpNDI0LjgzfDUxMC4yNHwxOC4wMHw2OC40Ng==)'>
</g>
<g clip-path='url(#cpMC4wMHw1MTAuMjR8MC4wMHw2OC40Ng==)'>
</g>
<g clip-path='url(#cpNDI0LjgzfDUxMC4yNHwxOC4wMHw2OC40Ng==)'>
</g>
<g clip-path='url(#cpMC4wMHw1MTAuMjR8MC4wMHw2OC40Ng==)'>
</g>
<g clip-path='url(#cpNDI0LjgzfDUxMC4yNHwxOC4wMHw2OC40Ng==)'>
</g>
<g clip-path='url(#cpMC4wMHw1MTAuMjR8MC4wMHw2OC40Ng==)'>
</g>
<g clip-path='url(#cpNDI0LjgzfDUxMC4yNHwxOC4wMHw2OC40Ng==)'>
</g>
<g clip-path='url(#cpMC4wMHw1MTAuMjR8MC4wMHw2OC40Ng==)'>
</g>
<g clip-path='url(#cpNDI0LjgzfDUxMC4yNHwxOC4wMHw2OC40Ng==)'>
</g>
<g clip-path='url(#cpMC4wMHw1MTAuMjR8MC4wMHw2OC40Ng==)'>
</g>
<g clip-path='url(#cpNDI0LjgzfDUxMC4yNHwxOC4wMHw2OC40Ng==)'>
</g>
<g clip-path='url(#cpMC4wMHw1MTAuMjR8MC4wMHw2OC40Ng==)'>
</g>
<g clip-path='url(#cpNDI0LjgzfDUxMC4yNHwxOC4wMHw2OC40Ng==)'>
</g>
<g clip-path='url(#cpMC4wMHw1MTAuMjR8MC4wMHw2OC40Ng==)'>
</g>
<g clip-path='url(#cpNDI0LjgzfDUxMC4yNHwxOC4wMHw2OC40Ng==)'>
</g>
<g clip-path='url(#cpMC4wMHw1MTAuMjR8MC4wMHw2OC40Ng==)'>
</g>
<g clip-path='url(#cpNDI0LjgzfDUxMC4yNHwxOC4wMHw2OC40Ng==)'>
</g>
<g clip-path='url(#cpMC4wMHw1MTAuMjR8MC4wMHw2OC40Ng==)'>
</g>
<g clip-path='url(#cpNDI0LjgzfDUxMC4yNHwxOC4wMHw2OC40Ng==)'>
</g>
<g clip-path='url(#cpMC4wMHw1MTAuMjR8MC4wMHw2OC40Ng==)'>
<text x='2.30' y='8.78' style='font-size: 9.60px; font-weight: bold; font-family: "Arial";' textLength='147.66px' lengthAdjust='spacingAndGlyphs'>Means and associations (r) with </text>
<text x='149.96' y='8.78' style='font-size: 9.60px; font-weight: bold; font-family: "Arial";' textLength='43.17px' lengthAdjust='spacingAndGlyphs'>proximity</text>
<text x='193.13' y='8.78' style='font-size: 9.60px; font-weight: bold; font-family: "Arial";' textLength='2.66px' lengthAdjust='spacingAndGlyphs'> </text>
</g>
</svg>
